46.904915
46.904915
49.322422
56.853096
56.354225
51.337769
61.349407
60.288456
53.729160
53.729160
59.307407
59.307407
62.976009
61.829655
59.735863
54.977249
49.657501
47.219643
50.008503
56.084274
55.612770
59.938839
61.585011
56.515518
62.025318
57.669674
55.686726
52.659664
52.700764
50.370258
49.665890
57.126820
59.054592
55.851063
57.575562
53.822441
53.573410
51.040684
53.450226
54.391842
53.313454
55.403172
52.427185
48.518410
49.871834
50.155434
52.687122
47.772079
45.946274
38.772072
40.006046
21.661360
62.603142
62.603142
62.603142
62.603142
55.227402
62.609436
57.182373
56.130676
51.183846
55.400848
54.164703
55.006966
61.269855
59.201252
59.888641
55.868752
58.016136
53.995594
57.224422
52.312134
56.267944
50.862118
56.628002
52.679779
52.567795
53.692093
53.325272
44.695190
51.985306
50.221119
56.317043
50.246868
56.818913
48.868778
47.356552
39.620270
43.881325
45.014545
48.426949
50.613056
48.733768
48.119591
44.745075
38.851204
35.164192
20.920965
68.366791
68.366791
68.366791
68.366791
34.183396
17.091698
8.545849
4.272924
2.136462
1.068231
0.534116
0.267058
0.133529
0.066764
0.033382
0.016691
0.008346
0.004173
0.002086
0.001043
0.000522
0.000261
0.000130
0.000065
0.000033
0.000016
0.000008
0.000004
0.000002
0.000001
0.000001
0.000000
0.000000
0.000000
0.000000
0.000000
0.000000
0.000000
0.000000
0.000000
0.000000
0.000000
0.000000
0.000000
0.000000
0.000000
0.000000
0.000000
0.000000
0.000000
0.000000
0.000000
0.000000
0.000000
0.000000
0.000000
0.000000
0.000000
0.000000
0.000000
0.000000
0.000000
0.000000
0.000000
0.000000
0.000000
0.000000
0.000000
0.000000
0.000000
0.000000
0.000000
0.000000
0.000000
0.000000
0.000000
0.000000
0.000000
0.000000
0.000000
0.000000
0.000000
0.000000
0.000000
0.000000
0.000000
0.000000
0.000000
0.000000
0.000000
0.000000
0.000000
0.000000
0.000000
0.000000
0.000000
0.000000
0.000000
0.000000
0.000000
0.000000
0.000000
0.000000
0.000000
0.000000
0.000000
0.000000
0.000000
0.000000
0.000000
