55.210117
68.766571
45.574329
68.682671
54.203541
70.684402
63.412178
47.933914
51.734249
70.526146
66.670029
53.400604
66.612495
64.985542
66.661674
49.477829
49.477829
51.784874
54.653614
68.356194
54.660385
60.576923
66.110336
64.721275
54.305885
43.041885
67.689949
59.123207
51.799068
48.991837
53.138931
66.034439
69.996300
59.661781
68.696938
58.890297
55.036713
45.555500
61.372177
69.024887
71.482605
58.332047
71.081261
55.793358
51.350723
55.978676
67.043350
48.531757
53.035618
52.185230
46.954021
30.556765
46.759430
46.759430
46.759430
46.759430
56.073578
55.121555
48.986393
65.193291
57.738888
58.583889
64.327911
60.633842
60.633842
58.278088
63.336285
57.580570
69.675583
72.562729
62.983505
59.721031
49.726559
49.002724
61.315289
55.390411
57.020947
68.503967
68.503967
66.867149
58.303772
52.505207
52.505207
59.432629
54.722561
55.119869
55.119869
55.119858
68.313843
67.901871
69.201797
65.776718
55.924252
48.159878
51.253246
68.366791
56.654675
72.552780
72.816338
40.842789
56.178345
56.178345
71.071716
60.770309
50.301315
58.111275
38.005009
32.036255
48.980934
48.980934
48.980934
48.980934
45.476421
57.650826
58.246017
52.581375
42.016006
74.942642
60.991634
62.407131
61.352253
67.295708
70.011116
52.947533
54.046326
63.625652
62.693993
60.298073
59.139065
58.418335
59.087559
48.601288
55.913616
70.170784
54.365021
40.755974
56.825016
53.493450
66.848564
47.881870
51.910854
61.835434
56.339828
53.143200
47.266880
46.790451
34.853394
56.127102
69.365074
49.716282
48.947426
59.103397
60.636616
39.793064
30.574396
34.740364
50.433628
43.533340
60.621334
52.417835
43.883507
52.604374
63.221275
52.585556
53.973564
64.781494
64.692795
46.889122
56.615887
63.685383
63.685383
46.532356
62.950672
55.001812
55.001812
45.405682
61.947746
65.842186
45.411640
46.259548
53.806736
52.582420
64.598030
49.391472
51.146248
48.592365
58.128296
47.639626
43.355728
41.653549
41.632576
43.283386
63.139809
45.710533
41.879681
46.500183
36.890388
20.000000
20.000000
20.000000
67.510002
67.510002
33.755001
16.877501
8.438750
4.219375
2.109688
0.000000
