54.948330
54.948330
45.574329
45.574329
68.682671
70.684402
63.412178
63.412178
47.148968
47.148968
60.118603
53.400604
72.752922
72.752922
60.799625
60.799625
42.632725
51.784874
62.358597
62.358597
54.660385
54.660385
66.168198
64.721275
62.559109
62.559109
67.689949
67.689949
59.123207
58.054325
62.156828
66.259331
64.263847
63.817471
70.193130
66.408997
56.422722
49.896286
55.634231
61.372177
69.024887
71.482605
58.332047
48.253853
48.253853
59.975521
59.983677
62.079159
48.531757
53.035618
44.200188
34.054932
34.054932
44.991390
44.991390
44.991390
56.073578
56.073578
48.986393
48.986393
59.498112
63.087120
58.583889
60.104946
73.585854
54.473587
63.043537
63.043537
64.142311
64.142311
72.562729
62.983505
49.726559
42.454193
62.159031
55.390411
55.390411
63.447151
63.447151
66.867149
58.303772
49.207767
66.648193
66.648193
65.323654
39.095745
65.511269
59.530239
66.405663
62.410076
71.440140
69.201797
69.754570
33.338371
63.111195
64.676979
64.887932
64.887932
62.411549
72.816338
45.131248
45.131248
71.071716
71.071716
60.770309
50.301315
50.271687
41.437634
30.315182
48.980953
48.980953
48.980953
48.980953
57.650826
57.650826
58.246017
56.230873
43.401241
65.199715
64.213951
64.213951
54.275021
67.438866
52.947533
52.947533
53.569153
62.693993
62.693993
55.417095
55.417095
59.087559
59.087559
44.107349
76.337196
76.337196
51.333786
48.944424
51.470650
51.470650
64.908691
50.774216
50.774220
57.678875
53.143200
53.143200
47.266880
37.849747
37.849747
56.127102
49.716282
48.947426
59.103397
54.133678
54.133678
32.524521
32.524521
50.433624
50.433624
60.621334
60.621334
56.682590
41.283115
58.720402
51.486610
51.486610
51.486614
64.781494
64.692795
46.889122
60.495232
60.495232
57.763161
58.760677
56.313507
53.749844
45.458450
45.458450
61.875919
65.842186
52.431339
40.707691
53.806736
64.290398
64.290398
45.066681
51.146248
50.401920
50.401920
52.805939
38.303417
41.653549
34.932537
60.410961
60.410961
41.879681
49.432072
49.432072
35.232555
20.000000
84.266167
84.266167
84.266167
42.133083
21.066542
10.533271
5.266635
2.633318
0.000000
