52.334896
52.334896
53.542160
53.710621
61.530590
55.615108
57.896809
54.730484
62.423328
44.061081
65.428650
53.256580
50.125977
56.877541
56.877541
68.588318
42.543613
51.384628
52.751198
47.145607
49.259068
52.214066
50.804501
52.602283
45.364147
41.673229
46.602558
53.491594
60.380630
39.218594
44.839573
50.460552
44.972466
51.378639
52.803833
51.560856
51.671616
50.755775
40.139565
49.816437
47.002399
49.963181
56.868980
42.754654
45.754009
50.619833
55.485657
56.039139
44.604027
40.395096
43.890350
35.883121
33.768520
35.474859
37.181198
65.107201
47.874073
48.457989
51.910854
51.910854
59.630856
50.043026
50.043026
51.212574
58.032681
41.639126
54.062889
56.007111
43.787647
58.091286
41.945404
41.945404
60.459270
44.395229
50.523182
49.308636
51.386623
51.386623
48.293484
49.487545
49.487545
45.208359
47.145607
47.145607
56.714180
36.262470
41.230366
46.749943
51.312881
51.312881
51.589005
50.401920
52.348354
47.660217
41.493515
41.493515
47.806606
52.355606
52.355606
51.299946
44.969410
51.454575
51.454575
49.934891
49.934891
47.086040
54.921333
29.597647
53.126396
53.126396
53.126396
53.126396
50.200157
70.419159
70.419159
42.562088
45.880947
45.880947
53.417854
53.417854
53.521584
53.650723
53.650723
52.856571
45.757172
45.757172
54.686371
54.256889
54.256889
57.536747
57.536747
56.306206
44.188377
52.676636
48.855244
48.855244
46.201393
45.681335
45.681335
56.814034
46.461807
44.842896
44.842896
48.207260
48.064522
48.064522
37.417274
55.375343
55.375343
46.613232
42.677418
45.498314
45.498314
39.858402
55.795712
55.795712
55.795712
58.011051
73.424538
62.436584
62.436584
51.879303
51.879303
53.779396
51.757526
54.697674
54.697674
57.246708
53.829723
46.363300
50.938492
50.938492
56.090218
54.537586
56.834778
53.609417
53.609417
44.826183
52.833355
48.140602
52.341106
52.341106
45.557850
55.530457
49.076820
58.759521
45.070518
51.980198
45.399952
46.933201
38.316357
48.003197
56.600140
56.783554
42.569622
42.569622
46.058243
20.005898
20.005898
20.000000
21.726578
21.726578
10.863289
5.931644
2.465822
1.232911
6.616456
0.000000
