46.658440
46.658440
45.630917
46.070271
45.104324
49.334377
49.813622
47.553150
47.553150
48.960304
50.970844
47.427094
55.659027
56.360229
48.227467
45.835003
38.254845
45.440495
47.420910
46.070759
48.187943
48.518410
48.637024
50.016068
45.968624
49.516254
54.214783
48.915699
48.915699
50.630489
49.653774
48.163383
47.279549
46.820255
47.091908
46.059174
46.059162
48.927601
45.794151
49.111923
50.107941
49.820187
52.617973
37.974682
39.965561
48.073254
44.454525
44.454525
50.795723
45.520229
45.460011
26.398491
48.672138
48.672138
48.672138
48.672138
47.045143
47.045151
49.167465
49.167465
42.529251
50.902237
48.958294
48.887741
47.188488
47.537773
49.988667
51.069252
54.123711
54.687500
54.587090
48.811085
39.377930
45.191372
47.583939
47.171661
43.358570
48.230106
45.860271
50.947319
46.329208
49.593281
55.232014
47.848965
49.105484
45.579178
47.117977
44.663506
48.149361
48.610218
45.259445
50.425503
46.842636
47.249157
44.680630
50.219017
52.191406
48.188820
53.947155
41.645679
45.470169
47.945206
48.806580
42.574417
48.651333
42.052734
44.619068
28.543381
43.824545
59.105709
59.105709
59.105709
59.105709
58.591675
56.467274
55.166374
50.082336
51.829506
49.767712
51.027885
52.496876
52.711262
51.491623
52.633675
51.867100
55.177879
52.529182
51.023949
53.554081
51.702915
50.289978
50.132454
45.715275
52.388779
49.436691
48.040958
53.218021
48.182678
51.658434
55.134190
50.306095
55.917160
51.964886
47.484882
48.075874
37.843792
32.604275
40.481617
49.162968
47.876671
47.236927
47.236927
46.272495
38.860901
36.976482
38.322834
38.322834
46.026196
52.952831
57.479256
53.397373
46.674900
48.820087
48.457100
52.098923
51.086014
50.351086
50.532829
54.867805
53.428642
53.428642
52.008804
52.258408
53.235153
52.780659
49.729362
53.561668
50.718803
47.175026
49.694805
52.344215
52.344215
51.833569
51.654465
50.543446
54.591595
50.678005
51.779808
51.779808
43.749275
33.945709
49.089088
49.089088
42.851589
48.913948
37.094151
37.094151
20.000000
42.976597
76.102430
109.228264
67.510002
33.755001
16.877501
8.438750
4.219375
2.109688
0.000000
