brightness attackT attackS attackL kurtosis spread skewness flatness entropy RMS
0.388948657384643 0.0179591836734694 15.1948245959912 0.316241640848486 3.4438243595945 6357.03223476103 1.35350286292067 0.38566717582678 0.7532117662935 0.00067500397666575
0.239405445870289 0.0848979591836735 9.80298571159435 0.483336735602039 16.3305520829382 3595.3434100758 3.63368265633 0.128144604311828 0.6610554397895 0.0205645682103911
0.134525561865018 0.0482539682539683 20.1266665222123 0.97119152742104 42.8243469920381 2254.09861929781 5.94681434619736 0.0518031340000124 0.515460692846855 0.0231620810033668
0.169831282529283 0.0464399092970522 20.442640655591 0.949354377837879 53.4457957487928 1970.889761739 6.50822700523636 0.040711223760712 0.488077569029215 0.0405406301842049
0.316520703626555 0.0402721088435374 24.4524814283612 0.984752993577541 44.4792117074339 2013.73852835364 5.60878661945983 0.0426110399170333 0.597714005316777 0.0239435315054825
0.186985249726072 0.0449886621315193 21.1350140433191 0.9508360059398 61.0221100281483 1760.54072718164 6.7320021676764 0.0335722955743344 0.52064961694925 0.0494652542346359
0.151815803737913 0.039546485260771 24.1305537728689 0.954278589113003 61.3978351317193 1768.77646874165 6.75752167415798 0.0327957739228618 0.536325687349747 0.0379518891036787
0.146028970774044 0.0439002267573696 21.7686856977157 0.955650238339626 67.2805211686205 1672.015647732 7.01502384598371 0.0298899125181448 0.556746739152515 0.0364136114068199
0.123715254721349 0.0431746031746032 22.4706138914605 0.970159837853533 61.3914483260509 1813.30992047043 6.96823922760897 0.0348582015790019 0.514006085115959 0.0449234905719977
0.132001827223151 0.075827664399093 12.4991673197013 0.947782664786423 58.7110261767879 1879.22644617078 6.84728344810111 0.0370768208184965 0.466705112759869 0.0541695126196382
0.207748244872375 0.0707482993197279 13.2639596506039 0.93840258752572 19.4204146255727 3345.72133067335 3.99069108631031 0.108332548140278 0.646228350781882 0.0306079235867841
0.261752039940834 0.0671201814058957 14.0539367344006 0.943302783079951 7.10490227126544 5107.98937503586 2.28520640182821 0.236167324382991 0.756295396297499 0.00494745103598684
