brightness attackT attackS attackL kurtosis spread skewness flatness entropy RMS
0.348803733170825 0.0287830687830688 10.6174818661308 0.304025032700314 3.91797144680772 6194.97334025102 1.51073263959495 0.352293579966552 0.727606098838088 0.000776069120552505
0.0770729378480606 0.0754648526077098 11.9944281620729 0.905157753364593 29.6754239783421 2849.7794994623 5.07968123473547 0.0676016474083858 0.546431775760012 0.00792818270582377
0.0610910826346767 0.0678458049886621 13.8274042982326 0.938131375517279 49.9982593865431 2199.69661565435 6.60407299123641 0.0442385700744769 0.546633472535523 0.0130046748996308
0.0770669000021686 0.0642176870748299 14.9310563708468 0.958837905719682 47.9158525862663 2200.66150250682 6.41010910073708 0.0478405092624885 0.520017205557199 0.0203145199673145
0.0666735809917898 0.0573242630385488 15.9798481101932 0.916033016384772 49.003111445213 2218.4731853117 6.52749440509903 0.0459142974884469 0.538747491888619 0.0133101788097766
0.0706427229644615 0.0464399092970522 18.5298998507167 0.860526868350743 37.9527770685802 2497.43131376625 5.73430957363728 0.0597347985025696 0.584993792162403 0.009127682660834
0.0607109845573073 0.0551473922902494 16.4620453664418 0.90783887372305 46.5441571929413 2287.95461265351 6.37418118880773 0.047366137515086 0.546606452487845 0.0119747469831502
0.068425664127954 0.0678458049886621 14.3209390078159 0.971615635178804 39.9562262525032 2451.65708711564 5.90399819878924 0.0550226092711377 0.530746410694799 0.0147517472279087
0.069698961873598 0.0558730158730159 15.9049759863956 0.888658975747815 41.7462557512981 2407.04186323654 6.03090775017905 0.0527491574273749 0.539034483568353 0.0117944114095848
0.0620320918142468 0.0605895691609977 15.2810206846856 0.925870459625393 39.0997007494093 2492.45572992006 5.84950766260522 0.055995047327375 0.565436442598909 0.0102728353439239
0.0869802060048247 0.0547845804988662 17.4165312958473 0.95415736078837 47.8543418235768 2246.98152352253 6.43843966296232 0.0458639032998854 0.531139120682215 0.0143690356314761
0.0766723379994544 0.0642176870748299 14.6446248005464 0.940443932769781 56.1807469704649 2070.08401396961 6.97049235018914 0.0408126960819518 0.532974837018631 0.0196142097018345
0.0976982230492939 0.0569614512471655 16.85433371523 0.96004730822353 43.4059884784046 2340.80563910263 6.11567091353008 0.0505490531948571 0.535563434969263 0.0142050114408562
0.0740388426806106 0.0482539682539683 18.2258129694332 0.879467800429793 46.2560119980847 2288.94151278739 6.34372062815341 0.0489298558076796 0.560896210846628 0.0127145168248909
0.0707492446884298 0.0424489795918367 21.0968302336721 0.89553891604159 40.6345565037819 2440.35613567158 5.94197768963343 0.0533515074029078 0.534910160869905 0.0131086283790372
0.0689539944078364 0.0816326530612245 12.0407206393967 0.982915970562995 54.5481998102466 2099.7979627527 6.87249966748627 0.0425423085196689 0.528491684599874 0.019380007455659
0.0815247181720343 0.0493424036281179 19.255504360402 0.950112868213942 49.8989541512685 2193.24097722717 6.56642936828522 0.0436775995557594 0.526565382403324 0.0165285897556418
0.0725794695270949 0.0475283446712018 18.5741358843021 0.88279793227885 49.7194470837526 2194.94297734448 6.55894776827156 0.0462066040955587 0.549458673813526 0.0139881217379854
0.075596637331291 0.0482539682539683 19.4597104572849 0.939008250637242 47.389260658777 2259.18172157839 6.40941076897911 0.0466000607504341 0.529775638988414 0.0149563851951486
0.0702061133950115 0.0624036281179138 15.2825247955022 0.953684994041314 52.6069739420848 2146.99466735258 6.76287758702773 0.0423714384134549 0.521113416099063 0.0187416634045691
0.142568954411818 0.0432955404383976 7.2303887064078 0.314386496230307 16.6087122020214 3647.87131675204 3.72010614436612 0.120755372248705 0.654903859790677 0.00770120733353486
