brightness attackT attackS attackL kurtosis spread skewness flatness entropy RMS
0.356194153327274 0.0453514739229025 12.4498030195137 0.564616916984749 3.84103852602644 6232.62805226358 1.48493044531719 0.361214168330819 0.735543733117041 0.000731817920434538
0.0887420982674651 0.0819954648526077 11.394431593131 0.934291715210016 21.3183939618097 3319.03926341638 4.28182366182754 0.0903483452127712 0.560246669304571 0.00566300187775216
0.0608990697815692 0.0740136054421769 12.583007122084 0.93131372441003 39.6562787818232 2479.15748777108 5.89723056101785 0.0543789791542494 0.550319253502209 0.0102307347011622
0.085341696244821 0.0729251700680272 13.5080842797995 0.98507934339762 34.3669458806376 2594.17689877115 5.42908864851106 0.0658262925591648 0.519777242098372 0.0160281944635268
0.0717133267273338 0.0555102040816327 16.1883318470672 0.898617604571895 39.4502064983818 2467.12998337397 5.85641201781047 0.0567769635170791 0.542823096987174 0.0115709238811474
0.112622835313353 0.0442630385487528 21.2508405643544 0.940626775093419 20.5497559491004 3278.39530269833 4.14925864926846 0.105922086987435 0.61007840949772 0.00611414984882487
0.0733032829326786 0.0663945578231293 14.0267818686035 0.931301979847414 29.1046728159355 2859.70370280869 5.02723231159659 0.0721855878432884 0.563162642168396 0.00767449284750796
0.0789302216286515 0.0721995464852608 13.6379105264445 0.984650955015855 34.5508453180881 2603.36119675991 5.46307086931412 0.063621285298176 0.514400006861083 0.0153433779385329
0.0753088392877032 0.0551473922902494 16.5491638859608 0.912643232894711 35.1069702372013 2606.03270882607 5.52178768025079 0.0622006170987479 0.549785820598505 0.0102466532258505
0.0868510358582423 0.0547845804988662 17.2965284549304 0.947583055490065 24.8454846795026 3069.66555196827 4.62116007869956 0.0857142629447622 0.572353279843767 0.00788171304311444
0.081573499311331 0.0562358276643991 17.0467743165347 0.958639462698551 35.7802465349591 2596.80222133319 5.57577885843296 0.0601312835942621 0.537460172367327 0.0108450092025352
0.0814640761563348 0.0656689342403628 15.0047358879672 0.985345014320932 32.8689969664515 2671.00111162865 5.33280891599928 0.066370435639761 0.524885633669649 0.0142956691776801
0.0871061514491179 0.0493424036281179 19.5059829391316 0.962472083345813 32.0098707954935 2737.57361491482 5.26817324616743 0.0658160895787483 0.538521974729163 0.0103288852392005
0.0856436883508103 0.0446258503401361 20.4938112634496 0.914553754341697 27.1961961358791 2932.54479132702 4.8419735352186 0.0779714106105953 0.553087466291591 0.00912630021196029
0.0739854162959786 0.0482539682539683 19.1978243318044 0.926371205852149 36.9981849605925 2561.09177693565 5.67343089739617 0.058330405050303 0.53413200596284 0.0119227121886149
0.0798906149136556 0.0595011337868481 16.3724970016727 0.974182134521294 32.4182921638681 2710.62537147574 5.29944955355077 0.0674425130809963 0.529633223802193 0.0135511203735537
0.0999753572261529 0.0193741496598639 4.78190717170063 0.20488160964822 21.58254846922 3289.95259762194 4.30093744142012 0.0923201362513023 0.552896932830472 0.00697535570296674
0.12320857747039 0.0431746031746032 21.4473396008401 0.925980376417223 16.8154572160228 3614.68963557965 3.7396092175756 0.122794246586453 0.605148323521578 0.00509965654681969
0.0877532003928659 0.0595011337868481 16.1332342976235 0.959945732357459 23.2634570307329 3175.6820462324 4.47944469839369 0.0861744336800923 0.545337081986654 0.00775062948966278
0.10226572529642 0.0751020408163265 13.0677002330179 0.981410956275632 20.8350568047464 3233.70364366308 4.19819347651138 0.0940587223673113 0.539160121396088 0.0106506725892807
0.213804673070964 0.0464399092970522 12.0981435472634 0.480203772879072 8.03881457591076 4893.79045038443 2.46648272651511 0.214018989466862 0.717168384370695 0.00355156611567512
