brightness attackT attackS attackL kurtosis spread skewness flatness entropy RMS
0.310304605152338 0.0292668178382464 5.97018511832263 0.256573348173926 4.51151571497385 5946.41714715238 1.68524879241024 0.314241155639609 0.67982956767519 0.00107796696257207
0.0922145089890445 0.054421768707483 16.4669953828482 0.896163014032553 52.7740646917751 2121.87266130303 6.74681867175244 0.0425825726212968 0.49616865398686 0.0253589879371995
0.105552644664187 0.0424489795918367 20.7662717451015 0.881507045506351 23.8467068780302 3129.48600165096 4.52389920519445 0.0820733638244544 0.545748590847684 0.00752706355693866
0.0734219445422452 0.0703854875283447 13.869530969098 0.976213699049436 37.297026325489 2548.2341372441 5.71331432444042 0.0544938138464836 0.481273744204018 0.0152494661233116
0.096030870782673 0.0565986394557823 16.4237808064305 0.929563648363957 22.7330805837089 3178.89190535678 4.42003224223694 0.085879727073889 0.545716174041795 0.00751614339781281
0.0847323365818719 0.0439002267573696 21.922673245167 0.962410326590552 42.3792019593043 2349.46312428444 6.02121694876232 0.0521617206577365 0.544350548897051 0.0153177158215083
0.100160964573523 0.0551473922902494 16.9000854638664 0.931995642814581 71.6617628349008 1786.42843197375 7.73001337883977 0.0323548009928716 0.509296108045185 0.0354031453343683
0.177043922080275 0.0442630385487528 21.2042398015641 0.938564083733631 56.148714921397 1927.04941316552 6.63049077119616 0.0375084448529853 0.572426817984816 0.0227869179590797
0.114190718574856 0.0555102040816327 17.0082146886821 0.944129468432967 73.1852585608011 1738.03781339689 7.72754763877038 0.0311044114467523 0.510603585301306 0.0386296616187337
0.0905697467284266 0.04281179138322 22.8029725093824 0.976236101988981 57.9237291406531 1974.5323968031 6.92907235837434 0.0389577032880881 0.550497789498254 0.0218335016554334
0.111208603811881 0.039546485260771 24.1887331823818 0.956579380273782 55.0938193685025 2023.17906309681 6.74423418648456 0.0416496754512583 0.563118119727205 0.0202828032420412
0.0822563326942888 0.0449886621315193 21.531485144263 0.968672710345074 67.6367089332472 1868.82213266544 7.59273285690714 0.0338724739916477 0.521496575303578 0.0269857732009425
0.0864085111593749 0.0769160997732426 12.5186358679997 0.962884645447959 70.276502454404 1825.67254825183 7.71974539231034 0.0319118969906339 0.470579545446649 0.0364591065687254
0.0883350638063502 0.0794557823129252 12.1016812735721 0.961548552893352 68.9823441660644 1853.10304162719 7.65308771283081 0.0318853195903173 0.463369229832384 0.0379173285379325
0.082144044803097 0.0442630385487528 20.7605046118828 0.918923015927331 33.8630096829807 2651.58831751102 5.41332939764837 0.0601878380719801 0.530343082345661 0.0110087851975919
0.0839271658149425 0.0602267573696145 15.4282585085052 0.929193981827432 33.5885815383281 2666.93247467632 5.4048497175499 0.0612527432846042 0.510540632474859 0.0125713259740615
0.125248920351273 0.0515192743764172 18.0326478107077 0.92902893029315 19.2593250514727 3453.11504452066 4.04116263812705 0.0988014860485688 0.548764593772814 0.00682829238351758
0.0680519442943435 0.0678458049886621 13.6513596737192 0.926187486253237 43.7644514506956 2356.24218929986 6.19222867436198 0.0501964563825096 0.566471362180896 0.0108921112163819
0.0816857746132468 0.0439002267573696 20.9774768004116 0.920915988335531 25.8222958929269 3037.07929786286 4.73316413811764 0.076114164180901 0.535209381216723 0.00873617505865293
0.104805072784195 0.0529705215419501 17.0343633762117 0.902319112173029 18.0433324211544 3567.88804604694 3.91580391138042 0.103684960846905 0.542326683277637 0.00722855245865433
0.307726762976553 0.0399092970521542 5.20958236334038 0.241583733925003 4.81111781381767 5812.96043343054 1.76356506272037 0.311771583229499 0.780787076130615 0.002088455798362
