brightness attackT attackS attackL kurtosis spread skewness flatness entropy RMS
0.400761748817194 0.0326530612244898 25.3794355382008 0.828716262471863 3.26820774056628 6493.60401783098 1.29372766181662 0.408027250301119 0.769591002816648 0.000459800004955761
0.118774953594007 0.0475283446712018 19.1406045346616 0.909721249538564 57.0713746264763 1990.45114004661 6.89556083598433 0.0387121718685611 0.488374175781029 0.0337645685762997
0.109491110799345 0.0409977324263039 22.2139676585437 0.910722302191543 26.9039917981004 2938.52461057673 4.79538421292328 0.0743438868388258 0.549576196553443 0.00875864920451557
0.076998904415433 0.0703854875283447 13.82049007485 0.972761931798964 41.7998620968384 2416.29494521191 6.04799325399162 0.0488836394760165 0.474843815772731 0.0168113306541148
0.0778337007636438 0.0529705215419501 17.1490491655774 0.908394078249182 40.2268558125366 2440.30481997023 5.9181935192978 0.0530419409801774 0.518912149428358 0.0151116937021852
0.0889163114016763 0.0500680272108844 19.4408687844139 0.973365947301266 71.092332199677 1769.05600564581 7.61360379701033 0.0321247554547868 0.5496144708008 0.0268583655063247
0.117577661041567 0.0551473922902494 16.8912379437177 0.931507725150144 78.3592137003214 1618.38407392466 7.83516009182025 0.0283065600411128 0.525950355535428 0.0459522523494122
0.213919113817996 0.0442630385487528 20.9765402379852 0.928485409173403 59.4514127265614 1777.98495856254 6.57586187921427 0.0324458734033296 0.573118811218583 0.0309310082015192
0.130068681238725 0.0439002267573696 21.4257671766461 0.940596037505372 76.8518087955589 1629.38254722427 7.71979383012938 0.0279668030495089 0.517495361462837 0.0463100352141591
0.101951790672461 0.0486167800453515 19.9005144657717 0.967498934571758 73.7092803485366 1677.46106002935 7.57211291460857 0.0290937213469114 0.557432953511587 0.0317280506329891
0.115460748119911 0.0518820861678005 18.614938520362 0.965781844321727 81.7746214750522 1562.65267695847 7.86038068606833 0.0254159410556603 0.535839109102625 0.0391862887163694
0.09144087859037 0.0424489795918367 22.3262977265145 0.947728556554087 85.8625759936497 1593.78141058489 8.33112919262162 0.0261658673048416 0.519200527486465 0.0430998237750599
0.10293890055243 0.0761904761904762 12.460262255792 0.949353314727012 79.9660711337169 1666.12288136175 8.06435204521708 0.0279366240868629 0.488403777201571 0.0484425350973059
0.098376402848947 0.0790929705215419 12.1411036710822 0.960275954755886 93.2105181394032 1527.85058047366 8.62092794944165 0.0228291344723273 0.4701930292581 0.0539446872498448
0.0911524808326443 0.0464399092970522 20.1921690190487 0.937722497755368 43.7527480051935 2317.92616364834 6.11250775759764 0.0501815054447005 0.544795717308501 0.0146949782750958
0.0897887010263632 0.0711111111111111 13.7485276971394 0.977673080685468 43.2255704083403 2346.46696902884 6.10941484262196 0.0494230403331512 0.512545015881764 0.0163931569445486
0.111593047051787 0.0442630385487528 21.4882499322189 0.951135235095042 28.3453357569445 2883.4201070228 4.9364072968927 0.0705224286519002 0.528249620149972 0.0104941160618094
0.079987005901492 0.0685714285714286 13.4911755253145 0.92510917887871 56.5919319085809 2058.5402994758 6.99435101682615 0.0398319224162001 0.569537767907718 0.014326988477226
0.0806270797663787 0.0435374149659864 20.8667613968803 0.908484849932205 32.3411379648639 2718.53201615359 5.29426640398261 0.0655805337163059 0.544139251717506 0.0106413876453271
0.0782123526591169 0.0624036281179138 14.862740819503 0.927488950913202 33.7736486774213 2659.76817438012 5.42036115587471 0.0627130138545307 0.510866587858679 0.0134631608242935
0.263606143200329 0.0358458049886623 4.02440865526914 0.187779087932558 6.01194163817696 5412.76118620424 2.05116578697954 0.263404529473078 0.746545810174336 0.0029044110731538
