<?xml version="1.0" encoding="UTF-8" standalone="no"?>
<!-- Created with Inkscape (http://www.inkscape.org/) -->

<svg
   xmlns:dc="http://purl.org/dc/elements/1.1/"
   xmlns:cc="http://creativecommons.org/ns#"
   xmlns:rdf="http://www.w3.org/1999/02/22-rdf-syntax-ns#"
   xmlns:svg="http://www.w3.org/2000/svg"
   xmlns="http://www.w3.org/2000/svg"
   xmlns:sodipodi="http://sodipodi.sourceforge.net/DTD/sodipodi-0.dtd"
   xmlns:inkscape="http://www.inkscape.org/namespaces/inkscape"
   width="769.96063"
   height="750.1181"
   id="svg19822"
   version="1.1"
   inkscape:version="0.48.5 r10040"
   sodipodi:docname="boites1_3.pdf">
  <defs
     id="defs19824" />
  <sodipodi:namedview
     id="base"
     pagecolor="#ffffff"
     bordercolor="#666666"
     borderopacity="1.0"
     inkscape:pageopacity="0.0"
     inkscape:pageshadow="2"
     inkscape:zoom="0.98994949"
     inkscape:cx="391.03146"
     inkscape:cy="317.24331"
     inkscape:document-units="px"
     inkscape:current-layer="layer1"
     showgrid="false"
     units="mm"
     inkscape:window-width="1920"
     inkscape:window-height="1057"
     inkscape:window-x="1676"
     inkscape:window-y="-4"
     inkscape:window-maximized="1" />
  <metadata
     id="metadata19827">
    <rdf:RDF>
      <cc:Work
         rdf:about="">
        <dc:format>image/svg+xml</dc:format>
        <dc:type
           rdf:resource="http://purl.org/dc/dcmitype/StillImage" />
        <dc:title></dc:title>
      </cc:Work>
    </rdf:RDF>
  </metadata>
  <g
     inkscape:label="Calque 1"
     inkscape:groupmode="layer"
     id="layer1"
     transform="translate(0,-302.24409)">
    <g
       transform="matrix(1.2889056,0,0,1.2889056,-742.47292,271.88173)"
       id="g3184">
      <path
         inkscape:connector-curvature="0"
         id="path3186"
         style="fill:#ffffff;fill-opacity:1;fill-rule:nonzero;stroke:none"
         d="m 650,570 500,0 0,-522 -500,0 0,522 z" />
    </g>
    <g
       transform="matrix(1.2889056,0,0,1.2889056,-742.47292,271.88173)"
       id="g3188">
      <path
         inkscape:connector-curvature="0"
         id="path3190"
         style="fill:none;stroke:#262626;stroke-width:1;stroke-linecap:square;stroke-linejoin:miter;stroke-miterlimit:10;stroke-opacity:1;stroke-dasharray:none"
         d="m 650,570 500,0" />
    </g>
    <g
       transform="matrix(1.2889056,0,0,1.2889056,-742.47292,271.88173)"
       id="g3192">
      <path
         inkscape:connector-curvature="0"
         id="path3194"
         style="fill:none;stroke:#262626;stroke-width:1;stroke-linecap:square;stroke-linejoin:miter;stroke-miterlimit:10;stroke-opacity:1;stroke-dasharray:none"
         d="m 650,48 500,0" />
    </g>
    <g
       transform="matrix(1.2889056,0,0,1.2889056,-742.47292,271.88173)"
       id="g3196">
      <path
         inkscape:connector-curvature="0"
         id="path3198"
         style="fill:none;stroke:#262626;stroke-width:1;stroke-linecap:square;stroke-linejoin:miter;stroke-miterlimit:10;stroke-opacity:1;stroke-dasharray:none"
         d="m 652.06384,570 0,-5.21997" />
    </g>
    <g
       transform="matrix(1.2889056,0,0,1.2889056,-742.47292,271.88173)"
       id="g3200">
      <path
         inkscape:connector-curvature="0"
         id="path3202"
         style="fill:none;stroke:#262626;stroke-width:1;stroke-linecap:square;stroke-linejoin:miter;stroke-miterlimit:10;stroke-opacity:1;stroke-dasharray:none"
         d="m 730.1297,570 0,-5.21997" />
    </g>
    <g
       transform="matrix(1.2889056,0,0,1.2889056,-742.47292,271.88173)"
       id="g3204">
      <path
         inkscape:connector-curvature="0"
         id="path3206"
         style="fill:none;stroke:#262626;stroke-width:1;stroke-linecap:square;stroke-linejoin:miter;stroke-miterlimit:10;stroke-opacity:1;stroke-dasharray:none"
         d="m 808.1955,570 0,-5.21997" />
    </g>
    <g
       transform="matrix(1.2889056,0,0,1.2889056,-742.47292,271.88173)"
       id="g3208">
      <path
         inkscape:connector-curvature="0"
         id="path3210"
         style="fill:none;stroke:#262626;stroke-width:1;stroke-linecap:square;stroke-linejoin:miter;stroke-miterlimit:10;stroke-opacity:1;stroke-dasharray:none"
         d="m 886.26129,570 0,-5.21997" />
    </g>
    <g
       transform="matrix(1.2889056,0,0,1.2889056,-742.47292,271.88173)"
       id="g3212">
      <path
         inkscape:connector-curvature="0"
         id="path3214"
         style="fill:none;stroke:#262626;stroke-width:1;stroke-linecap:square;stroke-linejoin:miter;stroke-miterlimit:10;stroke-opacity:1;stroke-dasharray:none"
         d="m 964.32709,570 0,-5.21997" />
    </g>
    <g
       transform="matrix(1.2889056,0,0,1.2889056,-742.47292,271.88173)"
       id="g3216">
      <path
         inkscape:connector-curvature="0"
         id="path3218"
         style="fill:none;stroke:#262626;stroke-width:1;stroke-linecap:square;stroke-linejoin:miter;stroke-miterlimit:10;stroke-opacity:1;stroke-dasharray:none"
         d="m 1042.3929,570 0,-5.21997" />
    </g>
    <g
       transform="matrix(1.2889056,0,0,1.2889056,-742.47292,271.88173)"
       id="g3220">
      <path
         inkscape:connector-curvature="0"
         id="path3222"
         style="fill:none;stroke:#262626;stroke-width:1;stroke-linecap:square;stroke-linejoin:miter;stroke-miterlimit:10;stroke-opacity:1;stroke-dasharray:none"
         d="m 1120.4587,570 0,-5.21997" />
    </g>
    <g
       transform="matrix(1.2889056,0,0,1.2889056,-742.47292,271.88173)"
       id="g3224">
      <path
         inkscape:connector-curvature="0"
         id="path3226"
         style="fill:none;stroke:#262626;stroke-width:1;stroke-linecap:square;stroke-linejoin:miter;stroke-miterlimit:10;stroke-opacity:1;stroke-dasharray:none"
         d="m 652.06384,48 0,5.219994" />
    </g>
    <g
       transform="matrix(1.2889056,0,0,1.2889056,-742.47292,271.88173)"
       id="g3228">
      <path
         inkscape:connector-curvature="0"
         id="path3230"
         style="fill:none;stroke:#262626;stroke-width:1;stroke-linecap:square;stroke-linejoin:miter;stroke-miterlimit:10;stroke-opacity:1;stroke-dasharray:none"
         d="m 730.1297,48 0,5.219994" />
    </g>
    <g
       transform="matrix(1.2889056,0,0,1.2889056,-742.47292,271.88173)"
       id="g3232">
      <path
         inkscape:connector-curvature="0"
         id="path3234"
         style="fill:none;stroke:#262626;stroke-width:1;stroke-linecap:square;stroke-linejoin:miter;stroke-miterlimit:10;stroke-opacity:1;stroke-dasharray:none"
         d="m 808.1955,48 0,5.219994" />
    </g>
    <g
       transform="matrix(1.2889056,0,0,1.2889056,-742.47292,271.88173)"
       id="g3236">
      <path
         inkscape:connector-curvature="0"
         id="path3238"
         style="fill:none;stroke:#262626;stroke-width:1;stroke-linecap:square;stroke-linejoin:miter;stroke-miterlimit:10;stroke-opacity:1;stroke-dasharray:none"
         d="m 886.26129,48 0,5.219994" />
    </g>
    <g
       transform="matrix(1.2889056,0,0,1.2889056,-742.47292,271.88173)"
       id="g3240">
      <path
         inkscape:connector-curvature="0"
         id="path3242"
         style="fill:none;stroke:#262626;stroke-width:1;stroke-linecap:square;stroke-linejoin:miter;stroke-miterlimit:10;stroke-opacity:1;stroke-dasharray:none"
         d="m 964.32709,48 0,5.219994" />
    </g>
    <g
       transform="matrix(1.2889056,0,0,1.2889056,-742.47292,271.88173)"
       id="g3244">
      <path
         inkscape:connector-curvature="0"
         id="path3246"
         style="fill:none;stroke:#262626;stroke-width:1;stroke-linecap:square;stroke-linejoin:miter;stroke-miterlimit:10;stroke-opacity:1;stroke-dasharray:none"
         d="m 1042.3929,48 0,5.219994" />
    </g>
    <g
       transform="matrix(1.2889056,0,0,1.2889056,-742.47292,271.88173)"
       id="g3248">
      <path
         inkscape:connector-curvature="0"
         id="path3250"
         style="fill:none;stroke:#262626;stroke-width:1;stroke-linecap:square;stroke-linejoin:miter;stroke-miterlimit:10;stroke-opacity:1;stroke-dasharray:none"
         d="m 1120.4587,48 0,5.219994" />
    </g>
    <g
       id="g3252"
       transform="matrix(0.13748327,0,0,0.13748327,-618.73794,271.88173)">
      <g
         transform="matrix(9.3750002,0,0,9.3750002,5213.0987,5393.7499)"
         id="g3254">
        <text
           id="text3256"
           transform="translate(-6,14)">
          <tspan
             id="tspan3258"
             sodipodi:role="line"
             y="0"
             x="0 4.329"
             style="font-size:13px;font-variant:normal;font-weight:normal;writing-mode:lr-tb;fill:#262626;fill-opacity:1;fill-rule:nonzero;stroke:none;font-family:Helvetica;-inkscape-font-specification:Helvetica">-8</tspan>
        </text>
      </g>
    </g>
    <g
       id="g3260"
       transform="matrix(0.13748327,0,0,0.13748327,-618.73794,271.88173)">
      <g
         transform="matrix(9.3750002,0,0,9.3750002,5944.9661,5393.7499)"
         id="g3262">
        <text
           id="text3264"
           transform="translate(-6,14)">
          <tspan
             id="tspan3266"
             sodipodi:role="line"
             y="0"
             x="0 4.329"
             style="font-size:13px;font-variant:normal;font-weight:normal;writing-mode:lr-tb;fill:#262626;fill-opacity:1;fill-rule:nonzero;stroke:none;font-family:Helvetica;-inkscape-font-specification:Helvetica">-6</tspan>
        </text>
      </g>
    </g>
    <g
       id="g3268"
       transform="matrix(0.13748327,0,0,0.13748327,-618.73794,271.88173)">
      <g
         transform="matrix(9.3750002,0,0,9.3750002,6676.8329,5393.7499)"
         id="g3270">
        <text
           id="text3272"
           transform="translate(-6,14)">
          <tspan
             id="tspan3274"
             sodipodi:role="line"
             y="0"
             x="0 4.329"
             style="font-size:13px;font-variant:normal;font-weight:normal;writing-mode:lr-tb;fill:#262626;fill-opacity:1;fill-rule:nonzero;stroke:none;font-family:Helvetica;-inkscape-font-specification:Helvetica">-4</tspan>
        </text>
      </g>
    </g>
    <g
       id="g3276"
       transform="matrix(0.13748327,0,0,0.13748327,-618.73794,271.88173)">
      <g
         transform="matrix(9.3750002,0,0,9.3750002,7408.6998,5393.7499)"
         id="g3278">
        <text
           id="text3280"
           transform="translate(-6,14)">
          <tspan
             id="tspan3282"
             sodipodi:role="line"
             y="0"
             x="0 4.329"
             style="font-size:13px;font-variant:normal;font-weight:normal;writing-mode:lr-tb;fill:#262626;fill-opacity:1;fill-rule:nonzero;stroke:none;font-family:Helvetica;-inkscape-font-specification:Helvetica">-2</tspan>
        </text>
      </g>
    </g>
    <g
       id="g3284"
       transform="matrix(0.13748327,0,0,0.13748327,-618.73794,271.88173)">
      <g
         transform="matrix(9.3750002,0,0,9.3750002,8140.5666,5393.7499)"
         id="g3286">
        <text
           id="text3288"
           transform="translate(-4,14)">
          <tspan
             id="tspan3290"
             y="0"
             x="0"
             style="font-size:13px;font-variant:normal;font-weight:normal;writing-mode:lr-tb;fill:#262626;fill-opacity:1;fill-rule:nonzero;stroke:none;font-family:Helvetica;-inkscape-font-specification:Helvetica">0</tspan>
        </text>
      </g>
    </g>
    <g
       id="g3292"
       transform="matrix(0.13748327,0,0,0.13748327,-618.73794,271.88173)">
      <g
         transform="matrix(9.3750002,0,0,9.3750002,8872.4341,5393.7499)"
         id="g3294">
        <text
           id="text3296"
           transform="translate(-4,14)">
          <tspan
             id="tspan3298"
             y="0"
             x="0"
             style="font-size:13px;font-variant:normal;font-weight:normal;writing-mode:lr-tb;fill:#262626;fill-opacity:1;fill-rule:nonzero;stroke:none;font-family:Helvetica;-inkscape-font-specification:Helvetica">2</tspan>
        </text>
      </g>
    </g>
    <g
       id="g3300"
       transform="matrix(0.13748327,0,0,0.13748327,-618.73794,271.88173)">
      <g
         transform="matrix(9.3750002,0,0,9.3750002,9604.3009,5393.7499)"
         id="g3302">
        <text
           id="text3304"
           transform="translate(-4,14)">
          <tspan
             id="tspan3306"
             y="0"
             x="0"
             style="font-size:13px;font-variant:normal;font-weight:normal;writing-mode:lr-tb;fill:#262626;fill-opacity:1;fill-rule:nonzero;stroke:none;font-family:Helvetica;-inkscape-font-specification:Helvetica">4</tspan>
        </text>
      </g>
    </g>
    <g
       transform="matrix(1.2889056,0,0,1.2889056,-742.47292,271.88173)"
       id="g3308">
      <path
         inkscape:connector-curvature="0"
         id="path3310"
         style="fill:none;stroke:#262626;stroke-width:1;stroke-linecap:square;stroke-linejoin:miter;stroke-miterlimit:10;stroke-opacity:1;stroke-dasharray:none"
         d="M 650,570 650,48" />
    </g>
    <g
       transform="matrix(1.2889056,0,0,1.2889056,-742.47292,271.88173)"
       id="g3312">
      <path
         inkscape:connector-curvature="0"
         id="path3314"
         style="fill:none;stroke:#262626;stroke-width:1;stroke-linecap:square;stroke-linejoin:miter;stroke-miterlimit:10;stroke-opacity:1;stroke-dasharray:none"
         d="m 1150,570 0,-522" />
    </g>
    <g
       transform="matrix(1.2889056,0,0,1.2889056,-742.47292,271.88173)"
       id="g3316">
      <path
         inkscape:connector-curvature="0"
         id="path3318"
         style="fill:none;stroke:#262626;stroke-width:1;stroke-linecap:square;stroke-linejoin:miter;stroke-miterlimit:10;stroke-opacity:1;stroke-dasharray:none"
         d="m 650,548.25 5.21997,0" />
    </g>
    <g
       transform="matrix(1.2889056,0,0,1.2889056,-742.47292,271.88173)"
       id="g3320">
      <path
         inkscape:connector-curvature="0"
         id="path3322"
         style="fill:none;stroke:#262626;stroke-width:1;stroke-linecap:square;stroke-linejoin:miter;stroke-miterlimit:10;stroke-opacity:1;stroke-dasharray:none"
         d="m 650,504.75 5.21997,0" />
    </g>
    <g
       transform="matrix(1.2889056,0,0,1.2889056,-742.47292,271.88173)"
       id="g3324">
      <path
         inkscape:connector-curvature="0"
         id="path3326"
         style="fill:none;stroke:#262626;stroke-width:1;stroke-linecap:square;stroke-linejoin:miter;stroke-miterlimit:10;stroke-opacity:1;stroke-dasharray:none"
         d="m 650,461.25 5.21997,0" />
    </g>
    <g
       transform="matrix(1.2889056,0,0,1.2889056,-742.47292,271.88173)"
       id="g3328">
      <path
         inkscape:connector-curvature="0"
         id="path3330"
         style="fill:none;stroke:#262626;stroke-width:1;stroke-linecap:square;stroke-linejoin:miter;stroke-miterlimit:10;stroke-opacity:1;stroke-dasharray:none"
         d="m 650,417.75 5.21997,0" />
    </g>
    <g
       transform="matrix(1.2889056,0,0,1.2889056,-742.47292,271.88173)"
       id="g3332">
      <path
         inkscape:connector-curvature="0"
         id="path3334"
         style="fill:none;stroke:#262626;stroke-width:1;stroke-linecap:square;stroke-linejoin:miter;stroke-miterlimit:10;stroke-opacity:1;stroke-dasharray:none"
         d="m 650,374.25 5.21997,0" />
    </g>
    <g
       transform="matrix(1.2889056,0,0,1.2889056,-742.47292,271.88173)"
       id="g3336">
      <path
         inkscape:connector-curvature="0"
         id="path3338"
         style="fill:none;stroke:#262626;stroke-width:1;stroke-linecap:square;stroke-linejoin:miter;stroke-miterlimit:10;stroke-opacity:1;stroke-dasharray:none"
         d="m 650,330.75 5.21997,0" />
    </g>
    <g
       transform="matrix(1.2889056,0,0,1.2889056,-742.47292,271.88173)"
       id="g3340">
      <path
         inkscape:connector-curvature="0"
         id="path3342"
         style="fill:none;stroke:#262626;stroke-width:1;stroke-linecap:square;stroke-linejoin:miter;stroke-miterlimit:10;stroke-opacity:1;stroke-dasharray:none"
         d="m 650,287.25 5.21997,0" />
    </g>
    <g
       transform="matrix(1.2889056,0,0,1.2889056,-742.47292,271.88173)"
       id="g3344">
      <path
         inkscape:connector-curvature="0"
         id="path3346"
         style="fill:none;stroke:#262626;stroke-width:1;stroke-linecap:square;stroke-linejoin:miter;stroke-miterlimit:10;stroke-opacity:1;stroke-dasharray:none"
         d="m 650,243.75 5.21997,0" />
    </g>
    <g
       transform="matrix(1.2889056,0,0,1.2889056,-742.47292,271.88173)"
       id="g3348">
      <path
         inkscape:connector-curvature="0"
         id="path3350"
         style="fill:none;stroke:#262626;stroke-width:1;stroke-linecap:square;stroke-linejoin:miter;stroke-miterlimit:10;stroke-opacity:1;stroke-dasharray:none"
         d="m 650,200.25 5.21997,0" />
    </g>
    <g
       transform="matrix(1.2889056,0,0,1.2889056,-742.47292,271.88173)"
       id="g3352">
      <path
         inkscape:connector-curvature="0"
         id="path3354"
         style="fill:none;stroke:#262626;stroke-width:1;stroke-linecap:square;stroke-linejoin:miter;stroke-miterlimit:10;stroke-opacity:1;stroke-dasharray:none"
         d="m 650,156.75 5.21997,0" />
    </g>
    <g
       transform="matrix(1.2889056,0,0,1.2889056,-742.47292,271.88173)"
       id="g3356">
      <path
         inkscape:connector-curvature="0"
         id="path3358"
         style="fill:none;stroke:#262626;stroke-width:1;stroke-linecap:square;stroke-linejoin:miter;stroke-miterlimit:10;stroke-opacity:1;stroke-dasharray:none"
         d="m 650,113.25 5.21997,0" />
    </g>
    <g
       transform="matrix(1.2889056,0,0,1.2889056,-742.47292,271.88173)"
       id="g3360">
      <path
         inkscape:connector-curvature="0"
         id="path3362"
         style="fill:none;stroke:#262626;stroke-width:1;stroke-linecap:square;stroke-linejoin:miter;stroke-miterlimit:10;stroke-opacity:1;stroke-dasharray:none"
         d="m 650,69.75 5.21997,0" />
    </g>
    <g
       transform="matrix(1.2889056,0,0,1.2889056,-742.47292,271.88173)"
       id="g3364">
      <path
         inkscape:connector-curvature="0"
         id="path3366"
         style="fill:none;stroke:#262626;stroke-width:1;stroke-linecap:square;stroke-linejoin:miter;stroke-miterlimit:10;stroke-opacity:1;stroke-dasharray:none"
         d="m 1150,548.25 -5.22,0" />
    </g>
    <g
       transform="matrix(1.2889056,0,0,1.2889056,-742.47292,271.88173)"
       id="g3368">
      <path
         inkscape:connector-curvature="0"
         id="path3370"
         style="fill:none;stroke:#262626;stroke-width:1;stroke-linecap:square;stroke-linejoin:miter;stroke-miterlimit:10;stroke-opacity:1;stroke-dasharray:none"
         d="m 1150,504.75 -5.22,0" />
    </g>
    <g
       transform="matrix(1.2889056,0,0,1.2889056,-742.47292,271.88173)"
       id="g3372">
      <path
         inkscape:connector-curvature="0"
         id="path3374"
         style="fill:none;stroke:#262626;stroke-width:1;stroke-linecap:square;stroke-linejoin:miter;stroke-miterlimit:10;stroke-opacity:1;stroke-dasharray:none"
         d="m 1150,461.25 -5.22,0" />
    </g>
    <g
       transform="matrix(1.2889056,0,0,1.2889056,-742.47292,271.88173)"
       id="g3376">
      <path
         inkscape:connector-curvature="0"
         id="path3378"
         style="fill:none;stroke:#262626;stroke-width:1;stroke-linecap:square;stroke-linejoin:miter;stroke-miterlimit:10;stroke-opacity:1;stroke-dasharray:none"
         d="m 1150,417.75 -5.22,0" />
    </g>
    <g
       transform="matrix(1.2889056,0,0,1.2889056,-742.47292,271.88173)"
       id="g3380">
      <path
         inkscape:connector-curvature="0"
         id="path3382"
         style="fill:none;stroke:#262626;stroke-width:1;stroke-linecap:square;stroke-linejoin:miter;stroke-miterlimit:10;stroke-opacity:1;stroke-dasharray:none"
         d="m 1150,374.25 -5.22,0" />
    </g>
    <g
       transform="matrix(1.2889056,0,0,1.2889056,-742.47292,271.88173)"
       id="g3384">
      <path
         inkscape:connector-curvature="0"
         id="path3386"
         style="fill:none;stroke:#262626;stroke-width:1;stroke-linecap:square;stroke-linejoin:miter;stroke-miterlimit:10;stroke-opacity:1;stroke-dasharray:none"
         d="m 1150,330.75 -5.22,0" />
    </g>
    <g
       transform="matrix(1.2889056,0,0,1.2889056,-742.47292,271.88173)"
       id="g3388">
      <path
         inkscape:connector-curvature="0"
         id="path3390"
         style="fill:none;stroke:#262626;stroke-width:1;stroke-linecap:square;stroke-linejoin:miter;stroke-miterlimit:10;stroke-opacity:1;stroke-dasharray:none"
         d="m 1150,287.25 -5.22,0" />
    </g>
    <g
       transform="matrix(1.2889056,0,0,1.2889056,-742.47292,271.88173)"
       id="g3392">
      <path
         inkscape:connector-curvature="0"
         id="path3394"
         style="fill:none;stroke:#262626;stroke-width:1;stroke-linecap:square;stroke-linejoin:miter;stroke-miterlimit:10;stroke-opacity:1;stroke-dasharray:none"
         d="m 1150,243.75 -5.22,0" />
    </g>
    <g
       transform="matrix(1.2889056,0,0,1.2889056,-742.47292,271.88173)"
       id="g3396">
      <path
         inkscape:connector-curvature="0"
         id="path3398"
         style="fill:none;stroke:#262626;stroke-width:1;stroke-linecap:square;stroke-linejoin:miter;stroke-miterlimit:10;stroke-opacity:1;stroke-dasharray:none"
         d="m 1150,200.25 -5.22,0" />
    </g>
    <g
       transform="matrix(1.2889056,0,0,1.2889056,-742.47292,271.88173)"
       id="g3400">
      <path
         inkscape:connector-curvature="0"
         id="path3402"
         style="fill:none;stroke:#262626;stroke-width:1;stroke-linecap:square;stroke-linejoin:miter;stroke-miterlimit:10;stroke-opacity:1;stroke-dasharray:none"
         d="m 1150,156.75 -5.22,0" />
    </g>
    <g
       transform="matrix(1.2889056,0,0,1.2889056,-742.47292,271.88173)"
       id="g3404">
      <path
         inkscape:connector-curvature="0"
         id="path3406"
         style="fill:none;stroke:#262626;stroke-width:1;stroke-linecap:square;stroke-linejoin:miter;stroke-miterlimit:10;stroke-opacity:1;stroke-dasharray:none"
         d="m 1150,113.25 -5.22,0" />
    </g>
    <g
       transform="matrix(1.2889056,0,0,1.2889056,-742.47292,271.88173)"
       id="g3408">
      <path
         inkscape:connector-curvature="0"
         id="path3410"
         style="fill:none;stroke:#262626;stroke-width:1;stroke-linecap:square;stroke-linejoin:miter;stroke-miterlimit:10;stroke-opacity:1;stroke-dasharray:none"
         d="m 1150,69.75 -5.22,0" />
    </g>
    <g
       id="g3412"
       transform="matrix(0.13748327,0,0,0.13748327,-618.73794,271.88173)">
      <g
         transform="matrix(9.3750002,0,0,9.3750002,5143.7498,5139.8439)"
         id="g3414">
        <text
           id="text3416"
           transform="translate(-33,5.5)">
          <tspan
             id="tspan3418"
             sodipodi:role="line"
             y="0"
             x="0 7.2280002 11.557 14.443 21.671 28.899"
             style="font-size:13px;font-variant:normal;font-weight:normal;writing-mode:lr-tb;fill:#262626;fill-opacity:1;fill-rule:nonzero;stroke:none;font-family:Helvetica;-inkscape-font-specification:Helvetica">bright</tspan>
        </text>
      </g>
    </g>
    <g
       id="g3420"
       transform="matrix(0.13748327,0,0,0.13748327,-618.73794,271.88173)">
      <g
         transform="matrix(9.3750002,0,0,9.3750002,5143.7498,4732.0314)"
         id="g3422">
        <text
           id="text3424"
           transform="translate(-22,5.5)">
          <tspan
             id="tspan3426"
             sodipodi:role="line"
             y="0"
             x="0 6.5 13.728 18.056999"
             style="font-size:13px;font-variant:normal;font-weight:normal;writing-mode:lr-tb;fill:#262626;fill-opacity:1;fill-rule:nonzero;stroke:none;font-family:Helvetica;-inkscape-font-specification:Helvetica">kurt</tspan>
        </text>
      </g>
    </g>
    <g
       id="g3428"
       transform="matrix(0.13748327,0,0,0.13748327,-618.73794,271.88173)">
      <g
         transform="matrix(9.3750002,0,0,9.3750002,5143.7498,4324.2188)"
         id="g3430">
        <text
           id="text3432"
           transform="translate(-39,5.5)">
          <tspan
             id="tspan3434"
             sodipodi:role="line"
             y="0"
             x="0 7.2280002 10.842 14.456 21.684 28.184 34.683998"
             style="font-size:13px;font-variant:normal;font-weight:normal;writing-mode:lr-tb;fill:#262626;fill-opacity:1;fill-rule:nonzero;stroke:none;font-family:Helvetica;-inkscape-font-specification:Helvetica">attackt</tspan>
        </text>
      </g>
    </g>
    <g
       id="g3436"
       transform="matrix(0.13748327,0,0,0.13748327,-618.73794,271.88173)">
      <g
         transform="matrix(9.3750002,0,0,9.3750002,5143.7498,3916.4063)"
         id="g3438">
        <text
           id="text3440"
           transform="translate(-18,5.5)">
          <tspan
             id="tspan3442"
             sodipodi:role="line"
             y="0"
             x="0 3.6140001 6.5 13.728"
             style="font-size:13px;font-variant:normal;font-weight:normal;writing-mode:lr-tb;fill:#262626;fill-opacity:1;fill-rule:nonzero;stroke:none;font-family:Helvetica;-inkscape-font-specification:Helvetica">flat</tspan>
        </text>
      </g>
    </g>
    <g
       id="g3444"
       transform="matrix(0.13748327,0,0,0.13748327,-618.73794,271.88173)">
      <g
         transform="matrix(9.3750002,0,0,9.3750002,5143.7498,3508.5938)"
         id="g3446">
        <text
           id="text3448"
           transform="translate(-47,5.5)">
          <tspan
             id="tspan3450"
             sodipodi:role="line"
             y="0"
             x="0 6.5 13.728 20.955999 24.57 28.899 36.126999 39.013"
             style="font-size:13px;font-variant:normal;font-weight:normal;writing-mode:lr-tb;fill:#262626;fill-opacity:1;fill-rule:nonzero;stroke:none;font-family:Helvetica;-inkscape-font-specification:Helvetica">centroid</tspan>
        </text>
      </g>
    </g>
    <g
       id="g3452"
       transform="matrix(0.13748327,0,0,0.13748327,-618.73794,271.88173)">
      <g
         transform="matrix(9.3750002,0,0,9.3750002,5143.7498,3100.7813)"
         id="g3454">
        <text
           id="text3456"
           transform="translate(-40,5.5)">
          <tspan
             id="tspan3458"
             sodipodi:role="line"
             y="0"
             x="0 6.5 13.728 18.056999 25.285 32.513"
             style="font-size:13px;font-variant:normal;font-weight:normal;writing-mode:lr-tb;fill:#262626;fill-opacity:1;fill-rule:nonzero;stroke:none;font-family:Helvetica;-inkscape-font-specification:Helvetica">spread</tspan>
        </text>
      </g>
    </g>
    <g
       id="g3460"
       transform="matrix(0.13748327,0,0,0.13748327,-618.73794,271.88173)">
      <g
         transform="matrix(9.3750002,0,0,9.3750002,5143.7498,2692.9688)"
         id="g3462">
        <text
           id="text3464"
           transform="translate(-37,5.5)">
          <tspan
             id="tspan3466"
             sodipodi:role="line"
             y="0"
             x="0 7.2280002 14.456 18.07 22.399 29.627001"
             style="font-size:13px;font-variant:normal;font-weight:normal;writing-mode:lr-tb;fill:#262626;fill-opacity:1;fill-rule:nonzero;stroke:none;font-family:Helvetica;-inkscape-font-specification:Helvetica">entrop</tspan>
        </text>
      </g>
    </g>
    <g
       id="g3468"
       transform="matrix(0.13748327,0,0,0.13748327,-618.73794,271.88173)">
      <g
         transform="matrix(9.3750002,0,0,9.3750002,5143.7498,2285.1563)"
         id="g3470">
        <text
           id="text3472"
           transform="translate(-40,5.5)">
          <tspan
             id="tspan3474"
             sodipodi:role="line"
             y="0"
             x="0 7.2280002 10.842 14.456 17.341999 24.57 31.798"
             style="font-size:13px;font-variant:normal;font-weight:normal;writing-mode:lr-tb;fill:#262626;fill-opacity:1;fill-rule:nonzero;stroke:none;font-family:Helvetica;-inkscape-font-specification:Helvetica">attleap</tspan>
        </text>
      </g>
    </g>
    <g
       id="g3476"
       transform="matrix(0.13748327,0,0,0.13748327,-618.73794,271.88173)">
      <g
         transform="matrix(9.3750002,0,0,9.3750002,5143.7498,1877.3438)"
         id="g3478">
        <text
           id="text3480"
           transform="translate(-30,5.5)">
          <tspan
             id="tspan3482"
             sodipodi:role="line"
             y="0"
             x="0 6.5 13 20.228001"
             style="font-size:13px;font-variant:normal;font-weight:normal;writing-mode:lr-tb;fill:#262626;fill-opacity:1;fill-rule:nonzero;stroke:none;font-family:Helvetica;-inkscape-font-specification:Helvetica">skew</tspan>
        </text>
      </g>
    </g>
    <g
       id="g3484"
       transform="matrix(0.13748327,0,0,0.13748327,-618.73794,271.88173)">
      <g
         transform="matrix(9.3750002,0,0,9.3750002,5143.7498,1469.5313)"
         id="g3486">
        <text
           id="text3488"
           transform="translate(-32,5.5)">
          <tspan
             id="tspan3490"
             sodipodi:role="line"
             y="0"
             x="0 7.2280002 10.842 14.456 20.955999 23.841999"
             style="font-size:13px;font-variant:normal;font-weight:normal;writing-mode:lr-tb;fill:#262626;fill-opacity:1;fill-rule:nonzero;stroke:none;font-family:Helvetica;-inkscape-font-specification:Helvetica">attslp</tspan>
        </text>
      </g>
    </g>
    <g
       id="g3492"
       transform="matrix(0.13748327,0,0,0.13748327,-618.73794,271.88173)">
      <g
         transform="matrix(9.3750002,0,0,9.3750002,5143.7498,1061.7188)"
         id="g3494">
        <text
           id="text3496"
           transform="translate(-57,5.5)">
          <tspan
             id="tspan3498"
             sodipodi:role="line"
             y="0"
             x="0 6.5 13.728 18.056999 25.285 31.785 36.113998 43.341999 49.841999"
             style="font-size:13px;font-variant:normal;font-weight:normal;writing-mode:lr-tb;fill:#262626;fill-opacity:1;fill-rule:nonzero;stroke:none;font-family:Helvetica;-inkscape-font-specification:Helvetica">zerocross</tspan>
        </text>
      </g>
    </g>
    <g
       id="g3500"
       transform="matrix(0.13748327,0,0,0.13748327,-618.73794,271.88173)">
      <g
         transform="matrix(9.3750002,0,0,9.3750002,5143.7498,653.90626)"
         id="g3502">
        <text
           id="text3504"
           transform="translate(-32,5.5)">
          <tspan
             id="tspan3506"
             sodipodi:role="line"
             y="0"
             x="0 4.329 11.557 14.443 17.329 24.556999 28.171"
             style="font-size:13px;font-variant:normal;font-weight:normal;writing-mode:lr-tb;fill:#262626;fill-opacity:1;fill-rule:nonzero;stroke:none;font-family:Helvetica;-inkscape-font-specification:Helvetica">rolloff</tspan>
        </text>
      </g>
    </g>
    <g
       transform="matrix(1.2889056,0,0,1.2889056,-742.47292,271.88173)"
       id="g3508">
      <path
         inkscape:connector-curvature="0"
         id="path3510"
         style="fill:none;stroke:#000000;stroke-width:1;stroke-linecap:butt;stroke-linejoin:bevel;stroke-miterlimit:1;stroke-opacity:1;stroke-dasharray:10, 6;stroke-dashoffset:0"
         d="m 997.07977,548.25 47.57993,0" />
    </g>
    <g
       transform="matrix(1.2889056,0,0,1.2889056,-742.47292,271.88173)"
       id="g3512">
      <path
         inkscape:connector-curvature="0"
         id="path3514"
         style="fill:none;stroke:#000000;stroke-width:1;stroke-linecap:butt;stroke-linejoin:bevel;stroke-miterlimit:1;stroke-opacity:1;stroke-dasharray:10, 6;stroke-dashoffset:0"
         d="m 991.08539,504.75 74.39961,0" />
    </g>
    <g
       transform="matrix(1.2889056,0,0,1.2889056,-742.47292,271.88173)"
       id="g3516">
      <path
         inkscape:connector-curvature="0"
         id="path3518"
         style="fill:none;stroke:#000000;stroke-width:1;stroke-linecap:butt;stroke-linejoin:bevel;stroke-miterlimit:1;stroke-opacity:1;stroke-dasharray:10, 6;stroke-dashoffset:0"
         d="m 998.19751,461.25 69.33449,0" />
    </g>
    <g
       transform="matrix(1.2889056,0,0,1.2889056,-742.47292,271.88173)"
       id="g3520">
      <path
         inkscape:connector-curvature="0"
         id="path3522"
         style="fill:none;stroke:#000000;stroke-width:1;stroke-linecap:butt;stroke-linejoin:bevel;stroke-miterlimit:1;stroke-opacity:1;stroke-dasharray:10, 6;stroke-dashoffset:0"
         d="m 989.57001,417.75 82.08319,0" />
    </g>
    <g
       transform="matrix(1.2889056,0,0,1.2889056,-742.47292,271.88173)"
       id="g3524">
      <path
         inkscape:connector-curvature="0"
         id="path3526"
         style="fill:none;stroke:#000000;stroke-width:1;stroke-linecap:butt;stroke-linejoin:bevel;stroke-miterlimit:1;stroke-opacity:1;stroke-dasharray:10, 6;stroke-dashoffset:0"
         d="m 988.57483,374.25 74.87197,0" />
    </g>
    <g
       transform="matrix(1.2889056,0,0,1.2889056,-742.47292,271.88173)"
       id="g3528">
      <path
         inkscape:connector-curvature="0"
         id="path3530"
         style="fill:none;stroke:#000000;stroke-width:1;stroke-linecap:butt;stroke-linejoin:bevel;stroke-miterlimit:1;stroke-opacity:1;stroke-dasharray:10, 6;stroke-dashoffset:0"
         d="m 986.95868,330.75 73.44942,0" />
    </g>
    <g
       transform="matrix(1.2889056,0,0,1.2889056,-742.47292,271.88173)"
       id="g3532">
      <path
         inkscape:connector-curvature="0"
         id="path3534"
         style="fill:none;stroke:#000000;stroke-width:1;stroke-linecap:butt;stroke-linejoin:bevel;stroke-miterlimit:1;stroke-opacity:1;stroke-dasharray:10, 6;stroke-dashoffset:0"
         d="m 991.99469,287.25 68.78561,0" />
    </g>
    <g
       transform="matrix(1.2889056,0,0,1.2889056,-742.47292,271.88173)"
       id="g3536">
      <path
         inkscape:connector-curvature="0"
         id="path3538"
         style="fill:none;stroke:#000000;stroke-width:1;stroke-linecap:butt;stroke-linejoin:bevel;stroke-miterlimit:1;stroke-opacity:1;stroke-dasharray:10, 6;stroke-dashoffset:0"
         d="m 981.08484,243.75 10.93146,0" />
    </g>
    <g
       transform="matrix(1.2889056,0,0,1.2889056,-742.47292,271.88173)"
       id="g3540">
      <path
         inkscape:connector-curvature="0"
         id="path3542"
         style="fill:none;stroke:#000000;stroke-width:1;stroke-linecap:butt;stroke-linejoin:bevel;stroke-miterlimit:1;stroke-opacity:1;stroke-dasharray:10, 6;stroke-dashoffset:0"
         d="m 991.15125,200.25 63.08645,0" />
    </g>
    <g
       transform="matrix(1.2889056,0,0,1.2889056,-742.47292,271.88173)"
       id="g3544">
      <path
         inkscape:connector-curvature="0"
         id="path3546"
         style="fill:none;stroke:#000000;stroke-width:1;stroke-linecap:butt;stroke-linejoin:bevel;stroke-miterlimit:1;stroke-opacity:1;stroke-dasharray:10, 6;stroke-dashoffset:0"
         d="m 987.85425,156.75 59.48435,0" />
    </g>
    <g
       transform="matrix(1.2889056,0,0,1.2889056,-742.47292,271.88173)"
       id="g3548">
      <path
         inkscape:connector-curvature="0"
         id="path3550"
         style="fill:none;stroke:#000000;stroke-width:1;stroke-linecap:butt;stroke-linejoin:bevel;stroke-miterlimit:1;stroke-opacity:1;stroke-dasharray:10, 6;stroke-dashoffset:0"
         d="m 1000.4198,113.25 62.8683,0" />
    </g>
    <g
       transform="matrix(1.2889056,0,0,1.2889056,-742.47292,271.88173)"
       id="g3552">
      <path
         inkscape:connector-curvature="0"
         id="path3554"
         style="fill:none;stroke:#000000;stroke-width:1;stroke-linecap:butt;stroke-linejoin:bevel;stroke-miterlimit:1;stroke-opacity:1;stroke-dasharray:10, 6;stroke-dashoffset:0"
         d="m 995.44629,69.75 50.68421,0" />
    </g>
    <g
       transform="matrix(1.2889056,0,0,1.2889056,-742.47292,271.88173)"
       id="g3556">
      <path
         inkscape:connector-curvature="0"
         id="path3558"
         style="fill:none;stroke:#000000;stroke-width:1;stroke-linecap:butt;stroke-linejoin:bevel;stroke-miterlimit:1;stroke-opacity:1;stroke-dasharray:10, 6;stroke-dashoffset:0"
         d="m 876.63177,548.25 54.36591,0" />
    </g>
    <g
       transform="matrix(1.2889056,0,0,1.2889056,-742.47292,271.88173)"
       id="g3560">
      <path
         inkscape:connector-curvature="0"
         id="path3562"
         style="fill:none;stroke:#000000;stroke-width:1;stroke-linecap:butt;stroke-linejoin:bevel;stroke-miterlimit:1;stroke-opacity:1;stroke-dasharray:10, 6;stroke-dashoffset:0"
         d="m 863.33228,504.75 75.03448,0" />
    </g>
    <g
       transform="matrix(1.2889056,0,0,1.2889056,-742.47292,271.88173)"
       id="g3564">
      <path
         inkscape:connector-curvature="0"
         id="path3566"
         style="fill:none;stroke:#000000;stroke-width:1;stroke-linecap:butt;stroke-linejoin:bevel;stroke-miterlimit:1;stroke-opacity:1;stroke-dasharray:10, 6;stroke-dashoffset:0"
         d="m 903.10101,461.25 34.14978,0" />
    </g>
    <g
       transform="matrix(1.2889056,0,0,1.2889056,-742.47292,271.88173)"
       id="g3568">
      <path
         inkscape:connector-curvature="0"
         id="path3570"
         style="fill:none;stroke:#000000;stroke-width:1;stroke-linecap:butt;stroke-linejoin:bevel;stroke-miterlimit:1;stroke-opacity:1;stroke-dasharray:10, 6;stroke-dashoffset:0"
         d="m 904.60858,417.75 26.53119,0" />
    </g>
    <g
       transform="matrix(1.2889056,0,0,1.2889056,-742.47292,271.88173)"
       id="g3572">
      <path
         inkscape:connector-curvature="0"
         id="path3574"
         style="fill:none;stroke:#000000;stroke-width:1;stroke-linecap:butt;stroke-linejoin:bevel;stroke-miterlimit:1;stroke-opacity:1;stroke-dasharray:10, 6;stroke-dashoffset:0"
         d="m 882.11865,374.25 52.71979,0" />
    </g>
    <g
       transform="matrix(1.2889056,0,0,1.2889056,-742.47292,271.88173)"
       id="g3576">
      <path
         inkscape:connector-curvature="0"
         id="path3578"
         style="fill:none;stroke:#000000;stroke-width:1;stroke-linecap:butt;stroke-linejoin:bevel;stroke-miterlimit:1;stroke-opacity:1;stroke-dasharray:10, 6;stroke-dashoffset:0"
         d="m 901.58295,330.75 30.01458,0" />
    </g>
    <g
       transform="matrix(1.2889056,0,0,1.2889056,-742.47292,271.88173)"
       id="g3580">
      <path
         inkscape:connector-curvature="0"
         id="path3582"
         style="fill:none;stroke:#000000;stroke-width:1;stroke-linecap:butt;stroke-linejoin:bevel;stroke-miterlimit:1;stroke-opacity:1;stroke-dasharray:10, 6;stroke-dashoffset:0"
         d="m 878.71765,287.25 60.05524,0" />
    </g>
    <g
       transform="matrix(1.2889056,0,0,1.2889056,-742.47292,271.88173)"
       id="g3584">
      <path
         inkscape:connector-curvature="0"
         id="path3586"
         style="fill:none;stroke:#000000;stroke-width:1;stroke-linecap:butt;stroke-linejoin:bevel;stroke-miterlimit:1;stroke-opacity:1;stroke-dasharray:10, 6;stroke-dashoffset:0"
         d="m 937.71533,243.75 24.58246,0" />
    </g>
    <g
       transform="matrix(1.2889056,0,0,1.2889056,-742.47292,271.88173)"
       id="g3588">
      <path
         inkscape:connector-curvature="0"
         id="path3590"
         style="fill:none;stroke:#000000;stroke-width:1;stroke-linecap:butt;stroke-linejoin:bevel;stroke-miterlimit:1;stroke-opacity:1;stroke-dasharray:10, 6;stroke-dashoffset:0"
         d="m 873.56427,200.25 59.34998,0" />
    </g>
    <g
       transform="matrix(1.2889056,0,0,1.2889056,-742.47292,271.88173)"
       id="g3592">
      <path
         inkscape:connector-curvature="0"
         id="path3594"
         style="fill:none;stroke:#000000;stroke-width:1;stroke-linecap:butt;stroke-linejoin:bevel;stroke-miterlimit:1;stroke-opacity:1;stroke-dasharray:10, 6;stroke-dashoffset:0"
         d="m 889.4425,156.75 43.00171,0" />
    </g>
    <g
       transform="matrix(1.2889056,0,0,1.2889056,-742.47292,271.88173)"
       id="g3596">
      <path
         inkscape:connector-curvature="0"
         id="path3598"
         style="fill:none;stroke:#000000;stroke-width:1;stroke-linecap:butt;stroke-linejoin:bevel;stroke-miterlimit:1;stroke-opacity:1;stroke-dasharray:10, 6;stroke-dashoffset:0"
         d="m 882.12451,113.25 58.45239,0" />
    </g>
    <g
       transform="matrix(1.2889056,0,0,1.2889056,-742.47292,271.88173)"
       id="g3600">
      <path
         inkscape:connector-curvature="0"
         id="path3602"
         style="fill:none;stroke:#000000;stroke-width:1;stroke-linecap:butt;stroke-linejoin:bevel;stroke-miterlimit:1;stroke-opacity:1;stroke-dasharray:10, 6;stroke-dashoffset:0"
         d="m 875.48376,69.75 56.26813,0" />
    </g>
    <g
       transform="matrix(1.2889056,0,0,1.2889056,-742.47292,271.88173)"
       id="g3604">
      <path
         inkscape:connector-curvature="0"
         id="path3606"
         style="fill:none;stroke:#000000;stroke-width:1;stroke-linecap:square;stroke-linejoin:miter;stroke-miterlimit:10;stroke-opacity:1;stroke-dasharray:none"
         d="m 1044.6597,553.6875 0,-10.875" />
    </g>
    <g
       transform="matrix(1.2889056,0,0,1.2889056,-742.47292,271.88173)"
       id="g3608">
      <path
         inkscape:connector-curvature="0"
         id="path3610"
         style="fill:none;stroke:#000000;stroke-width:1;stroke-linecap:square;stroke-linejoin:miter;stroke-miterlimit:10;stroke-opacity:1;stroke-dasharray:none"
         d="m 1065.485,510.1875 0,-10.875" />
    </g>
    <g
       transform="matrix(1.2889056,0,0,1.2889056,-742.47292,271.88173)"
       id="g3612">
      <path
         inkscape:connector-curvature="0"
         id="path3614"
         style="fill:none;stroke:#000000;stroke-width:1;stroke-linecap:square;stroke-linejoin:miter;stroke-miterlimit:10;stroke-opacity:1;stroke-dasharray:none"
         d="m 1067.532,466.6875 0,-10.875" />
    </g>
    <g
       transform="matrix(1.2889056,0,0,1.2889056,-742.47292,271.88173)"
       id="g3616">
      <path
         inkscape:connector-curvature="0"
         id="path3618"
         style="fill:none;stroke:#000000;stroke-width:1;stroke-linecap:square;stroke-linejoin:miter;stroke-miterlimit:10;stroke-opacity:1;stroke-dasharray:none"
         d="m 1071.6532,423.1875 0,-10.875" />
    </g>
    <g
       transform="matrix(1.2889056,0,0,1.2889056,-742.47292,271.88173)"
       id="g3620">
      <path
         inkscape:connector-curvature="0"
         id="path3622"
         style="fill:none;stroke:#000000;stroke-width:1;stroke-linecap:square;stroke-linejoin:miter;stroke-miterlimit:10;stroke-opacity:1;stroke-dasharray:none"
         d="m 1063.4468,379.6875 0,-10.875" />
    </g>
    <g
       transform="matrix(1.2889056,0,0,1.2889056,-742.47292,271.88173)"
       id="g3624">
      <path
         inkscape:connector-curvature="0"
         id="path3626"
         style="fill:none;stroke:#000000;stroke-width:1;stroke-linecap:square;stroke-linejoin:miter;stroke-miterlimit:10;stroke-opacity:1;stroke-dasharray:none"
         d="m 1060.4081,336.1875 0,-10.875" />
    </g>
    <g
       transform="matrix(1.2889056,0,0,1.2889056,-742.47292,271.88173)"
       id="g3628">
      <path
         inkscape:connector-curvature="0"
         id="path3630"
         style="fill:none;stroke:#000000;stroke-width:1;stroke-linecap:square;stroke-linejoin:miter;stroke-miterlimit:10;stroke-opacity:1;stroke-dasharray:none"
         d="m 1060.7803,292.6875 0,-10.875" />
    </g>
    <g
       transform="matrix(1.2889056,0,0,1.2889056,-742.47292,271.88173)"
       id="g3632">
      <path
         inkscape:connector-curvature="0"
         id="path3634"
         style="fill:none;stroke:#000000;stroke-width:1;stroke-linecap:square;stroke-linejoin:miter;stroke-miterlimit:10;stroke-opacity:1;stroke-dasharray:none"
         d="m 992.0163,249.1875 0,-10.875" />
    </g>
    <g
       transform="matrix(1.2889056,0,0,1.2889056,-742.47292,271.88173)"
       id="g3636">
      <path
         inkscape:connector-curvature="0"
         id="path3638"
         style="fill:none;stroke:#000000;stroke-width:1;stroke-linecap:square;stroke-linejoin:miter;stroke-miterlimit:10;stroke-opacity:1;stroke-dasharray:none"
         d="m 1054.2377,205.6875 0,-10.875" />
    </g>
    <g
       transform="matrix(1.2889056,0,0,1.2889056,-742.47292,271.88173)"
       id="g3640">
      <path
         inkscape:connector-curvature="0"
         id="path3642"
         style="fill:none;stroke:#000000;stroke-width:1;stroke-linecap:square;stroke-linejoin:miter;stroke-miterlimit:10;stroke-opacity:1;stroke-dasharray:none"
         d="m 1047.3386,162.1875 0,-10.875" />
    </g>
    <g
       transform="matrix(1.2889056,0,0,1.2889056,-742.47292,271.88173)"
       id="g3644">
      <path
         inkscape:connector-curvature="0"
         id="path3646"
         style="fill:none;stroke:#000000;stroke-width:1;stroke-linecap:square;stroke-linejoin:miter;stroke-miterlimit:10;stroke-opacity:1;stroke-dasharray:none"
         d="m 1063.2881,118.6875 0,-10.875" />
    </g>
    <g
       transform="matrix(1.2889056,0,0,1.2889056,-742.47292,271.88173)"
       id="g3648">
      <path
         inkscape:connector-curvature="0"
         id="path3650"
         style="fill:none;stroke:#000000;stroke-width:1;stroke-linecap:square;stroke-linejoin:miter;stroke-miterlimit:10;stroke-opacity:1;stroke-dasharray:none"
         d="m 1046.1305,75.1875 0,-10.875" />
    </g>
    <g
       transform="matrix(1.2889056,0,0,1.2889056,-742.47292,271.88173)"
       id="g3652">
      <path
         inkscape:connector-curvature="0"
         id="path3654"
         style="fill:none;stroke:#000000;stroke-width:1;stroke-linecap:square;stroke-linejoin:miter;stroke-miterlimit:10;stroke-opacity:1;stroke-dasharray:none"
         d="m 876.63177,553.6875 0,-10.875" />
    </g>
    <g
       transform="matrix(1.2889056,0,0,1.2889056,-742.47292,271.88173)"
       id="g3656">
      <path
         inkscape:connector-curvature="0"
         id="path3658"
         style="fill:none;stroke:#000000;stroke-width:1;stroke-linecap:square;stroke-linejoin:miter;stroke-miterlimit:10;stroke-opacity:1;stroke-dasharray:none"
         d="m 863.33228,510.1875 0,-10.875" />
    </g>
    <g
       transform="matrix(1.2889056,0,0,1.2889056,-742.47292,271.88173)"
       id="g3660">
      <path
         inkscape:connector-curvature="0"
         id="path3662"
         style="fill:none;stroke:#000000;stroke-width:1;stroke-linecap:square;stroke-linejoin:miter;stroke-miterlimit:10;stroke-opacity:1;stroke-dasharray:none"
         d="m 903.10101,466.6875 0,-10.875" />
    </g>
    <g
       transform="matrix(1.2889056,0,0,1.2889056,-742.47292,271.88173)"
       id="g3664">
      <path
         inkscape:connector-curvature="0"
         id="path3666"
         style="fill:none;stroke:#000000;stroke-width:1;stroke-linecap:square;stroke-linejoin:miter;stroke-miterlimit:10;stroke-opacity:1;stroke-dasharray:none"
         d="m 904.60858,423.1875 0,-10.875" />
    </g>
    <g
       transform="matrix(1.2889056,0,0,1.2889056,-742.47292,271.88173)"
       id="g3668">
      <path
         inkscape:connector-curvature="0"
         id="path3670"
         style="fill:none;stroke:#000000;stroke-width:1;stroke-linecap:square;stroke-linejoin:miter;stroke-miterlimit:10;stroke-opacity:1;stroke-dasharray:none"
         d="m 882.11865,379.6875 0,-10.875" />
    </g>
    <g
       transform="matrix(1.2889056,0,0,1.2889056,-742.47292,271.88173)"
       id="g3672">
      <path
         inkscape:connector-curvature="0"
         id="path3674"
         style="fill:none;stroke:#000000;stroke-width:1;stroke-linecap:square;stroke-linejoin:miter;stroke-miterlimit:10;stroke-opacity:1;stroke-dasharray:none"
         d="m 901.58295,336.1875 0,-10.875" />
    </g>
    <g
       transform="matrix(1.2889056,0,0,1.2889056,-742.47292,271.88173)"
       id="g3676">
      <path
         inkscape:connector-curvature="0"
         id="path3678"
         style="fill:none;stroke:#000000;stroke-width:1;stroke-linecap:square;stroke-linejoin:miter;stroke-miterlimit:10;stroke-opacity:1;stroke-dasharray:none"
         d="m 878.71765,292.6875 0,-10.875" />
    </g>
    <g
       transform="matrix(1.2889056,0,0,1.2889056,-742.47292,271.88173)"
       id="g3680">
      <path
         inkscape:connector-curvature="0"
         id="path3682"
         style="fill:none;stroke:#000000;stroke-width:1;stroke-linecap:square;stroke-linejoin:miter;stroke-miterlimit:10;stroke-opacity:1;stroke-dasharray:none"
         d="m 937.71533,249.1875 0,-10.875" />
    </g>
    <g
       transform="matrix(1.2889056,0,0,1.2889056,-742.47292,271.88173)"
       id="g3684">
      <path
         inkscape:connector-curvature="0"
         id="path3686"
         style="fill:none;stroke:#000000;stroke-width:1;stroke-linecap:square;stroke-linejoin:miter;stroke-miterlimit:10;stroke-opacity:1;stroke-dasharray:none"
         d="m 873.56427,205.6875 0,-10.875" />
    </g>
    <g
       transform="matrix(1.2889056,0,0,1.2889056,-742.47292,271.88173)"
       id="g3688">
      <path
         inkscape:connector-curvature="0"
         id="path3690"
         style="fill:none;stroke:#000000;stroke-width:1;stroke-linecap:square;stroke-linejoin:miter;stroke-miterlimit:10;stroke-opacity:1;stroke-dasharray:none"
         d="m 889.4425,162.1875 0,-10.875" />
    </g>
    <g
       transform="matrix(1.2889056,0,0,1.2889056,-742.47292,271.88173)"
       id="g3692">
      <path
         inkscape:connector-curvature="0"
         id="path3694"
         style="fill:none;stroke:#000000;stroke-width:1;stroke-linecap:square;stroke-linejoin:miter;stroke-miterlimit:10;stroke-opacity:1;stroke-dasharray:none"
         d="m 882.12451,118.6875 0,-10.875" />
    </g>
    <g
       transform="matrix(1.2889056,0,0,1.2889056,-742.47292,271.88173)"
       id="g3696">
      <path
         inkscape:connector-curvature="0"
         id="path3698"
         style="fill:none;stroke:#000000;stroke-width:1;stroke-linecap:square;stroke-linejoin:miter;stroke-miterlimit:10;stroke-opacity:1;stroke-dasharray:none"
         d="m 875.48376,75.1875 0,-10.875" />
    </g>
    <g
       transform="matrix(1.2889056,0,0,1.2889056,-742.47292,271.88173)"
       id="g3700">
      <path
         inkscape:connector-curvature="0"
         id="path3702"
         style="fill:none;stroke:#0000ff;stroke-width:1;stroke-linecap:square;stroke-linejoin:miter;stroke-miterlimit:10;stroke-opacity:1;stroke-dasharray:none"
         d="m 930.99768,559.125 66.08209,0 0,-21.75 -66.08209,0 0,21.75" />
    </g>
    <g
       transform="matrix(1.2889056,0,0,1.2889056,-742.47292,271.88173)"
       id="g3704">
      <path
         inkscape:connector-curvature="0"
         id="path3706"
         style="fill:none;stroke:#0000ff;stroke-width:1;stroke-linecap:square;stroke-linejoin:miter;stroke-miterlimit:10;stroke-opacity:1;stroke-dasharray:none"
         d="m 938.36676,515.625 52.71863,0 0,-21.75 -52.71863,0 0,21.75" />
    </g>
    <g
       transform="matrix(1.2889056,0,0,1.2889056,-742.47292,271.88173)"
       id="g3708">
      <path
         inkscape:connector-curvature="0"
         id="path3710"
         style="fill:none;stroke:#0000ff;stroke-width:1;stroke-linecap:square;stroke-linejoin:miter;stroke-miterlimit:10;stroke-opacity:1;stroke-dasharray:none"
         d="m 937.25079,472.125 60.94672,0 0,-21.75 -60.94672,0 0,21.75" />
    </g>
    <g
       transform="matrix(1.2889056,0,0,1.2889056,-742.47292,271.88173)"
       id="g3712">
      <path
         inkscape:connector-curvature="0"
         id="path3714"
         style="fill:none;stroke:#0000ff;stroke-width:1;stroke-linecap:square;stroke-linejoin:miter;stroke-miterlimit:10;stroke-opacity:1;stroke-dasharray:none"
         d="m 931.13977,428.625 58.43024,0 0,-21.75 -58.43024,0 0,21.75" />
    </g>
    <g
       transform="matrix(1.2889056,0,0,1.2889056,-742.47292,271.88173)"
       id="g3716">
      <path
         inkscape:connector-curvature="0"
         id="path3718"
         style="fill:none;stroke:#0000ff;stroke-width:1;stroke-linecap:square;stroke-linejoin:miter;stroke-miterlimit:10;stroke-opacity:1;stroke-dasharray:none"
         d="m 934.83844,385.125 53.73639,0 0,-21.75 -53.73639,0 0,21.75" />
    </g>
    <g
       transform="matrix(1.2889056,0,0,1.2889056,-742.47292,271.88173)"
       id="g3720">
      <path
         inkscape:connector-curvature="0"
         id="path3722"
         style="fill:none;stroke:#0000ff;stroke-width:1;stroke-linecap:square;stroke-linejoin:miter;stroke-miterlimit:10;stroke-opacity:1;stroke-dasharray:none"
         d="m 931.59753,341.625 55.36115,0 0,-21.75 -55.36115,0 0,21.75" />
    </g>
    <g
       transform="matrix(1.2889056,0,0,1.2889056,-742.47292,271.88173)"
       id="g3724">
      <path
         inkscape:connector-curvature="0"
         id="path3726"
         style="fill:none;stroke:#0000ff;stroke-width:1;stroke-linecap:square;stroke-linejoin:miter;stroke-miterlimit:10;stroke-opacity:1;stroke-dasharray:none"
         d="m 938.77289,298.125 53.2218,0 0,-21.75 -53.2218,0 0,21.75" />
    </g>
    <g
       transform="matrix(1.2889056,0,0,1.2889056,-742.47292,271.88173)"
       id="g3728">
      <path
         inkscape:connector-curvature="0"
         id="path3730"
         style="fill:none;stroke:#0000ff;stroke-width:1;stroke-linecap:square;stroke-linejoin:miter;stroke-miterlimit:10;stroke-opacity:1;stroke-dasharray:none"
         d="m 962.29779,254.625 18.78705,0 0,-21.75 -18.78705,0 0,21.75" />
    </g>
    <g
       transform="matrix(1.2889056,0,0,1.2889056,-742.47292,271.88173)"
       id="g3732">
      <path
         inkscape:connector-curvature="0"
         id="path3734"
         style="fill:none;stroke:#0000ff;stroke-width:1;stroke-linecap:square;stroke-linejoin:miter;stroke-miterlimit:10;stroke-opacity:1;stroke-dasharray:none"
         d="m 932.91425,211.125 58.237,0 0,-21.75 -58.237,0 0,21.75" />
    </g>
    <g
       transform="matrix(1.2889056,0,0,1.2889056,-742.47292,271.88173)"
       id="g3736">
      <path
         inkscape:connector-curvature="0"
         id="path3738"
         style="fill:none;stroke:#0000ff;stroke-width:1;stroke-linecap:square;stroke-linejoin:miter;stroke-miterlimit:10;stroke-opacity:1;stroke-dasharray:none"
         d="m 932.44421,167.625 55.41004,0 0,-21.75 -55.41004,0 0,21.75" />
    </g>
    <g
       transform="matrix(1.2889056,0,0,1.2889056,-742.47292,271.88173)"
       id="g3740">
      <path
         inkscape:connector-curvature="0"
         id="path3742"
         style="fill:none;stroke:#0000ff;stroke-width:1;stroke-linecap:square;stroke-linejoin:miter;stroke-miterlimit:10;stroke-opacity:1;stroke-dasharray:none"
         d="m 940.5769,124.125 59.8429,0 0,-21.75 -59.8429,0 0,21.75" />
    </g>
    <g
       transform="matrix(1.2889056,0,0,1.2889056,-742.47292,271.88173)"
       id="g3744">
      <path
         inkscape:connector-curvature="0"
         id="path3746"
         style="fill:none;stroke:#0000ff;stroke-width:1;stroke-linecap:square;stroke-linejoin:miter;stroke-miterlimit:10;stroke-opacity:1;stroke-dasharray:none"
         d="m 931.75189,80.625 63.6944,0 0,-21.75 -63.6944,0 0,21.75" />
    </g>
    <g
       transform="matrix(1.2889056,0,0,1.2889056,-742.47292,271.88173)"
       id="g3748">
      <path
         inkscape:connector-curvature="0"
         id="path3750"
         style="fill:none;stroke:#ff0000;stroke-width:1;stroke-linecap:square;stroke-linejoin:miter;stroke-miterlimit:10;stroke-opacity:1;stroke-dasharray:none"
         d="m 967.11743,559.125 0,-21.75" />
    </g>
    <g
       transform="matrix(1.2889056,0,0,1.2889056,-742.47292,271.88173)"
       id="g3752">
      <path
         inkscape:connector-curvature="0"
         id="path3754"
         style="fill:none;stroke:#ff0000;stroke-width:1;stroke-linecap:square;stroke-linejoin:miter;stroke-miterlimit:10;stroke-opacity:1;stroke-dasharray:none"
         d="m 961.79718,515.625 0,-21.75" />
    </g>
    <g
       transform="matrix(1.2889056,0,0,1.2889056,-742.47292,271.88173)"
       id="g3756">
      <path
         inkscape:connector-curvature="0"
         id="path3758"
         style="fill:none;stroke:#ff0000;stroke-width:1;stroke-linecap:square;stroke-linejoin:miter;stroke-miterlimit:10;stroke-opacity:1;stroke-dasharray:none"
         d="m 953.08142,472.125 0,-21.75" />
    </g>
    <g
       transform="matrix(1.2889056,0,0,1.2889056,-742.47292,271.88173)"
       id="g3760">
      <path
         inkscape:connector-curvature="0"
         id="path3762"
         style="fill:none;stroke:#ff0000;stroke-width:1;stroke-linecap:square;stroke-linejoin:miter;stroke-miterlimit:10;stroke-opacity:1;stroke-dasharray:none"
         d="m 958.3222,428.625 0,-21.75" />
    </g>
    <g
       transform="matrix(1.2889056,0,0,1.2889056,-742.47292,271.88173)"
       id="g3764">
      <path
         inkscape:connector-curvature="0"
         id="path3766"
         style="fill:none;stroke:#ff0000;stroke-width:1;stroke-linecap:square;stroke-linejoin:miter;stroke-miterlimit:10;stroke-opacity:1;stroke-dasharray:none"
         d="m 961.75055,385.125 0,-21.75" />
    </g>
    <g
       transform="matrix(1.2889056,0,0,1.2889056,-742.47292,271.88173)"
       id="g3768">
      <path
         inkscape:connector-curvature="0"
         id="path3770"
         style="fill:none;stroke:#ff0000;stroke-width:1;stroke-linecap:square;stroke-linejoin:miter;stroke-miterlimit:10;stroke-opacity:1;stroke-dasharray:none"
         d="m 959.63892,341.625 0,-21.75" />
    </g>
    <g
       transform="matrix(1.2889056,0,0,1.2889056,-742.47292,271.88173)"
       id="g3772">
      <path
         inkscape:connector-curvature="0"
         id="path3774"
         style="fill:none;stroke:#ff0000;stroke-width:1;stroke-linecap:square;stroke-linejoin:miter;stroke-miterlimit:10;stroke-opacity:1;stroke-dasharray:none"
         d="m 959.44135,298.125 0,-21.75" />
    </g>
    <g
       transform="matrix(1.2889056,0,0,1.2889056,-742.47292,271.88173)"
       id="g3776">
      <path
         inkscape:connector-curvature="0"
         id="path3778"
         style="fill:none;stroke:#ff0000;stroke-width:1;stroke-linecap:square;stroke-linejoin:miter;stroke-miterlimit:10;stroke-opacity:1;stroke-dasharray:none"
         d="m 971.5957,254.625 0,-21.75" />
    </g>
    <g
       transform="matrix(1.2889056,0,0,1.2889056,-742.47292,271.88173)"
       id="g3780">
      <path
         inkscape:connector-curvature="0"
         id="path3782"
         style="fill:none;stroke:#ff0000;stroke-width:1;stroke-linecap:square;stroke-linejoin:miter;stroke-miterlimit:10;stroke-opacity:1;stroke-dasharray:none"
         d="m 966.60638,211.125 0,-21.75" />
    </g>
    <g
       transform="matrix(1.2889056,0,0,1.2889056,-742.47292,271.88173)"
       id="g3784">
      <path
         inkscape:connector-curvature="0"
         id="path3786"
         style="fill:none;stroke:#ff0000;stroke-width:1;stroke-linecap:square;stroke-linejoin:miter;stroke-miterlimit:10;stroke-opacity:1;stroke-dasharray:none"
         d="m 974.11084,167.625 0,-21.75" />
    </g>
    <g
       transform="matrix(1.2889056,0,0,1.2889056,-742.47292,271.88173)"
       id="g3788">
      <path
         inkscape:connector-curvature="0"
         id="path3790"
         style="fill:none;stroke:#ff0000;stroke-width:1;stroke-linecap:square;stroke-linejoin:miter;stroke-miterlimit:10;stroke-opacity:1;stroke-dasharray:none"
         d="m 959.63837,124.125 0,-21.75" />
    </g>
    <g
       transform="matrix(1.2889056,0,0,1.2889056,-742.47292,271.88173)"
       id="g3792">
      <path
         inkscape:connector-curvature="0"
         id="path3794"
         style="fill:none;stroke:#ff0000;stroke-width:1;stroke-linecap:square;stroke-linejoin:miter;stroke-miterlimit:10;stroke-opacity:1;stroke-dasharray:none"
         d="m 970.80975,80.625 0,-21.75" />
    </g>
    <g
       transform="matrix(1.2889056,0,0,1.2889056,-742.47292,271.88173)"
       id="g3796">
      <path
         inkscape:connector-curvature="0"
         id="path3798"
         style="fill:none;stroke:#ff0000;stroke-width:1;stroke-linecap:square;stroke-linejoin:miter;stroke-miterlimit:10;stroke-opacity:1;stroke-dasharray:none"
         d="m 1086.5135,417.75 8,0" />
    </g>
    <g
       transform="matrix(1.2889056,0,0,1.2889056,-742.47292,271.88173)"
       id="g3800">
      <path
         inkscape:connector-curvature="0"
         id="path3802"
         style="fill:none;stroke:#ff0000;stroke-width:1;stroke-linecap:square;stroke-linejoin:miter;stroke-miterlimit:10;stroke-opacity:1;stroke-dasharray:none"
         d="m 1090.5135,421.75 0,-8" />
    </g>
    <g
       transform="matrix(1.2889056,0,0,1.2889056,-742.47292,271.88173)"
       id="g3804">
      <path
         inkscape:connector-curvature="0"
         id="path3806"
         style="fill:none;stroke:#ff0000;stroke-width:1;stroke-linecap:square;stroke-linejoin:miter;stroke-miterlimit:10;stroke-opacity:1;stroke-dasharray:none"
         d="m 1091.0388,417.75 8,0" />
    </g>
    <g
       transform="matrix(1.2889056,0,0,1.2889056,-742.47292,271.88173)"
       id="g3808">
      <path
         inkscape:connector-curvature="0"
         id="path3810"
         style="fill:none;stroke:#ff0000;stroke-width:1;stroke-linecap:square;stroke-linejoin:miter;stroke-miterlimit:10;stroke-opacity:1;stroke-dasharray:none"
         d="m 1095.0388,421.75 0,-8" />
    </g>
    <g
       transform="matrix(1.2889056,0,0,1.2889056,-742.47292,271.88173)"
       id="g3812">
      <path
         inkscape:connector-curvature="0"
         id="path3814"
         style="fill:none;stroke:#ff0000;stroke-width:1;stroke-linecap:square;stroke-linejoin:miter;stroke-miterlimit:10;stroke-opacity:1;stroke-dasharray:none"
         d="m 1089.6428,374.25 8,0" />
    </g>
    <g
       transform="matrix(1.2889056,0,0,1.2889056,-742.47292,271.88173)"
       id="g3816">
      <path
         inkscape:connector-curvature="0"
         id="path3818"
         style="fill:none;stroke:#ff0000;stroke-width:1;stroke-linecap:square;stroke-linejoin:miter;stroke-miterlimit:10;stroke-opacity:1;stroke-dasharray:none"
         d="m 1093.6428,378.25 0,-8" />
    </g>
    <g
       transform="matrix(1.2889056,0,0,1.2889056,-742.47292,271.88173)"
       id="g3820">
      <path
         inkscape:connector-curvature="0"
         id="path3822"
         style="fill:none;stroke:#ff0000;stroke-width:1;stroke-linecap:square;stroke-linejoin:miter;stroke-miterlimit:10;stroke-opacity:1;stroke-dasharray:none"
         d="m 1075.2638,330.75 8,0" />
    </g>
    <g
       transform="matrix(1.2889056,0,0,1.2889056,-742.47292,271.88173)"
       id="g3824">
      <path
         inkscape:connector-curvature="0"
         id="path3826"
         style="fill:none;stroke:#ff0000;stroke-width:1;stroke-linecap:square;stroke-linejoin:miter;stroke-miterlimit:10;stroke-opacity:1;stroke-dasharray:none"
         d="m 1079.2638,334.75 0,-8" />
    </g>
    <g
       transform="matrix(1.2889056,0,0,1.2889056,-742.47292,271.88173)"
       id="g3828">
      <path
         inkscape:connector-curvature="0"
         id="path3830"
         style="fill:none;stroke:#ff0000;stroke-width:1;stroke-linecap:square;stroke-linejoin:miter;stroke-miterlimit:10;stroke-opacity:1;stroke-dasharray:none"
         d="m 1077.8239,330.75 8,0" />
    </g>
    <g
       transform="matrix(1.2889056,0,0,1.2889056,-742.47292,271.88173)"
       id="g3832">
      <path
         inkscape:connector-curvature="0"
         id="path3834"
         style="fill:none;stroke:#ff0000;stroke-width:1;stroke-linecap:square;stroke-linejoin:miter;stroke-miterlimit:10;stroke-opacity:1;stroke-dasharray:none"
         d="m 1081.8239,334.75 0,-8" />
    </g>
    <g
       transform="matrix(1.2889056,0,0,1.2889056,-742.47292,271.88173)"
       id="g3836">
      <path
         inkscape:connector-curvature="0"
         id="path3838"
         style="fill:none;stroke:#ff0000;stroke-width:1;stroke-linecap:square;stroke-linejoin:miter;stroke-miterlimit:10;stroke-opacity:1;stroke-dasharray:none"
         d="m 1080.5692,330.75 8,0" />
    </g>
    <g
       transform="matrix(1.2889056,0,0,1.2889056,-742.47292,271.88173)"
       id="g3840">
      <path
         inkscape:connector-curvature="0"
         id="path3842"
         style="fill:none;stroke:#ff0000;stroke-width:1;stroke-linecap:square;stroke-linejoin:miter;stroke-miterlimit:10;stroke-opacity:1;stroke-dasharray:none"
         d="m 1084.5692,334.75 0,-8" />
    </g>
    <g
       transform="matrix(1.2889056,0,0,1.2889056,-742.47292,271.88173)"
       id="g3844">
      <path
         inkscape:connector-curvature="0"
         id="path3846"
         style="fill:none;stroke:#ff0000;stroke-width:1;stroke-linecap:square;stroke-linejoin:miter;stroke-miterlimit:10;stroke-opacity:1;stroke-dasharray:none"
         d="m 1123.2727,287.25 8,0" />
    </g>
    <g
       transform="matrix(1.2889056,0,0,1.2889056,-742.47292,271.88173)"
       id="g3848">
      <path
         inkscape:connector-curvature="0"
         id="path3850"
         style="fill:none;stroke:#ff0000;stroke-width:1;stroke-linecap:square;stroke-linejoin:miter;stroke-miterlimit:10;stroke-opacity:1;stroke-dasharray:none"
         d="m 1127.2727,291.25 0,-8" />
    </g>
    <g
       transform="matrix(1.2889056,0,0,1.2889056,-742.47292,271.88173)"
       id="g3852">
      <path
         inkscape:connector-curvature="0"
         id="path3854"
         style="fill:none;stroke:#ff0000;stroke-width:1;stroke-linecap:square;stroke-linejoin:miter;stroke-miterlimit:10;stroke-opacity:1;stroke-dasharray:none"
         d="m 668.72729,243.75 8,0" />
    </g>
    <g
       transform="matrix(1.2889056,0,0,1.2889056,-742.47292,271.88173)"
       id="g3856">
      <path
         inkscape:connector-curvature="0"
         id="path3858"
         style="fill:none;stroke:#ff0000;stroke-width:1;stroke-linecap:square;stroke-linejoin:miter;stroke-miterlimit:10;stroke-opacity:1;stroke-dasharray:none"
         d="m 672.72729,247.75 0,-8" />
    </g>
    <g
       transform="matrix(1.2889056,0,0,1.2889056,-742.47292,271.88173)"
       id="g3860">
      <path
         inkscape:connector-curvature="0"
         id="path3862"
         style="fill:none;stroke:#ff0000;stroke-width:1;stroke-linecap:square;stroke-linejoin:miter;stroke-miterlimit:10;stroke-opacity:1;stroke-dasharray:none"
         d="m 679.31287,243.75 8,0" />
    </g>
    <g
       transform="matrix(1.2889056,0,0,1.2889056,-742.47292,271.88173)"
       id="g3864">
      <path
         inkscape:connector-curvature="0"
         id="path3866"
         style="fill:none;stroke:#ff0000;stroke-width:1;stroke-linecap:square;stroke-linejoin:miter;stroke-miterlimit:10;stroke-opacity:1;stroke-dasharray:none"
         d="m 683.31287,247.75 0,-8" />
    </g>
    <g
       transform="matrix(1.2889056,0,0,1.2889056,-742.47292,271.88173)"
       id="g3868">
      <path
         inkscape:connector-curvature="0"
         id="path3870"
         style="fill:none;stroke:#ff0000;stroke-width:1;stroke-linecap:square;stroke-linejoin:miter;stroke-miterlimit:10;stroke-opacity:1;stroke-dasharray:none"
         d="m 782.61615,243.75 8,0" />
    </g>
    <g
       transform="matrix(1.2889056,0,0,1.2889056,-742.47292,271.88173)"
       id="g3872">
      <path
         inkscape:connector-curvature="0"
         id="path3874"
         style="fill:none;stroke:#ff0000;stroke-width:1;stroke-linecap:square;stroke-linejoin:miter;stroke-miterlimit:10;stroke-opacity:1;stroke-dasharray:none"
         d="m 786.61615,247.75 0,-8" />
    </g>
    <g
       transform="matrix(1.2889056,0,0,1.2889056,-742.47292,271.88173)"
       id="g3876">
      <path
         inkscape:connector-curvature="0"
         id="path3878"
         style="fill:none;stroke:#ff0000;stroke-width:1;stroke-linecap:square;stroke-linejoin:miter;stroke-miterlimit:10;stroke-opacity:1;stroke-dasharray:none"
         d="m 838.86987,243.75 8,0" />
    </g>
    <g
       transform="matrix(1.2889056,0,0,1.2889056,-742.47292,271.88173)"
       id="g3880">
      <path
         inkscape:connector-curvature="0"
         id="path3882"
         style="fill:none;stroke:#ff0000;stroke-width:1;stroke-linecap:square;stroke-linejoin:miter;stroke-miterlimit:10;stroke-opacity:1;stroke-dasharray:none"
         d="m 842.86987,247.75 0,-8" />
    </g>
    <g
       transform="matrix(1.2889056,0,0,1.2889056,-742.47292,271.88173)"
       id="g3884">
      <path
         inkscape:connector-curvature="0"
         id="path3886"
         style="fill:none;stroke:#ff0000;stroke-width:1;stroke-linecap:square;stroke-linejoin:miter;stroke-miterlimit:10;stroke-opacity:1;stroke-dasharray:none"
         d="m 860.47534,243.75 8,0" />
    </g>
    <g
       transform="matrix(1.2889056,0,0,1.2889056,-742.47292,271.88173)"
       id="g3888">
      <path
         inkscape:connector-curvature="0"
         id="path3890"
         style="fill:none;stroke:#ff0000;stroke-width:1;stroke-linecap:square;stroke-linejoin:miter;stroke-miterlimit:10;stroke-opacity:1;stroke-dasharray:none"
         d="m 864.47534,247.75 0,-8" />
    </g>
    <g
       transform="matrix(1.2889056,0,0,1.2889056,-742.47292,271.88173)"
       id="g3892">
      <path
         inkscape:connector-curvature="0"
         id="path3894"
         style="fill:none;stroke:#ff0000;stroke-width:1;stroke-linecap:square;stroke-linejoin:miter;stroke-miterlimit:10;stroke-opacity:1;stroke-dasharray:none"
         d="m 874.3324,243.75 8,0" />
    </g>
    <g
       transform="matrix(1.2889056,0,0,1.2889056,-742.47292,271.88173)"
       id="g3896">
      <path
         inkscape:connector-curvature="0"
         id="path3898"
         style="fill:none;stroke:#ff0000;stroke-width:1;stroke-linecap:square;stroke-linejoin:miter;stroke-miterlimit:10;stroke-opacity:1;stroke-dasharray:none"
         d="m 878.3324,247.75 0,-8" />
    </g>
    <g
       transform="matrix(1.2889056,0,0,1.2889056,-742.47292,271.88173)"
       id="g3900">
      <path
         inkscape:connector-curvature="0"
         id="path3902"
         style="fill:none;stroke:#ff0000;stroke-width:1;stroke-linecap:square;stroke-linejoin:miter;stroke-miterlimit:10;stroke-opacity:1;stroke-dasharray:none"
         d="m 889.50604,243.75 8,0" />
    </g>
    <g
       transform="matrix(1.2889056,0,0,1.2889056,-742.47292,271.88173)"
       id="g3904">
      <path
         inkscape:connector-curvature="0"
         id="path3906"
         style="fill:none;stroke:#ff0000;stroke-width:1;stroke-linecap:square;stroke-linejoin:miter;stroke-miterlimit:10;stroke-opacity:1;stroke-dasharray:none"
         d="m 893.50604,247.75 0,-8" />
    </g>
    <g
       transform="matrix(1.2889056,0,0,1.2889056,-742.47292,271.88173)"
       id="g3908">
      <path
         inkscape:connector-curvature="0"
         id="path3910"
         style="fill:none;stroke:#ff0000;stroke-width:1;stroke-linecap:square;stroke-linejoin:miter;stroke-miterlimit:10;stroke-opacity:1;stroke-dasharray:none"
         d="m 909.63788,243.75 8,0" />
    </g>
    <g
       transform="matrix(1.2889056,0,0,1.2889056,-742.47292,271.88173)"
       id="g3912">
      <path
         inkscape:connector-curvature="0"
         id="path3914"
         style="fill:none;stroke:#ff0000;stroke-width:1;stroke-linecap:square;stroke-linejoin:miter;stroke-miterlimit:10;stroke-opacity:1;stroke-dasharray:none"
         d="m 913.63788,247.75 0,-8" />
    </g>
    <g
       transform="matrix(1.2889056,0,0,1.2889056,-742.47292,271.88173)"
       id="g3916">
      <path
         inkscape:connector-curvature="0"
         id="path3918"
         style="fill:none;stroke:#ff0000;stroke-width:1;stroke-linecap:square;stroke-linejoin:miter;stroke-miterlimit:10;stroke-opacity:1;stroke-dasharray:none"
         d="m 913.51514,243.75 8,0" />
    </g>
    <g
       transform="matrix(1.2889056,0,0,1.2889056,-742.47292,271.88173)"
       id="g3920">
      <path
         inkscape:connector-curvature="0"
         id="path3922"
         style="fill:none;stroke:#ff0000;stroke-width:1;stroke-linecap:square;stroke-linejoin:miter;stroke-miterlimit:10;stroke-opacity:1;stroke-dasharray:none"
         d="m 917.51514,247.75 0,-8" />
    </g>
    <g
       transform="matrix(1.2889056,0,0,1.2889056,-742.47292,271.88173)"
       id="g3924">
      <path
         inkscape:connector-curvature="0"
         id="path3926"
         style="fill:none;stroke:#ff0000;stroke-width:1;stroke-linecap:square;stroke-linejoin:miter;stroke-miterlimit:10;stroke-opacity:1;stroke-dasharray:none"
         d="m 915.93011,243.75 8,0" />
    </g>
    <g
       transform="matrix(1.2889056,0,0,1.2889056,-742.47292,271.88173)"
       id="g3928">
      <path
         inkscape:connector-curvature="0"
         id="path3930"
         style="fill:none;stroke:#ff0000;stroke-width:1;stroke-linecap:square;stroke-linejoin:miter;stroke-miterlimit:10;stroke-opacity:1;stroke-dasharray:none"
         d="m 919.93011,247.75 0,-8" />
    </g>
    <g
       transform="matrix(1.2889056,0,0,1.2889056,-742.47292,271.88173)"
       id="g3932">
      <path
         inkscape:connector-curvature="0"
         id="path3934"
         style="fill:none;stroke:#ff0000;stroke-width:1;stroke-linecap:square;stroke-linejoin:miter;stroke-miterlimit:10;stroke-opacity:1;stroke-dasharray:none"
         d="m 924.76129,243.75 8,0" />
    </g>
    <g
       transform="matrix(1.2889056,0,0,1.2889056,-742.47292,271.88173)"
       id="g3936">
      <path
         inkscape:connector-curvature="0"
         id="path3938"
         style="fill:none;stroke:#ff0000;stroke-width:1;stroke-linecap:square;stroke-linejoin:miter;stroke-miterlimit:10;stroke-opacity:1;stroke-dasharray:none"
         d="m 928.76129,247.75 0,-8" />
    </g>
    <g
       transform="matrix(1.2889056,0,0,1.2889056,-742.47292,271.88173)"
       id="g3940">
      <path
         inkscape:connector-curvature="0"
         id="path3942"
         style="fill:none;stroke:#ff0000;stroke-width:1;stroke-linecap:square;stroke-linejoin:miter;stroke-miterlimit:10;stroke-opacity:1;stroke-dasharray:none"
         d="m 926.14929,243.75 8,0" />
    </g>
    <g
       transform="matrix(1.2889056,0,0,1.2889056,-742.47292,271.88173)"
       id="g3944">
      <path
         inkscape:connector-curvature="0"
         id="path3946"
         style="fill:none;stroke:#ff0000;stroke-width:1;stroke-linecap:square;stroke-linejoin:miter;stroke-miterlimit:10;stroke-opacity:1;stroke-dasharray:none"
         d="m 930.14929,247.75 0,-8" />
    </g>
    <g
       transform="matrix(1.2889056,0,0,1.2889056,-742.47292,271.88173)"
       id="g3948">
      <path
         inkscape:connector-curvature="0"
         id="path3950"
         style="fill:none;stroke:#ff0000;stroke-width:1;stroke-linecap:square;stroke-linejoin:miter;stroke-miterlimit:10;stroke-opacity:1;stroke-dasharray:none"
         d="m 927.71741,243.75 8,0" />
    </g>
    <g
       transform="matrix(1.2889056,0,0,1.2889056,-742.47292,271.88173)"
       id="g3952">
      <path
         inkscape:connector-curvature="0"
         id="path3954"
         style="fill:none;stroke:#ff0000;stroke-width:1;stroke-linecap:square;stroke-linejoin:miter;stroke-miterlimit:10;stroke-opacity:1;stroke-dasharray:none"
         d="m 931.71741,247.75 0,-8" />
    </g>
    <g
       transform="matrix(1.2889056,0,0,1.2889056,-742.47292,271.88173)"
       id="g3956">
      <path
         inkscape:connector-curvature="0"
         id="path3958"
         style="fill:none;stroke:#ff0000;stroke-width:1;stroke-linecap:square;stroke-linejoin:miter;stroke-miterlimit:10;stroke-opacity:1;stroke-dasharray:none"
         d="m 1078.1641,200.25 8,0" />
    </g>
    <g
       transform="matrix(1.2889056,0,0,1.2889056,-742.47292,271.88173)"
       id="g3960">
      <path
         inkscape:connector-curvature="0"
         id="path3962"
         style="fill:none;stroke:#ff0000;stroke-width:1;stroke-linecap:square;stroke-linejoin:miter;stroke-miterlimit:10;stroke-opacity:1;stroke-dasharray:none"
         d="m 1082.1641,204.25 0,-8" />
    </g>
    <g
       transform="matrix(1.2889056,0,0,1.2889056,-742.47292,271.88173)"
       id="g3964">
      <path
         inkscape:connector-curvature="0"
         id="path3966"
         style="fill:none;stroke:#ff0000;stroke-width:1;stroke-linecap:square;stroke-linejoin:miter;stroke-miterlimit:10;stroke-opacity:1;stroke-dasharray:none"
         d="m 822.0578,156.75 8,0" />
    </g>
    <g
       transform="matrix(1.2889056,0,0,1.2889056,-742.47292,271.88173)"
       id="g3968">
      <path
         inkscape:connector-curvature="0"
         id="path3970"
         style="fill:none;stroke:#ff0000;stroke-width:1;stroke-linecap:square;stroke-linejoin:miter;stroke-miterlimit:10;stroke-opacity:1;stroke-dasharray:none"
         d="m 826.0578,160.75 0,-8" />
    </g>
    <g
       transform="matrix(1.2889056,0,0,1.2889056,-742.47292,271.88173)"
       id="g3972">
      <path
         inkscape:connector-curvature="0"
         id="path3974"
         style="fill:none;stroke:#ff0000;stroke-width:1;stroke-linecap:square;stroke-linejoin:miter;stroke-miterlimit:10;stroke-opacity:1;stroke-dasharray:none"
         d="m 833.76086,156.75 8,0" />
    </g>
    <g
       transform="matrix(1.2889056,0,0,1.2889056,-742.47292,271.88173)"
       id="g3976">
      <path
         inkscape:connector-curvature="0"
         id="path3978"
         style="fill:none;stroke:#ff0000;stroke-width:1;stroke-linecap:square;stroke-linejoin:miter;stroke-miterlimit:10;stroke-opacity:1;stroke-dasharray:none"
         d="m 837.76086,160.75 0,-8" />
    </g>
    <g
       transform="matrix(1.2889056,0,0,1.2889056,-742.47292,271.88173)"
       id="g3980">
      <path
         inkscape:connector-curvature="0"
         id="path3982"
         style="fill:none;stroke:#ff0000;stroke-width:1;stroke-linecap:square;stroke-linejoin:miter;stroke-miterlimit:10;stroke-opacity:1;stroke-dasharray:none"
         d="m 834.37317,156.75 8,0" />
    </g>
    <g
       transform="matrix(1.2889056,0,0,1.2889056,-742.47292,271.88173)"
       id="g3984">
      <path
         inkscape:connector-curvature="0"
         id="path3986"
         style="fill:none;stroke:#ff0000;stroke-width:1;stroke-linecap:square;stroke-linejoin:miter;stroke-miterlimit:10;stroke-opacity:1;stroke-dasharray:none"
         d="m 838.37317,160.75 0,-8" />
    </g>
  </g>
</svg>
