<?xml version="1.0" encoding="UTF-8" standalone="no"?>
<!-- Created with Inkscape (http://www.inkscape.org/) -->

<svg
   xmlns:dc="http://purl.org/dc/elements/1.1/"
   xmlns:cc="http://creativecommons.org/ns#"
   xmlns:rdf="http://www.w3.org/1999/02/22-rdf-syntax-ns#"
   xmlns:svg="http://www.w3.org/2000/svg"
   xmlns="http://www.w3.org/2000/svg"
   xmlns:sodipodi="http://sodipodi.sourceforge.net/DTD/sodipodi-0.dtd"
   xmlns:inkscape="http://www.inkscape.org/namespaces/inkscape"
   width="1499.8818"
   height="850.03937"
   id="svg18663"
   version="1.1"
   inkscape:version="0.48.5 r10040"
   sodipodi:docname="variance1_3.pdf">
  <defs
     id="defs18665" />
  <sodipodi:namedview
     id="base"
     pagecolor="#ffffff"
     bordercolor="#666666"
     borderopacity="1.0"
     inkscape:pageopacity="0.0"
     inkscape:pageshadow="2"
     inkscape:zoom="0.35"
     inkscape:cx="375"
     inkscape:cy="520"
     inkscape:document-units="px"
     inkscape:current-layer="layer1"
     showgrid="false"
     units="mm"
     inkscape:window-width="1920"
     inkscape:window-height="1057"
     inkscape:window-x="1676"
     inkscape:window-y="-4"
     inkscape:window-maximized="1" />
  <metadata
     id="metadata18668">
    <rdf:RDF>
      <cc:Work
         rdf:about="">
        <dc:format>image/svg+xml</dc:format>
        <dc:type
           rdf:resource="http://purl.org/dc/dcmitype/StillImage" />
        <dc:title></dc:title>
      </cc:Work>
    </rdf:RDF>
  </metadata>
  <g
     inkscape:label="Calque 1"
     inkscape:groupmode="layer"
     id="layer1"
     transform="translate(0,-202.32284)">
    <g
       transform="matrix(2.8125,0,0,2.8125,-294.47724,-705.21396)"
       id="g2960">
      <path
         inkscape:connector-curvature="0"
         id="path2962"
         style="fill:#ffffff;fill-opacity:1;fill-rule:nonzero;stroke:none"
         d="m 167,570 428,0 0,-218 -428,0 0,218 z" />
    </g>
    <g
       id="g2964"
       transform="matrix(0.3,0,0,0.3,-24.47724,-705.21396)">
      <g
         transform="matrix(9.3750002,0,0,9.3750002,2671.8771,5565.6253)"
         id="g2966">
        <text
           id="text2968"
           transform="translate(-84.5,16)">
          <tspan
             id="tspan2970"
             sodipodi:role="line"
             y="0"
             x="0 10.83 19.17 31.665001 40.005001 48.345001 55.845001 64.184998 72.525002 76.695 85.035004 92.535004 96.705002 105.045 110.04 113.37 121.71 129.21001 132.53999 140.88 149.22 152.55 160.89"
             style="font-size:15px;font-variant:normal;font-weight:normal;writing-mode:lr-tb;fill:#262626;fill-opacity:1;fill-rule:nonzero;stroke:none;font-family:Helvetica;-inkscape-font-specification:Helvetica">Composantes principales</tspan>
        </text>
      </g>
    </g>
    <g
       transform="matrix(2.8125,0,0,2.8125,-294.47724,-705.21396)"
       id="g2972">
      <path
         inkscape:connector-curvature="0"
         id="path2974"
         style="fill:none;stroke:#262626;stroke-width:1;stroke-linecap:square;stroke-linejoin:miter;stroke-miterlimit:10;stroke-opacity:1;stroke-dasharray:none"
         d="m 167,570 428,0" />
    </g>
    <g
       transform="matrix(2.8125,0,0,2.8125,-294.47724,-705.21396)"
       id="g2976">
      <path
         inkscape:connector-curvature="0"
         id="path2978"
         style="fill:none;stroke:#262626;stroke-width:1;stroke-linecap:square;stroke-linejoin:miter;stroke-miterlimit:10;stroke-opacity:1;stroke-dasharray:none"
         d="m 209.8,570 0,-4.28003" />
    </g>
    <g
       transform="matrix(2.8125,0,0,2.8125,-294.47724,-705.21396)"
       id="g2980">
      <path
         inkscape:connector-curvature="0"
         id="path2982"
         style="fill:none;stroke:#262626;stroke-width:1;stroke-linecap:square;stroke-linejoin:miter;stroke-miterlimit:10;stroke-opacity:1;stroke-dasharray:none"
         d="m 295.39999,570 0,-4.28003" />
    </g>
    <g
       transform="matrix(2.8125,0,0,2.8125,-294.47724,-705.21396)"
       id="g2984">
      <path
         inkscape:connector-curvature="0"
         id="path2986"
         style="fill:none;stroke:#262626;stroke-width:1;stroke-linecap:square;stroke-linejoin:miter;stroke-miterlimit:10;stroke-opacity:1;stroke-dasharray:none"
         d="m 381,570 0,-4.28003" />
    </g>
    <g
       transform="matrix(2.8125,0,0,2.8125,-294.47724,-705.21396)"
       id="g2988">
      <path
         inkscape:connector-curvature="0"
         id="path2990"
         style="fill:none;stroke:#262626;stroke-width:1;stroke-linecap:square;stroke-linejoin:miter;stroke-miterlimit:10;stroke-opacity:1;stroke-dasharray:none"
         d="m 466.60001,570 0,-4.28003" />
    </g>
    <g
       transform="matrix(2.8125,0,0,2.8125,-294.47724,-705.21396)"
       id="g2992">
      <path
         inkscape:connector-curvature="0"
         id="path2994"
         style="fill:none;stroke:#262626;stroke-width:1;stroke-linecap:square;stroke-linejoin:miter;stroke-miterlimit:10;stroke-opacity:1;stroke-dasharray:none"
         d="m 552.20001,570 0,-4.28003" />
    </g>
    <g
       id="g2996"
       transform="matrix(0.3,0,0,0.3,-24.47724,-705.21396)">
      <g
         transform="matrix(9.3750002,0,0,9.3750002,1066.8751,5393.7499)"
         id="g2998">
        <text
           id="text3000"
           transform="translate(-1.886,14)">
          <tspan
             id="tspan3002"
             y="0"
             x="0"
             style="font-size:13px;font-variant:normal;font-weight:normal;writing-mode:lr-tb;fill:#262626;fill-opacity:1;fill-rule:nonzero;stroke:none;font-family:Helvetica;-inkscape-font-specification:Helvetica">1</tspan>
        </text>
      </g>
    </g>
    <g
       id="g3004"
       transform="matrix(0.3,0,0,0.3,-24.47724,-705.21396)">
      <g
         transform="matrix(9.3750002,0,0,9.3750002,1869.375,5393.7499)"
         id="g3006">
        <text
           id="text3008"
           transform="translate(-1.886,14)">
          <tspan
             id="tspan3010"
             y="0"
             x="0"
             style="font-size:13px;font-variant:normal;font-weight:normal;writing-mode:lr-tb;fill:#262626;fill-opacity:1;fill-rule:nonzero;stroke:none;font-family:Helvetica;-inkscape-font-specification:Helvetica">2</tspan>
        </text>
      </g>
    </g>
    <g
       id="g3012"
       transform="matrix(0.3,0,0,0.3,-24.47724,-705.21396)">
      <g
         transform="matrix(9.3750002,0,0,9.3750002,2671.8751,5393.7499)"
         id="g3014">
        <text
           id="text3016"
           transform="translate(-1.886,14)">
          <tspan
             id="tspan3018"
             y="0"
             x="0"
             style="font-size:13px;font-variant:normal;font-weight:normal;writing-mode:lr-tb;fill:#262626;fill-opacity:1;fill-rule:nonzero;stroke:none;font-family:Helvetica;-inkscape-font-specification:Helvetica">3</tspan>
        </text>
      </g>
    </g>
    <g
       id="g3020"
       transform="matrix(0.3,0,0,0.3,-24.47724,-705.21396)">
      <g
         transform="matrix(9.3750002,0,0,9.3750002,3474.3752,5393.7499)"
         id="g3022">
        <text
           id="text3024"
           transform="translate(-1.886,14)">
          <tspan
             id="tspan3026"
             y="0"
             x="0"
             style="font-size:13px;font-variant:normal;font-weight:normal;writing-mode:lr-tb;fill:#262626;fill-opacity:1;fill-rule:nonzero;stroke:none;font-family:Helvetica;-inkscape-font-specification:Helvetica">4</tspan>
        </text>
      </g>
    </g>
    <g
       id="g3028"
       transform="matrix(0.3,0,0,0.3,-24.47724,-705.21396)">
      <g
         transform="matrix(9.3750002,0,0,9.3750002,4276.8752,5393.7499)"
         id="g3030">
        <text
           id="text3032"
           transform="translate(-1.886,14)">
          <tspan
             id="tspan3034"
             y="0"
             x="0"
             style="font-size:13px;font-variant:normal;font-weight:normal;writing-mode:lr-tb;fill:#262626;fill-opacity:1;fill-rule:nonzero;stroke:none;font-family:Helvetica;-inkscape-font-specification:Helvetica">5</tspan>
        </text>
      </g>
    </g>
    <g
       id="g3036"
       transform="matrix(0.3,0,0,0.3,-24.47724,-705.21396)">
      <g
         transform="matrix(-4.1e-7,-9.3750002,9.3750002,-4.1e-7,371.87508,4321.8742)"
         id="g3038">
        <text
           id="text3040"
           transform="translate(-75.5,-4)">
          <tspan
             id="tspan3042"
             sodipodi:role="line"
             y="0"
             x="0 10.005 18.344999 23.34 26.67 35.009998 43.349998 50.849998 59.189999 63.360001 71.699997 79.199997 87.540001 90.870003 94.199997 102.54 110.88 119.22 127.56 132.55499 145.89"
             style="font-size:15px;font-variant:normal;font-weight:normal;writing-mode:lr-tb;fill:#262626;fill-opacity:1;fill-rule:nonzero;stroke:none;font-family:Helvetica;-inkscape-font-specification:Helvetica">Variance expliquée(%)</tspan>
        </text>
      </g>
    </g>
    <g
       transform="matrix(2.8125,0,0,2.8125,-294.47724,-705.21396)"
       id="g3044">
      <path
         inkscape:connector-curvature="0"
         id="path3046"
         style="fill:none;stroke:#262626;stroke-width:1;stroke-linecap:square;stroke-linejoin:miter;stroke-miterlimit:10;stroke-opacity:1;stroke-dasharray:none"
         d="m 167,570 0,-218" />
    </g>
    <g
       transform="matrix(2.8125,0,0,2.8125,-294.47724,-705.21396)"
       id="g3048">
      <path
         inkscape:connector-curvature="0"
         id="path3050"
         style="fill:none;stroke:#262626;stroke-width:1;stroke-linecap:square;stroke-linejoin:miter;stroke-miterlimit:10;stroke-opacity:1;stroke-dasharray:none"
         d="m 167,570 4.28,0" />
    </g>
    <g
       transform="matrix(2.8125,0,0,2.8125,-294.47724,-705.21396)"
       id="g3052">
      <path
         inkscape:connector-curvature="0"
         id="path3054"
         style="fill:none;stroke:#262626;stroke-width:1;stroke-linecap:square;stroke-linejoin:miter;stroke-miterlimit:10;stroke-opacity:1;stroke-dasharray:none"
         d="m 167,461 4.28,0" />
    </g>
    <g
       transform="matrix(2.8125,0,0,2.8125,-294.47724,-705.21396)"
       id="g3056">
      <path
         inkscape:connector-curvature="0"
         id="path3058"
         style="fill:none;stroke:#262626;stroke-width:1;stroke-linecap:square;stroke-linejoin:miter;stroke-miterlimit:10;stroke-opacity:1;stroke-dasharray:none"
         d="m 167,352 4.28,0" />
    </g>
    <g
       id="g3060"
       transform="matrix(0.3,0,0,0.3,-24.47724,-705.21396)">
      <g
         transform="matrix(9.3750002,0,0,9.3750002,615.62508,5343.7501)"
         id="g3062">
        <text
           id="text3064"
           transform="translate(-8,5.5)">
          <tspan
             id="tspan3066"
             y="0"
             x="0"
             style="font-size:13px;font-variant:normal;font-weight:normal;writing-mode:lr-tb;fill:#262626;fill-opacity:1;fill-rule:nonzero;stroke:none;font-family:Helvetica;-inkscape-font-specification:Helvetica">0</tspan>
        </text>
      </g>
    </g>
    <g
       id="g3068"
       transform="matrix(0.3,0,0,0.3,-24.47724,-705.21396)">
      <g
         transform="matrix(9.3750002,0,0,9.3750002,615.62508,4321.8751)"
         id="g3070">
        <text
           id="text3072"
           transform="translate(-15,5.5)">
          <tspan
             id="tspan3074"
             sodipodi:role="line"
             y="0"
             x="0 7.2280002"
             style="font-size:13px;font-variant:normal;font-weight:normal;writing-mode:lr-tb;fill:#262626;fill-opacity:1;fill-rule:nonzero;stroke:none;font-family:Helvetica;-inkscape-font-specification:Helvetica">50</tspan>
        </text>
      </g>
    </g>
    <g
       id="g3076"
       transform="matrix(0.3,0,0,0.3,-24.47724,-705.21396)">
      <g
         transform="matrix(9.3750002,0,0,9.3750002,615.62508,3300.0001)"
         id="g3078">
        <text
           id="text3080"
           transform="translate(-22,5.5)">
          <tspan
             id="tspan3082"
             sodipodi:role="line"
             y="0"
             x="0 7.2280002 14.456"
             style="font-size:13px;font-variant:normal;font-weight:normal;writing-mode:lr-tb;fill:#262626;fill-opacity:1;fill-rule:nonzero;stroke:none;font-family:Helvetica;-inkscape-font-specification:Helvetica">100</tspan>
        </text>
      </g>
    </g>
    <g
       transform="matrix(2.8125,0,0,2.8125,-294.47724,-705.21396)"
       id="g3084">
      <path
         inkscape:connector-curvature="0"
         id="path3086"
         style="fill:#352a86;fill-opacity:1;fill-rule:nonzero;stroke:none"
         d="m 175.56,570 68.47999,0 0,-99.04236 -68.47999,0 0,99.04236 z" />
    </g>
    <g
       transform="matrix(2.8125,0,0,2.8125,-294.47724,-705.21396)"
       id="g3088">
      <path
         inkscape:connector-curvature="0"
         id="path3090"
         style="fill:#352a86;fill-opacity:1;fill-rule:nonzero;stroke:none"
         d="m 261.16,570 68.48001,0 0,-50.3606 -68.48001,0 0,50.3606 z" />
    </g>
    <g
       transform="matrix(2.8125,0,0,2.8125,-294.47724,-705.21396)"
       id="g3092">
      <path
         inkscape:connector-curvature="0"
         id="path3094"
         style="fill:#352a86;fill-opacity:1;fill-rule:nonzero;stroke:none"
         d="m 346.75998,570 68.48004,0 0,-31.63422 -68.48004,0 0,31.63422 z" />
    </g>
    <g
       transform="matrix(2.8125,0,0,2.8125,-294.47724,-705.21396)"
       id="g3096">
      <path
         inkscape:connector-curvature="0"
         id="path3098"
         style="fill:#352a86;fill-opacity:1;fill-rule:nonzero;stroke:none"
         d="m 432.35999,570 68.48001,0 0,-24.92603 -68.48001,0 0,24.92603 z" />
    </g>
    <g
       transform="matrix(2.8125,0,0,2.8125,-294.47724,-705.21396)"
       id="g3100">
      <path
         inkscape:connector-curvature="0"
         id="path3102"
         style="fill:#352a86;fill-opacity:1;fill-rule:nonzero;stroke:none"
         d="m 517.96002,570 68.47998,0 0,-7.59418 -68.47998,0 0,7.59418 z" />
    </g>
    <g
       transform="matrix(2.8125,0,0,2.8125,-294.47724,-705.21396)"
       id="g3104">
      <path
         inkscape:connector-curvature="0"
         id="path3106"
         style="fill:none;stroke:#000000;stroke-width:1;stroke-linecap:square;stroke-linejoin:miter;stroke-miterlimit:10;stroke-opacity:1;stroke-dasharray:none"
         d="m 175.56,570 0,-99.04236 68.47999,0 0,99.04236 -68.47999,0" />
    </g>
    <g
       transform="matrix(2.8125,0,0,2.8125,-294.47724,-705.21396)"
       id="g3108">
      <path
         inkscape:connector-curvature="0"
         id="path3110"
         style="fill:none;stroke:#000000;stroke-width:1;stroke-linecap:square;stroke-linejoin:miter;stroke-miterlimit:10;stroke-opacity:1;stroke-dasharray:none"
         d="m 261.16,570 0,-50.3606 68.48001,0 0,50.3606 -68.48001,0" />
    </g>
    <g
       transform="matrix(2.8125,0,0,2.8125,-294.47724,-705.21396)"
       id="g3112">
      <path
         inkscape:connector-curvature="0"
         id="path3114"
         style="fill:none;stroke:#000000;stroke-width:1;stroke-linecap:square;stroke-linejoin:miter;stroke-miterlimit:10;stroke-opacity:1;stroke-dasharray:none"
         d="m 346.75998,570 0,-31.63422 68.48004,0 0,31.63422 -68.48004,0" />
    </g>
    <g
       transform="matrix(2.8125,0,0,2.8125,-294.47724,-705.21396)"
       id="g3116">
      <path
         inkscape:connector-curvature="0"
         id="path3118"
         style="fill:none;stroke:#000000;stroke-width:1;stroke-linecap:square;stroke-linejoin:miter;stroke-miterlimit:10;stroke-opacity:1;stroke-dasharray:none"
         d="m 432.35999,570 0,-24.92603 68.48001,0 0,24.92603 -68.48001,0" />
    </g>
    <g
       transform="matrix(2.8125,0,0,2.8125,-294.47724,-705.21396)"
       id="g3120">
      <path
         inkscape:connector-curvature="0"
         id="path3122"
         style="fill:none;stroke:#000000;stroke-width:1;stroke-linecap:square;stroke-linejoin:miter;stroke-miterlimit:10;stroke-opacity:1;stroke-dasharray:none"
         d="m 517.96002,570 0,-7.59418 68.47998,0 0,7.59418 -68.47998,0" />
    </g>
    <g
       transform="matrix(2.8125,0,0,2.8125,-294.47724,-705.21396)"
       id="g3124">
      <path
         inkscape:connector-curvature="0"
         id="path3126"
         style="fill:none;stroke:#0072bd;stroke-width:1;stroke-linecap:square;stroke-linejoin:miter;stroke-miterlimit:10;stroke-opacity:1;stroke-dasharray:none"
         d="M 209.8,470.95764 295.39999,420.59705 381,388.96286 l 85.60001,-24.92599 85.6,-7.59418 42.84284,-1.02106" />
    </g>
    <g
       id="g3128"
       transform="matrix(0.3,0,0,0.3,-24.47724,-705.21396)">
      <g
         transform="matrix(9.3750002,0,0,9.3750002,2671.8785,3274.2188)"
         id="g3130">
        <text
           id="text3132"
           transform="translate(-96.5,-4)">
          <tspan
             id="tspan3134"
             sodipodi:role="line"
             y="0"
             x="0 10.005 14.175 22.514999 30.855 39.195 47.535 51.705002 56.700001 66.705002 75.044998 80.879997 85.050003 93.389999 102.555 110.895 119.235 123.405 131.745 140.08501 149.25 153.42 157.59 166.755 175.92 184.25999"
             style="font-size:15px;font-variant:normal;font-weight:bold;writing-mode:lr-tb;fill:#000000;fill-opacity:1;fill-rule:nonzero;stroke:none;font-family:Helvetica;-inkscape-font-specification:Helvetica-Bold">Piece1 :Variance expliquée</tspan>
        </text>
      </g>
    </g>
    <g
       transform="matrix(2.8125,0,0,2.8125,-294.47724,-705.21396)"
       id="g3136">
      <path
         inkscape:connector-curvature="0"
         id="path3138"
         style="fill:none;stroke:#262626;stroke-width:1;stroke-linecap:square;stroke-linejoin:miter;stroke-miterlimit:10;stroke-opacity:1;stroke-dasharray:none"
         d="m 167,570 428,0" />
    </g>
    <g
       transform="matrix(2.8125,0,0,2.8125,-294.47724,-705.21396)"
       id="g3140">
      <path
         inkscape:connector-curvature="0"
         id="path3142"
         style="fill:none;stroke:#262626;stroke-width:1;stroke-linecap:square;stroke-linejoin:miter;stroke-miterlimit:10;stroke-opacity:1;stroke-dasharray:none"
         d="m 167,570 428,0" />
    </g>
    <g
       transform="matrix(2.8125,0,0,2.8125,-294.47724,-705.21396)"
       id="g3144">
      <path
         inkscape:connector-curvature="0"
         id="path3146"
         style="fill:none;stroke:#262626;stroke-width:1;stroke-linecap:square;stroke-linejoin:miter;stroke-miterlimit:10;stroke-opacity:1;stroke-dasharray:none"
         d="m 595,570 0,-218" />
    </g>
    <g
       transform="matrix(2.8125,0,0,2.8125,-294.47724,-705.21396)"
       id="g3148">
      <path
         inkscape:connector-curvature="0"
         id="path3150"
         style="fill:none;stroke:#262626;stroke-width:1;stroke-linecap:square;stroke-linejoin:miter;stroke-miterlimit:10;stroke-opacity:1;stroke-dasharray:none"
         d="m 595,570 -4.28003,0" />
    </g>
    <g
       transform="matrix(2.8125,0,0,2.8125,-294.47724,-705.21396)"
       id="g3152">
      <path
         inkscape:connector-curvature="0"
         id="path3154"
         style="fill:none;stroke:#262626;stroke-width:1;stroke-linecap:square;stroke-linejoin:miter;stroke-miterlimit:10;stroke-opacity:1;stroke-dasharray:none"
         d="m 595,461 -4.28003,0" />
    </g>
    <g
       transform="matrix(2.8125,0,0,2.8125,-294.47724,-705.21396)"
       id="g3156">
      <path
         inkscape:connector-curvature="0"
         id="path3158"
         style="fill:none;stroke:#262626;stroke-width:1;stroke-linecap:square;stroke-linejoin:miter;stroke-miterlimit:10;stroke-opacity:1;stroke-dasharray:none"
         d="m 595,352 -4.28003,0" />
    </g>
    <g
       id="g3160"
       transform="matrix(0.3,0,0,0.3,-24.47724,-705.21396)">
      <g
         transform="matrix(9.3750002,0,0,9.3750002,4728.1255,5343.7501)"
         id="g3162">
        <text
           id="text3164"
           transform="translate(0,5.5)">
          <tspan
             id="tspan3166"
             sodipodi:role="line"
             y="0"
             x="0 7.2280002"
             style="font-size:13px;font-variant:normal;font-weight:normal;writing-mode:lr-tb;fill:#262626;fill-opacity:1;fill-rule:nonzero;stroke:none;font-family:Helvetica;-inkscape-font-specification:Helvetica">0%</tspan>
        </text>
      </g>
    </g>
    <g
       id="g3168"
       transform="matrix(0.3,0,0,0.3,-24.47724,-705.21396)">
      <g
         transform="matrix(9.3750002,0,0,9.3750002,4728.1255,4321.8751)"
         id="g3170">
        <text
           id="text3172"
           transform="translate(0,5.5)">
          <tspan
             id="tspan3174"
             sodipodi:role="line"
             y="0"
             x="0 7.2280002 14.456"
             style="font-size:13px;font-variant:normal;font-weight:normal;writing-mode:lr-tb;fill:#262626;fill-opacity:1;fill-rule:nonzero;stroke:none;font-family:Helvetica;-inkscape-font-specification:Helvetica">50%</tspan>
        </text>
      </g>
    </g>
  </g>
</svg>
