\relax 
\providecommand\hyper@newdestlabel[2]{}
\citation{Lartillot2013}
\citation{Lartillot2013}
\citation{Lartillot2013}
\citation{Lartillot2013}
\@writefile{toc}{\contentsline {chapter}{\numberline {\MakeUppercase  {Annexe} I:}\MakeUppercase  {Annexes}}{iv}{appendix.A}}
\@writefile{lof}{\addvspace {10\p@ }}
\@writefile{lot}{\addvspace {10\p@ }}
\@writefile{lol}{\addvspace {10\p@ }}
\@writefile{lof}{\contentsline {figure}{\numberline {I.1}{\ignorespaces Exemple de pr\IeC {\'e}sentation d'un descripteur propos\IeC {\'e} par Mirtoolbox. (Issu de (\citeauthor  {Lartillot2013} \citeyear  {Lartillot2013}, p. 87) )\relax }}{v}{figure.caption.21}}
\newlabel{mironset}{{I.1}{v}{Exemple de présentation d'un descripteur proposé par Mirtoolbox. (Issu de \citetaposp {Lartillot2013}{p. 87})\relax }{figure.caption.21}{}}
\citation{Barthet2008a}
\citation{Barthet2008a}
\citation{Barthet2008a}
\citation{Barthet2008a}
\citation{Lartillot2013}
\citation{Lartillot2013}
\citation{Lartillot2013}
\citation{Lartillot2013}
\@writefile{lof}{\contentsline {figure}{\numberline {I.2}{\ignorespaces Liste des descripteurs acoustiques calculables gr\IeC {\^a}ce \IeC {\`a} Mirtoolbox. (Issu de (\citeauthor  {Barthet2008a} \citeyear  {Barthet2008a}, p. 2) )\relax }}{vi}{figure.caption.22}}
\newlabel{overviewmatimbre}{{I.2}{vi}{Liste des descripteurs acoustiques calculables grâce à Mirtoolbox. (Issu de \citetaposp {Barthet2008a}{p. 2})\relax }{figure.caption.22}{}}
\@writefile{lof}{\contentsline {figure}{\numberline {I.3}{\ignorespaces Liste des descripteurs acoustiques calculables gr\IeC {\^a}ce \IeC {\`a} Mirtoolbox. (Issu de (\citeauthor  {Lartillot2013} \citeyear  {Lartillot2013}, p. 10) )\relax }}{vii}{figure.caption.23}}
\newlabel{overviewmir}{{I.3}{vii}{Liste des descripteurs acoustiques calculables grâce à Mirtoolbox. (Issu de \citetaposp {Lartillot2013}{p. 10})\relax }{figure.caption.23}{}}
\@writefile{lof}{\contentsline {figure}{\numberline {I.4}{\ignorespaces Code de la fonction spectre\relax }}{viii}{figure.caption.24}}
\newlabel{spectrefunc}{{I.4}{viii}{Code de la fonction spectre\relax }{figure.caption.24}{}}
\@writefile{lof}{\contentsline {figure}{\numberline {I.5}{\ignorespaces Code de la fonction onset\relax }}{ix}{figure.caption.25}}
\newlabel{onsetfunc}{{I.5}{ix}{Code de la fonction onset\relax }{figure.caption.25}{}}
\@writefile{lof}{\contentsline {figure}{\numberline {I.6}{\ignorespaces R\IeC {\'e}sultats des temps d'attaque obtenus le long du clavier. L'axe des abscisses est le num\IeC {\'e}ro des touches (sera mis en note dans une prochaine version) le long du clavier, l'axe des ordonn\IeC {\'e}es le temps d'attaque en secondes.\relax }}{x}{figure.caption.26}}
\newlabel{attaquenote}{{I.6}{x}{Résultats des temps d'attaque obtenus le long du clavier. L'axe des abscisses est le numéro des touches (sera mis en note dans une prochaine version) le long du clavier, l'axe des ordonnées le temps d'attaque en secondes.\relax }{figure.caption.26}{}}
\@writefile{lof}{\contentsline {figure}{\numberline {I.7}{\ignorespaces R\IeC {\'e}sultats des temps de chute obtenus le long du clavier. L'axe des abscisses est le num\IeC {\'e}ro des touches (sera mis en note dans une prochaine version) le long du clavier, l'axe des ordonn\IeC {\'e}es le temps de chute en secondes.\relax }}{x}{figure.caption.27}}
\newlabel{tpschute}{{I.7}{x}{Résultats des temps de chute obtenus le long du clavier. L'axe des abscisses est le numéro des touches (sera mis en note dans une prochaine version) le long du clavier, l'axe des ordonnées le temps de chute en secondes.\relax }{figure.caption.27}{}}
\@writefile{lof}{\contentsline {figure}{\numberline {I.8}{\ignorespaces Inharmonicit\IeC {\'e}s de claviers pr\IeC {\'e}-1800 le long du clavier. L'axe des abscisses est le num\IeC {\'e}ro des touches (sera mis en note dans une prochaine version) le long du clavier, l'axe des ordonn\IeC {\'e}es l'inharmonicit\IeC {\'e} calcul\IeC {\'e}e.\relax }}{xi}{figure.caption.28}}
\newlabel{inharmclav2}{{I.8}{xi}{Inharmonicités de claviers pré-1800 le long du clavier. L'axe des abscisses est le numéro des touches (sera mis en note dans une prochaine version) le long du clavier, l'axe des ordonnées l'inharmonicité calculée.\relax }{figure.caption.28}{}}
\@writefile{lof}{\contentsline {figure}{\numberline {I.9}{\ignorespaces Inharmonicit\IeC {\'e}s de claviers post-1900 le long du clavier. L'axe des abscisses est le num\IeC {\'e}ro des touches (sera mis en note dans une prochaine version) le long du clavier, l'axe des ordonn\IeC {\'e}es l'inharmonicit\IeC {\'e} calcul\IeC {\'e}e.\relax }}{xi}{figure.caption.29}}
\newlabel{inharmclav}{{I.9}{xi}{Inharmonicités de claviers post-1900 le long du clavier. L'axe des abscisses est le numéro des touches (sera mis en note dans une prochaine version) le long du clavier, l'axe des ordonnées l'inharmonicité calculée.\relax }{figure.caption.29}{}}
\@writefile{lof}{\contentsline {figure}{\numberline {I.10}{\ignorespaces Brillance de claviers pr\IeC {\'e}-1800 le long du clavier. L'axe des abscisses est le num\IeC {\'e}ro des touches (sera mis en note dans une prochaine version) le long du clavier, l'axe des ordonn\IeC {\'e}es la brillance calcul\IeC {\'e}e.\relax }}{xii}{figure.caption.30}}
\newlabel{brillanceclav}{{I.10}{xii}{Brillance de claviers pré-1800 le long du clavier. L'axe des abscisses est le numéro des touches (sera mis en note dans une prochaine version) le long du clavier, l'axe des ordonnées la brillance calculée.\relax }{figure.caption.30}{}}
\@writefile{lof}{\contentsline {figure}{\numberline {I.11}{\ignorespaces Brillance de claviers post-1900 le long du clavier. L'axe des abscisses est le num\IeC {\'e}ro des touches (sera mis en note dans une prochaine version) le long du clavier, l'axe des ordonn\IeC {\'e}es la brillance calcul\IeC {\'e}e.\relax }}{xii}{figure.caption.31}}
\newlabel{brillclav}{{I.11}{xii}{Brillance de claviers post-1900 le long du clavier. L'axe des abscisses est le numéro des touches (sera mis en note dans une prochaine version) le long du clavier, l'axe des ordonnées la brillance calculée.\relax }{figure.caption.31}{}}
\citation{Winter1988a}
\citation{Winter1988a}
\citation{Winter1988a}
\citation{Winter1988a}
\@writefile{lof}{\contentsline {figure}{\numberline {I.12}{\ignorespaces Estimation des ratios longueur de corde/distance au point de pin\IeC {\c c}age le long du clavier. L'axe des abscisses est le num\IeC {\'e}ro des touches (sera mis en note dans une prochaine version) le long du clavier\relax }}{xiii}{figure.caption.32}}
\newlabel{ratioscordespince}{{I.12}{xiii}{Estimation des ratios longueur de corde/distance au point de pinçage le long du clavier. L'axe des abscisses est le numéro des touches (sera mis en note dans une prochaine version) le long du clavier\relax }{figure.caption.32}{}}
\@writefile{lof}{\contentsline {figure}{\numberline {I.13}{\ignorespaces Ratios des points de frappe du marteau sur la longueur des cordes pour un piano Pleyel 1837, un Pleyel 1838 et un piano Erard 1853 relev\IeC {\'e} par Winter (Issu de \citeauthor  {Winter1988a} (\citeyear  {Winter1988a} p. 287)).\relax }}{xiii}{figure.caption.33}}
\newlabel{pitchclav}{{I.13}{xiii}{Ratios des points de frappe du marteau sur la longueur des cordes pour un piano Pleyel 1837, un Pleyel 1838 et un piano Erard 1853 relevé par Winter (Issu de \citetp {Winter1988a}{287}).\relax }{figure.caption.33}{}}
\@setckpt{appendices/figures}{
\setcounter{page}{14}
\setcounter{equation}{0}
\setcounter{enumi}{2}
\setcounter{enumii}{0}
\setcounter{enumiii}{0}
\setcounter{enumiv}{0}
\setcounter{footnote}{0}
\setcounter{mpfootnote}{0}
\setcounter{part}{0}
\setcounter{chapter}{1}
\setcounter{section}{0}
\setcounter{subsection}{0}
\setcounter{subsubsection}{0}
\setcounter{paragraph}{0}
\setcounter{subparagraph}{0}
\setcounter{figure}{13}
\setcounter{table}{0}
\setcounter{NAT@ctr}{75}
\setcounter{lastromanpg}{4}
\setcounter{parentequation}{0}
\setcounter{Item}{32}
\setcounter{Hfootnote}{0}
\setcounter{bookmark@seq@number}{0}
\setcounter{float@type}{4}
\setcounter{ContinuedFloat}{0}
\setcounter{subfigure}{0}
\setcounter{subtable}{0}
\setcounter{section@level}{1}
}
