\relax 
\providecommand\hyper@newdestlabel[2]{}
\providecommand\BKM@entry[2]{}
\catcode`:\active
\catcode`;\active
\catcode`!\active
\catcode`?\active
\providecommand\HyperFirstAtBeginDocument{\AtBeginDocument}
\HyperFirstAtBeginDocument{\ifx\hyper@anchor\@undefined
\global\let\oldcontentsline\contentsline
\gdef\contentsline#1#2#3#4{\oldcontentsline{#1}{#2}{#3}}
\global\let\oldnewlabel\newlabel
\gdef\newlabel#1#2{\newlabelxx{#1}#2}
\gdef\newlabelxx#1#2#3#4#5#6{\oldnewlabel{#1}{{#2}{#3}}}
\AtEndDocument{\ifx\hyper@anchor\@undefined
\let\contentsline\oldcontentsline
\let\newlabel\oldnewlabel
\fi}
\fi}
\global\let\hyper@last\relax 
\gdef\HyperFirstAtBeginDocument#1{#1}
\providecommand\HyField@AuxAddToFields[1]{}
\providecommand\HyField@AuxAddToCoFields[2]{}
\select@language{french}
\@writefile{toc}{\select@language{french}}
\@writefile{lof}{\select@language{french}}
\@writefile{lot}{\select@language{french}}
\select@language{french}
\@writefile{toc}{\select@language{french}}
\@writefile{lof}{\select@language{french}}
\@writefile{lot}{\select@language{french}}
\BKM@entry{id=1,dest={73656374696F6E2A2E31},srcline={100}}{436F6E74656E7473}
\@writefile{toc}{\contentsline {chapter}{\MakeUppercase  {Contents}}{ii}{section*.1}}
\BKM@entry{id=2,dest={636861707465722E31},srcline={1}}{496E74726F64756374696F6E}
\citation{Cook2013}
\citation{Cook2013}
\citation{Seashore1925}
\citation{Seashore1925}
\citation{Gabrielsson2003}
\citation{Gabrielsson2003}
\@writefile{toc}{\contentsline {chapter}{\numberline {\MakeUppercase  {Chapitre} 1:}\MakeUppercase  {Introduction}}{1}{chapter.1}}
\@writefile{lof}{\addvspace {10\p@ }}
\@writefile{lot}{\addvspace {10\p@ }}
\@writefile{lol}{\addvspace {10\p@ }}
\newlabel{intro}{{1}{1}{}{chapter.1}{}}
\citation{Marozeau2004}
\citation{Marozeau2004}
\citation{Marozeau2004}
\citation{Marozeau2004}
\BKM@entry{id=3,dest={636861707465722E32},srcline={4}}{4C652074696D627265206574206C27616E616C797365206465206C27696E74657270725C333531746174696F6E2065787072657373697665}
\BKM@entry{id=4,dest={73656374696F6E2E322E31},srcline={6}}{445C33353166696E6974696F6E73}
\BKM@entry{id=5,dest={73756273656374696F6E2E322E312E31},srcline={2}}{54696D627265}
\citation{Helmholtz}
\citation{Helmholtz}
\citation{Kerlinger1973}
\citation{Kerlinger1973}
\@writefile{toc}{\contentsline {chapter}{\numberline {\MakeUppercase  {Chapitre} 2:}\MakeUppercase  {Le timbre et l'analyse de l'interpr\IeC {\'e}tation expressive}}{4}{chapter.2}}
\@writefile{lof}{\addvspace {10\p@ }}
\@writefile{lot}{\addvspace {10\p@ }}
\@writefile{lol}{\addvspace {10\p@ }}
\newlabel{interp_exp}{{2}{4}{}{chapter.2}{}}
\@writefile{toc}{\contentsline {section}{\numberline {2.1}D\IeC {\'e}finitions}{4}{section.2.1}}
\@writefile{toc}{\contentsline {subsection}{\numberline {2.1.1}Timbre}{4}{subsection.2.1.1}}
\citation{Hajda1997}
\citation{Hajda1997}
\citation{Kerlinger1973}
\citation{Kerlinger1973}
\citation{Krumhansl1989}
\citation{Krumhansl1989}
\citation{Barthet2008}
\citation{Barthet2008}
\citation{Fletcher1934}
\citation{Fletcher1934}
\citation{Marozeau2004}
\citation{Marozeau2004}
\newlabel{defANSI}{{2.1.1}{5}{Timbre}{subsection.2.1.1}{}}
\citation{Krumhansl1989}
\citation{Krumhansl1989}
\BKM@entry{id=6,dest={73756273656374696F6E2E322E312E32},srcline={25}}{54656D706F2065742054696D696E67}
\citation{Gouyon2005}
\citation{Gouyon2005}
\citation{Gouyon2005}
\citation{Gouyon2005}
\@writefile{toc}{\contentsline {subsection}{\numberline {2.1.2}Tempo et Timing}{7}{subsection.2.1.2}}
\newlabel{deftimings}{{2.1.2}{7}{Tempo et Timing}{subsection.2.1.2}{}}
\citation{Robertson2012a}
\citation{Robertson2012a}
\citation{Robertson2012a}
\citation{Robertson2012a}
\BKM@entry{id=7,dest={73656374696F6E2E322E32},srcline={8}}{4D5C33353174686F646F6C6F67696573}
\@writefile{lof}{\contentsline {figure}{\numberline {2.1}{\ignorespaces Diff\IeC {\'e}rences entre plusieurs variations temporelles ((\citeauthor  {Robertson2012a} \citeyear  {Robertson2012a}, p. 8) ).\relax }}{8}{figure.caption.2}}
\providecommand*\caption@xref[2]{\@setref\relax\@undefined{#1}}
\newlabel{figdeftimings}{{2.1}{8}{Différences entre plusieurs variations temporelles (\citetaposp {Robertson2012a}{p. 8}).\relax }{figure.caption.2}{}}
\BKM@entry{id=8,dest={73756273656374696F6E2E322E322E31},srcline={4}}{54696D6272652065742070657263657074696F6E}
\citation{Grey1977a,Grey1978,Wessel1979}
\citation{Grey1977a,Grey1978,Wessel1979}
\citation{Marozeau2004}
\citation{Marozeau2004}
\citation{Bernays2013c,Guillemain2010}
\citation{Bernays2013c,Guillemain2010}
\@writefile{toc}{\contentsline {section}{\numberline {2.2}M\IeC {\'e}thodologies}{9}{section.2.2}}
\@writefile{toc}{\contentsline {subsection}{\numberline {2.2.1}Timbre et perception}{9}{subsection.2.2.1}}
\newlabel{TimbreetPerception}{{2.2.1}{9}{Timbre et perception}{subsection.2.2.1}{}}
\citation{Grey1977a}
\citation{Grey1977a}
\citation{Grey1977a}
\citation{Grey1977a}
\citation{Marozeau2004}
\citation{Marozeau2004}
\citation{Parncutt2002}
\citation{Parncutt2002}
\newlabel{mdsgrey}{{\caption@xref {mdsgrey}{ on input line 9}}{10}{Timbre et perception}{figure.caption.3}{}}
\@writefile{lof}{\contentsline {figure}{\numberline {2.2}{\ignorespaces Exemple de repr\IeC {\'e}sentation de 35 matrices de similarit\IeC {\'e}s g\IeC {\'e}n\IeC {\'e}r\IeC {\'e} par Multidimensional Data Scaling (\citeauthor  {Grey1977a} \citeyear  {Grey1977a}, p. 1272) . \IeC {\`A} cette \IeC {\'e}tape le chercheur ne sait pas encore \IeC {\`a} quels param\IeC {\`e}tres physiques correspondent les dimensions I, II et III.\relax }}{10}{figure.caption.3}}
\citation{Parncutt2002}
\citation{Parncutt2002}
\citation{Bellemare2005}
\citation{Bellemare2005}
\citation{Bellemare2005a}
\citation{Bellemare2005a}
\citation{Bellemare2005a}
\citation{Bellemare2005a}
\citation{Parncutt2002}
\citation{Parncutt2002}
\citation{Bellemare2005}
\citation{Bellemare2005}
\citation{Repp1997}
\citation{Repp1997}
\citation{Parncutt2002}
\citation{Parncutt2002}
\citation{Goebl2005}
\citation{Goebl2005}
\citation{Bernays2011a}
\citation{Bernays2011a}
\citation{Bernays2011a}
\citation{Bernays2011a}
\@writefile{lof}{\contentsline {figure}{\numberline {2.3}{\ignorespaces Atlas s\IeC {\'e}mantique du timbre au piano: arrangement qualitatif des descripteurs verbaux par \IeC {\'e}valuation du degr\IeC {\'e} de synonymie (\citeauthor  {Bellemare2005a} \citeyear  {Bellemare2005a})\relax }}{12}{figure.caption.4}}
\newlabel{DescMad}{{2.3}{12}{Atlas sémantique du timbre au piano: arrangement qualitatif des descripteurs verbaux par évaluation du degré de synonymie \citetapos {Bellemare2005a}\relax }{figure.caption.4}{}}
\@writefile{lof}{\contentsline {figure}{\numberline {2.4}{\ignorespaces R\IeC {\'e}partition des quatorze descripteurs utilis\IeC {\'e}s dans l'\IeC {\'e}tude de Michel Bernays (\citeauthor  {Bernays2011a} \citeyear  {Bernays2011a}, p. 13)  sur les deux premi\IeC {\`e}res dimensions (\IeC {\`a} gauche) puis sur en fonction des dimensions trois et quatre.\relax }}{12}{figure.caption.5}}
\newlabel{4dMike}{{2.4}{12}{Répartition des quatorze descripteurs utilisés dans l'étude de Michel Bernays \citetaposp {Bernays2011a}{p. 13} sur les deux premières dimensions (à gauche) puis sur en fonction des dimensions trois et quatre.\relax }{figure.caption.5}{}}
\citation{Bernays2011a}
\citation{Bernays2011a}
\citation{Bellemare2005}
\citation{Bellemare2005}
\citation{Bernays2011a}
\citation{Bernays2011a}
\citation{Bernays2011a}
\citation{Bernays2011a}
\citation{Bernays2013c}
\citation{Bernays2013c}
\citation{Bernays2013c}
\citation{Bernays2013c}
\@writefile{lof}{\contentsline {figure}{\numberline {2.5}{\ignorespaces Dendrogramme du clustering hi\IeC {\'e}rarchique des dissimilarit\IeC {\'e}s s\IeC {\'e}mantiques entre les quatorze descripteurs du timbre au piano(\citeauthor  {Bernays2011a} \citeyear  {Bernays2011a}, p .303)  sur les deux premi\IeC {\`e}res dimensions obtenues par analyse MDS\relax }}{14}{figure.caption.6}}
\newlabel{ClusterMike}{{2.5}{14}{Dendrogramme du clustering hiérarchique des dissimilarités sémantiques entre les quatorze descripteurs du timbre au piano\citetaposp {Bernays2011a}{p .303} sur les deux premières dimensions obtenues par analyse MDS\relax }{figure.caption.6}{}}
\BKM@entry{id=9,dest={73756273656374696F6E2E322E322E32},srcline={1}}{54696D6272652065742061636F75737469717565}
\@writefile{lof}{\contentsline {figure}{\numberline {2.6}{\ignorespaces R\IeC {\'e}partition des quatorze descripteurs utilis\IeC {\'e}s dans l'\IeC {\'e}tude de Michel Bernays (\citeauthor  {Bernays2013c} \citeyear  {Bernays2013c}, p. 202)  sur les deux premi\IeC {\`e}res dimensions obtenues par analyse MDS. Les Adjectifs proches selon l'analyse en cluster (voir Figure \ref  {ClusterMike}) sont encadr\IeC {\'e}s en rouge.\relax }}{15}{figure.caption.7}}
\newlabel{DescMike}{{2.6}{15}{Répartition des quatorze descripteurs utilisés dans l'étude de Michel Bernays \citetaposp {Bernays2013c}{p. 202} sur les deux premières dimensions obtenues par analyse MDS. Les Adjectifs proches selon l'analyse en cluster (voir Figure \ref {ClusterMike}) sont encadrés en rouge.\relax }{figure.caption.7}{}}
\@writefile{toc}{\contentsline {subsection}{\numberline {2.2.2}Timbre et acoustique}{15}{subsection.2.2.2}}
\newlabel{methodoacoustique}{{2.2.2}{15}{Timbre et acoustique}{subsection.2.2.2}{}}
\citation{Hajda1997}
\citation{Hajda1997}
\@writefile{lof}{\contentsline {figure}{\numberline {2.7}{\ignorespaces R\IeC {\'e}sum\IeC {\'e} d'une approche typique pour l'\IeC {\'e}tude des corr\IeC {\'e}lats acoustiques du timbre.\relax }}{17}{figure.caption.8}}
\newlabel{experienceacoustique}{{2.7}{17}{Résumé d'une approche typique pour l'étude des corrélats acoustiques du timbre.\relax }{figure.caption.8}{}}
\citation{Saldanha1964}
\citation{Saldanha1964}
\citation{clark1963preliminary}
\citation{clark1963preliminary}
\citation{Wedin1972}
\citation{Wedin1972}
\citation{Elliott1975}
\citation{Elliott1975}
\citation{Berger1964}
\citation{Berger1964}
\citation{campbell1978contribution}
\citation{campbell1978contribution}
\citation{Kendall1986}
\citation{Kendall1986}
\@writefile{toc}{\contentsline {subsubsection}{\numberline {2.2.2.1}Influence diff\IeC {\'e}rentes parties de l'enveloppe}{18}{subsubsection.2.2.2.1}}
\@writefile{toc}{\contentsline {subsubsection}{\numberline {2.2.2.2}Influence du contexte m\IeC {\'e}lodique}{18}{subsubsection.2.2.2.2}}
\citation{beauchamp1982synthesis}
\citation{beauchamp1982synthesis}
\citation{Hajda1997}
\citation{Hajda1997}
\citation{Strong1967}
\citation{Strong1967}
\citation{winsberg1989quasi}
\citation{winsberg1989quasi}
\citation{plomp1976aspects,plomp1970timbre}
\citation{plomp1976aspects,plomp1970timbre}
\citation{Wedin1972}
\citation{Wedin1972}
\citation{wessel1973psychoacoustics}
\citation{wessel1973psychoacoustics}
\citation{Grey1977a}
\citation{Grey1977a}
\@writefile{toc}{\contentsline {subsubsection}{\numberline {2.2.2.3}Influence des caract\IeC {\'e}ristiques spectrales et temporelles }{20}{subsubsection.2.2.2.3}}
\citation{Krumhansl1989}
\citation{Krumhansl1989}
\citation{Kendall1991}
\citation{Kendall1991}
\citation{Barthet2008}
\citation{Barthet2008}
\BKM@entry{id=10,dest={73756273656374696F6E2E322E322E33},srcline={2}}{54656D706F2065742074696D696E67}
\@writefile{toc}{\contentsline {subsection}{\numberline {2.2.3}Tempo et timing}{22}{subsection.2.2.3}}
\newlabel{methodotimings}{{2.2.3}{22}{Tempo et timing}{subsection.2.2.3}{}}
\citation{Seashore1925}
\citation{Seashore1925}
\citation{Mcpherson2013}
\citation{Mcpherson2013}
\citation{Clynes1995}
\citation{Clynes1995}
\citation{Repp1989}
\citation{Repp1989}
\citation{Repp1989}
\citation{Repp1989}
\citation{Robertson2012a}
\citation{Robertson2012a}
\citation{Robertson2012a}
\citation{Robertson2012a}
\citation{Honing2001}
\citation{Honing2001}
\@writefile{lof}{\contentsline {figure}{\numberline {2.8}{\ignorespaces Graphe de tempo pour \IeC {\guillemotleft }Taxman\IeC {\guillemotright } du groupe The Beatles (issu de (\citeauthor  {Robertson2012a} \citeyear  {Robertson2012a}, p. 1) ).\relax }}{24}{figure.caption.9}}
\newlabel{Taxman}{{2.8}{24}{Graphe de tempo pour «Taxman» du groupe The Beatles (issu de \citetaposp {Robertson2012a}{p. 1}).\relax }{figure.caption.9}{}}
\citation{Honing2001}
\citation{Honing2001}
\citation{Honing2001}
\citation{Honing2001}
\citation{Desain1993}
\citation{Desain1993}
\citation{Desain1991a}
\citation{Desain1991a}
\@writefile{lof}{\contentsline {figure}{\numberline {2.9}{\ignorespaces Trois mani\IeC {\`e}res de repr\IeC {\'e}senter les d\IeC {\'e}viations temporelles (issues de \citeauthor  {Honing2001} (\citeyear  {Honing2001} p. 52)). La premi\IeC {\`e}re ligne repr\IeC {\'e}sente des fonctions de tempo f, g et h, la seconde leur repr\IeC {\'e}sentation en tant que fonction de d\IeC {\'e}calage temporel et la troisi\IeC {\`e}me en tant que carte temporelle.\relax }}{25}{figure.caption.10}}
\newlabel{time}{{2.9}{25}{Trois manières de représenter les déviations temporelles (issues de \citetp {Honing2001}{52)}. La première ligne représente des fonctions de tempo f, g et h, la seconde leur représentation en tant que fonction de décalage temporel et la troisième en tant que carte temporelle.\relax }{figure.caption.10}{}}
\citation{Repp1998a}
\citation{Repp1998a}
\citation{Robertson2012a}
\citation{Robertson2012a}
\citation{Goebl2003}
\citation{Goebl2003}
\citation{Goebl2003}
\citation{Goebl2003}
\citation{Goebl2003}
\citation{Goebl2003}
\citation{Repp1999a}
\citation{Repp1999a}
\citation{Bernays2013c}
\citation{Bernays2013c}
\citation{Bernays2011a}
\citation{Bernays2011a}
\@writefile{lof}{\contentsline {figure}{\numberline {2.10}{\ignorespaces Repr\IeC {\'e}sentation en \textit  {ver} des mesures 1 \IeC {\`a} 21 de l'\IeC {\'e}tude Op. 10, No. 3 de Chopin (issue de (\citeauthor  {Goebl2003} \citeyear  {Goebl2003}, p. 75) )\relax }}{27}{figure.caption.11}}
\newlabel{worm}{{2.10}{27}{Représentation en \textit {ver} des mesures 1 à 21 de l'étude Op. 10, No. 3 de Chopin (issue de \citetaposp {Goebl2003}{p. 75})\relax }{figure.caption.11}{}}
\citation{Bernays2011a}
\citation{Bernays2011a}
\citation{Bernays2011a}
\citation{Bernays2011a}
\BKM@entry{id=11,dest={73656374696F6E2E322E33},srcline={12}}{525C33353173756C746174732065742064697363757373696F6E}
\@writefile{lof}{\contentsline {figure}{\numberline {2.11}{\ignorespaces Repr\IeC {\'e}sentation des profils gestuels pour les cinq nuances de timbre \IeC {\'e}tudi\IeC {\'e}es dans les travaux de (\citeauthor  {Bernays2011a} \citeyear  {Bernays2011a}, p. 213) \relax }}{28}{figure.caption.12}}
\newlabel{kiviat}{{2.11}{28}{Représentation des profils gestuels pour les cinq nuances de timbre étudiées dans les travaux de \citetaposp {Bernays2011a}{p. 213}\relax }{figure.caption.12}{}}
\@writefile{toc}{\contentsline {section}{\numberline {2.3}R\IeC {\'e}sultats et discussion}{29}{section.2.3}}
\newlabel{discut}{{2.3}{29}{Résultats et discussion}{section.2.3}{}}
\BKM@entry{id=12,dest={636861707465722E33},srcline={16}}{4D5C33353174686F646F6C6F676965206574206F7574696C73}
\BKM@entry{id=13,dest={73656374696F6E2E332E31},srcline={18}}{4D5C33353174686F646F6C6F676965}
\citation{Bernays2013c}
\citation{Bernays2013c}
\citation{Gabrielsson1985}
\citation{Gabrielsson1985}
\@writefile{toc}{\contentsline {chapter}{\numberline {\MakeUppercase  {Chapitre} 3:}\MakeUppercase  {M\IeC {\'e}thodologie et outils}}{31}{chapter.3}}
\@writefile{lof}{\addvspace {10\p@ }}
\@writefile{lot}{\addvspace {10\p@ }}
\@writefile{lol}{\addvspace {10\p@ }}
\newlabel{methodooutils}{{3}{31}{Résultats et discussion}{chapter.3}{}}
\@writefile{toc}{\contentsline {section}{\numberline {3.1}M\IeC {\'e}thodologie}{31}{section.3.1}}
\newlabel{notremethodo}{{3.1}{31}{Méthodologie}{section.3.1}{}}
\BKM@entry{id=14,dest={73656374696F6E2E332E32},srcline={20}}{4170706C69636174696F6E206465206C61206D5C33353174686F646F6C6F676965206574206F7574696C73}
\BKM@entry{id=15,dest={73756273656374696F6E2E332E322E31},srcline={1}}{5374696D756C69}
\citation{Bernays2013c}
\citation{Bernays2013c}
\@writefile{toc}{\contentsline {section}{\numberline {3.2}Application de la m\IeC {\'e}thodologie et outils}{33}{section.3.2}}
\@writefile{toc}{\contentsline {subsection}{\numberline {3.2.1}Stimuli}{33}{subsection.3.2.1}}
\citation{Bernays2013c}
\citation{Bernays2013c}
\citation{Bernays2013c}
\citation{Bernays2013c}
\@writefile{lof}{\contentsline {figure}{\numberline {3.1}{\ignorespaces Les quatre pi\IeC {\`e}ces compos\IeC {\'e}es pour \citeauthor  {Bernays2013c} \citeyearpar  {Bernays2013c} servant de stimuli dans la pr\IeC {\'e}sente \IeC {\'e}tude.\relax }}{35}{figure.caption.13}}
\newlabel{pieces}{{3.1}{35}{Les quatre pièces composées pour \citet {Bernays2013c} servant de stimuli dans la présente étude.\relax }{figure.caption.13}{}}
\BKM@entry{id=16,dest={73756273656374696F6E2E332E322E32},srcline={1}}{4D6972546F6F6C626F782C204D6174696D6272652C2054696D62726520546F6F6C626F78206574204D61746C6162}
\citation{Lartillot2012}
\citation{Lartillot2012}
\citation{Lartillot2013}
\citation{Lartillot2013}
\@writefile{toc}{\contentsline {subsection}{\numberline {3.2.2}MirToolbox, Matimbre, Timbre Toolbox et Matlab}{36}{subsection.3.2.2}}
\newlabel{mirtoolbox}{{3.2.2}{36}{MirToolbox, Matimbre, Timbre Toolbox et Matlab}{subsection.3.2.2}{}}
\citation{Barthet2008}
\citation{Barthet2008}
\citation{Barthet2008a}
\citation{Barthet2008a}
\citation{Peeters2011}
\citation{Peeters2011}
\BKM@entry{id=17,dest={73756273656374696F6E2E332E322E33},srcline={1}}{416E616C7973652064752074656D706F}
\citation{Honing2001}
\citation{Honing2001}
\@writefile{toc}{\contentsline {subsection}{\numberline {3.2.3}Analyse du tempo}{37}{subsection.3.2.3}}
\newlabel{analysetempo}{{3.2.3}{37}{Analyse du tempo}{subsection.3.2.3}{}}
\@writefile{lof}{\contentsline {figure}{\numberline {3.2}{\ignorespaces Ableton live marquage Warp sous Ableton Live$^{\unhbox \voidb@x \hbox {\relax \fontsize  {8}{9.5}\selectfont  {\copyright  }}}$.\relax }}{38}{figure.caption.14}}
\newlabel{live}{{3.2}{38}{Ableton live marquage Warp sous Ableton Live\copyR .\relax }{figure.caption.14}{}}
\BKM@entry{id=18,dest={73756273656374696F6E2E332E322E34},srcline={1}}{54657374732064652070657263657074696F6E}
\citation{Bernays2013c}
\citation{Bernays2013c}
\citation{Bernays2013c}
\citation{Bernays2013c}
\@writefile{lof}{\contentsline {figure}{\numberline {3.3}{\ignorespaces Interface Matlab d'affichage des tempi. Comparaisons des mesures 1 \IeC {\`a} 8.7 de la \textit  {Nocturne opus 9 no. 2} de Chopin jou\IeC {\'e}e par Raoul Koczalski et par Arthur Rubinstein\relax }}{39}{figure.caption.15}}
\newlabel{matlabtempi}{{3.3}{39}{Interface Matlab d'affichage des tempi. Comparaisons des mesures 1 à 8.7 de la \textit {Nocturne opus 9 no. 2} de Chopin jouée par Raoul Koczalski et par Arthur Rubinstein\relax }{figure.caption.15}{}}
\@writefile{toc}{\contentsline {subsection}{\numberline {3.2.4}Tests de perception}{39}{subsection.3.2.4}}
\newlabel{testpercep}{{3.2.4}{39}{Tests de perception}{subsection.3.2.4}{}}
\@writefile{lof}{\contentsline {figure}{\numberline {3.4}{\ignorespaces Interface du test de perception cr\IeC {\'e}\IeC {\'e}e pour \citeauthor  {Bernays2013c} \citeyearpar  {Bernays2013c}.\relax }}{40}{figure.caption.16}}
\newlabel{figtestperception}{{3.4}{40}{Interface du test de perception créée pour \citet {Bernays2013c}.\relax }{figure.caption.16}{}}
\BKM@entry{id=19,dest={636861707465722E34},srcline={26}}{5C333131766F6C7574696F6E206465206C612066616374757265207069616E6973746971756520657420636F6E735C3335317175656E63657320737572206C652074696D627265}
\BKM@entry{id=20,dest={73656374696F6E2E342E31},srcline={2}}{496E74726F64756374696F6E}
\BKM@entry{id=21,dest={73656374696F6E2E342E32},srcline={4}}{5C333131766F6C7574696F6E206465206C61206D616E7566616374757265206574205C333531766F6C7574696F6E2064752074696D627265}
\citation{Dolge1911,PianoforteGrove}
\citation{Dolge1911,PianoforteGrove}
\BKM@entry{id=22,dest={73756273656374696F6E2E342E322E31},srcline={6}}{5C333131766F6C7574696F6E206465206C61206D616E7566616374757265206475207069616E6F2D666F727465}
\citation{Dolge1911}
\citation{Dolge1911}
\citation{PianoforteGrove}
\citation{PianoforteGrove}
\citation{Dolge1911}
\citation{Dolge1911}
\citation{Dolge1911}
\citation{Dolge1911}
\citation{Dolge1911}
\citation{Dolge1911}
\citation{Dolge1911}
\citation{Dolge1911}
\@writefile{toc}{\contentsline {chapter}{\numberline {\MakeUppercase  {Chapitre} 4:}\MakeUppercase  {\IeC {\'E}volution de la facture pianistique et cons\IeC {\'e}quences sur le timbre}}{41}{chapter.4}}
\@writefile{lof}{\addvspace {10\p@ }}
\@writefile{lot}{\addvspace {10\p@ }}
\@writefile{lol}{\addvspace {10\p@ }}
\newlabel{perle}{{4}{41}{Tests de perception}{chapter.4}{}}
\@writefile{toc}{\contentsline {section}{\numberline {4.1}Introduction}{41}{section.4.1}}
\@writefile{toc}{\contentsline {section}{\numberline {4.2}\IeC {\'E}volution de la manufacture et \IeC {\'e}volution du timbre}{41}{section.4.2}}
\newlabel{evolman}{{4.2}{41}{Évolution de la manufacture et évolution du timbre}{section.4.2}{}}
\@writefile{toc}{\contentsline {subsection}{\numberline {4.2.1}\IeC {\'E}volution de la manufacture du piano-forte}{42}{subsection.4.2.1}}
\BKM@entry{id=23,dest={73756273656374696F6E2E342E322E32},srcline={12}}{5C333131766F6C7574696F6E2064752074696D627265}
\citation{Guigue1994,Kinderman2011,Skowroneck2002}
\citation{Guigue1994,Kinderman2011,Skowroneck2002}
\citation{Skowroneck1803}
\citation{Skowroneck1803}
\@writefile{toc}{\contentsline {subsection}{\numberline {4.2.2}\IeC {\'E}volution du timbre}{44}{subsection.4.2.2}}
\citation{Kreidy}
\citation{Kreidy}
\@writefile{lof}{\contentsline {figure}{\numberline {4.1}{\ignorespaces Klavierst\IeC {\"u}cke D 946 No 1 de Schubert mesures 15 \IeC {\`a} 33\relax }}{46}{figure.caption.17}}
\newlabel{Klavierstuke}{{4.1}{46}{Klavierstücke D 946 No 1 de Schubert mesures 15 à 33\relax }{figure.caption.17}{}}
\BKM@entry{id=24,dest={73756273656374696F6E2E342E322E33},srcline={33}}{456E2071756F69206C275C333531766F6C7574696F6E2064657320736F6E6F7269745C333531732070657574206D6F646966696572206C5C3232306578705C3335317269656E6365206D75736963616C65}
\@writefile{toc}{\contentsline {subsection}{\numberline {4.2.3}En quoi l'\IeC {\'e}volution des sonorit\IeC {\'e}s peut modifier l\IeC {\textquoteright }exp\IeC {\'e}rience musicale}{47}{subsection.4.2.3}}
\BKM@entry{id=25,dest={73656374696F6E2E342E33},srcline={37}}{506F757271756F69206C6120746563686E69717565207069616E69737469717565207365726169742D656C6C6520696E646973736F636961626C65206465206C61206D616E756661637475726520646520736F6E205C333531706F717565}
\citation{Cadoz1999}
\citation{Cadoz1999}
\BKM@entry{id=26,dest={73756273656374696F6E2E342E332E31},srcline={39}}{4475206765737465207069616E6973746971756520636F6D6D6520676573746520657863697461746575722E2E2E}
\citation{Cadoz2000}
\citation{Cadoz2000}
\citation{Cadoz1999}
\citation{Cadoz1999}
\@writefile{toc}{\contentsline {section}{\numberline {4.3}Pourquoi la technique pianistique serait-elle indissociable de la manufacture de son \IeC {\'e}poque}{48}{section.4.3}}
\@writefile{toc}{\contentsline {subsection}{\numberline {4.3.1}Du geste pianistique comme geste excitateur...}{48}{subsection.4.3.1}}
\citation{Cadoz2000}
\citation{Cadoz2000}
\citation{Hart1934}
\citation{Hart1934}
\citation{Goebl2004}
\citation{Goebl2004}
\citation{Hart1934}
\citation{Hart1934}
\citation{sandor1981piano}
\citation{sandor1981piano}
\BKM@entry{id=27,dest={73756273656374696F6E2E342E332E32},srcline={49}}{2E2E2E4175206765737465207069616E6973746971756520656E2074616E7420717565206765737465206D6F64696669636174657572}
\citation{Marozeau2004}
\citation{Marozeau2004}
\citation{Bellemare2005}
\citation{Bellemare2005}
\citation{Bernays2011a}
\citation{Bernays2011a}
\citation{Bernays2013c}
\citation{Bernays2013c}
\citation{Cadoz2000}
\citation{Cadoz2000}
\@writefile{toc}{\contentsline {subsection}{\numberline {4.3.2}...Au geste pianistique en tant que geste modificateur}{50}{subsection.4.3.2}}
\BKM@entry{id=28,dest={73756273656374696F6E2E342E332E33},srcline={57}}{5C333131766F6C7574696F6E206465206C5C3232306578705C3335317269656E6365206D75736963616C65206465206C27696E74657270725C3335307465203A206C6520636173206475206A6575207065726C5C333531}
\citation{Kreidy}
\citation{Kreidy}
\citation{Closson1944}
\citation{Closson1944}
\citation{Schmitt2008}
\citation{Schmitt2008}
\citation{Cadoz2000}
\citation{Cadoz2000}
\@writefile{toc}{\contentsline {subsection}{\numberline {4.3.3}\IeC {\'E}volution de l\IeC {\textquoteright }exp\IeC {\'e}rience musicale de l'interpr\IeC {\`e}te : le cas du jeu perl\IeC {\'e}}{52}{subsection.4.3.3}}
\BKM@entry{id=29,dest={73656374696F6E2E342E34},srcline={67}}{5472617661696C2074685C3335316F726971756520737572206C276170706F7274206465206C2761636F75737469717565}
\BKM@entry{id=30,dest={73756273656374696F6E2E342E342E31},srcline={70}}{4361726163745C3335317269737469717565732074656D706F72656C6C6573}
\citation{Weinreich1980}
\citation{Weinreich1980}
\citation{Weinreich1980}
\citation{Weinreich1980}
\citation{Weinreich1980}
\citation{Weinreich1980}
\@writefile{toc}{\contentsline {section}{\numberline {4.4}Travail th\IeC {\'e}orique sur l'apport de l'acoustique}{54}{section.4.4}}
\newlabel{acoustheorique}{{4.4}{54}{Travail théorique sur l'apport de l'acoustique}{section.4.4}{}}
\@writefile{toc}{\contentsline {subsection}{\numberline {4.4.1}Caract\IeC {\'e}ristiques temporelles}{54}{subsection.4.4.1}}
\newlabel{caractemporelles}{{4.4.1}{54}{Caractéristiques temporelles}{subsection.4.4.1}{}}
\citation{Bernays2008}
\citation{Bernays2008}
\@writefile{lof}{\contentsline {figure}{\numberline {4.2}{\ignorespaces Illustration de l'\IeC {\'e}volution du son d'une note de piano (issu de \citeauthor  {Weinreich1980} (\citeyear  {Weinreich1980} p. 42))\relax }}{55}{figure.caption.18}}
\newlabel{remanent}{{4.2}{55}{Illustration de l'évolution du son d'une note de piano (issu de \citetp {Weinreich1980}{42})\relax }{figure.caption.18}{}}
\BKM@entry{id=31,dest={73756273656374696F6E2E342E342E32},srcline={86}}{4361726163745C3335317269737469717565732074696D6272616C6573}
\citation{Hall2001a}
\citation{Hall2001a}
\@writefile{toc}{\contentsline {subsection}{\numberline {4.4.2}Caract\IeC {\'e}ristiques timbrales}{57}{subsection.4.4.2}}
\newlabel{articlehall}{{4.4.2}{57}{Caractéristiques timbrales}{subsection.4.4.2}{}}
\BKM@entry{id=32,dest={73756273656374696F6E2E342E342E33},srcline={92}}{506F696E74732064652066726170706520646573206D61727465617578}
\citation{Winter1988a}
\citation{Winter1988a}
\@writefile{toc}{\contentsline {subsection}{\numberline {4.4.3}Points de frappe des marteaux}{58}{subsection.4.4.3}}
\newlabel{pointsdefrappe}{{4.4.3}{58}{Points de frappe des marteaux}{subsection.4.4.3}{}}
\citation{Hall1987}
\citation{Hall1987}
\citation{Winter1988a}
\citation{Winter1988a}
\citation{Hall2001a}
\citation{Hall2001a}
\citation{Conklin1996,Jr1996,Jr1996a}
\citation{Conklin1996,Jr1996,Jr1996a}
\citation{Conklin1996}
\citation{Conklin1996}
\citation{Conklin1996}
\citation{Conklin1996}
\BKM@entry{id=33,dest={73656374696F6E2E342E35},srcline={120}}{5472617661696C207072617469717565206574206578705C33353172696D656E74616C}
\BKM@entry{id=34,dest={73756273656374696F6E2E342E352E31},srcline={122}}{456E72656769737472656D656E74206465207069616E6F73}
\@writefile{lof}{\contentsline {figure}{\numberline {4.3}{\ignorespaces Table des valeurs $d/L$ qui ont produit une gamme de si b\IeC {\'e}mol majeur \IeC {\`a} partir d'une corde de si b\IeC {\'e}mol install\IeC {\'e}e dans un piano droit de 1 metre 32 32cm (issu de \citeauthor  {Conklin1996} (\citeyear  {Conklin1996} p. 3294)).\relax }}{61}{figure.caption.19}}
\newlabel{tableDL}{{4.3}{61}{Table des valeurs $d/L$ qui ont produit une gamme de si bémol majeur à partir d'une corde de si bémol installée dans un piano droit de 1 metre 32 32cm (issu de \citetp {Conklin1996}{3294}).\relax }{figure.caption.19}{}}
\@writefile{toc}{\contentsline {section}{\numberline {4.5}Travail pratique et exp\IeC {\'e}rimental}{61}{section.4.5}}
\@writefile{toc}{\contentsline {subsection}{\numberline {4.5.1}Enregistrement de pianos}{61}{subsection.4.5.1}}
\@writefile{toc}{\contentsline {subsubsection}{\numberline {4.5.1.1}Enregistrements acoustiques}{61}{subsubsection.4.5.1.1}}
\citation{Dixon2012}
\citation{Dixon2012}
\@writefile{toc}{\contentsline {subsubsection}{\numberline {4.5.1.2}Pianoteq$^{\unhbox \voidb@x \hbox {\relax \fontsize  {8}{9.5}\selectfont  {\copyright  }}}$}{62}{subsubsection.4.5.1.2}}
\BKM@entry{id=35,dest={73756273656374696F6E2E342E352E32},srcline={143}}{5365676D656E746174696F6E}
\BKM@entry{id=36,dest={73756273656374696F6E2E342E352E33},srcline={145}}{4D6573757265732064652074696D627265}
\@writefile{toc}{\contentsline {subsection}{\numberline {4.5.2}Segmentation}{63}{subsection.4.5.2}}
\newlabel{segmentation}{{4.5.2}{63}{Segmentation}{subsection.4.5.2}{}}
\@writefile{toc}{\contentsline {subsection}{\numberline {4.5.3}Mesures de timbre}{63}{subsection.4.5.3}}
\@writefile{toc}{\contentsline {subsubsection}{\numberline {4.5.3.1}Spectres}{63}{subsubsection.4.5.3.1}}
\citation{Dixon2012}
\citation{Dixon2012}
\@writefile{toc}{\contentsline {subsubsection}{\numberline {4.5.3.2}Inharmonicit\IeC {\'e}}{64}{subsubsection.4.5.3.2}}
\BKM@entry{id=37,dest={73756273656374696F6E2E342E352E34},srcline={161}}{4D6573757265732074656D706F72656C6C6573}
\@writefile{toc}{\contentsline {subsubsection}{\numberline {4.5.3.3}Points de frappe}{65}{subsubsection.4.5.3.3}}
\@writefile{toc}{\contentsline {subsubsection}{\numberline {4.5.3.4}Brillance}{65}{subsubsection.4.5.3.4}}
\@writefile{toc}{\contentsline {subsection}{\numberline {4.5.4}Mesures temporelles}{65}{subsection.4.5.4}}
\@writefile{toc}{\contentsline {subsubsection}{\numberline {4.5.4.1}Attaque}{65}{subsubsection.4.5.4.1}}
\@writefile{toc}{\contentsline {subsubsection}{\numberline {4.5.4.2}Onsets}{65}{subsubsection.4.5.4.2}}
\BKM@entry{id=38,dest={73756273656374696F6E2E342E352E35},srcline={171}}{525C33353173756C746174732065742064697363757373696F6E}
\citation{Winter1988a}
\citation{Winter1988a}
\citation{Traube2001}
\citation{Traube2001}
\citation{Winter1988a}
\citation{Winter1988a}
\@writefile{toc}{\contentsline {subsubsection}{\numberline {4.5.4.3}Release}{66}{subsubsection.4.5.4.3}}
\@writefile{toc}{\contentsline {subsection}{\numberline {4.5.5}R\IeC {\'e}sultats et discussion}{66}{subsection.4.5.5}}
\BKM@entry{id=39,dest={73656374696F6E2E342E36},srcline={180}}{436F6E636C7573696F6E20657420706572737065637469766573}
\@writefile{toc}{\contentsline {section}{\numberline {4.6}Conclusion et perspectives}{68}{section.4.6}}
\BKM@entry{id=40,dest={636861707465722E35},srcline={1}}{436F6E636C7573696F6E}
\@writefile{toc}{\contentsline {chapter}{\numberline {\MakeUppercase  {Chapitre} 5:}\MakeUppercase  {Conclusion}}{70}{chapter.5}}
\@writefile{lof}{\addvspace {10\p@ }}
\@writefile{lot}{\addvspace {10\p@ }}
\@writefile{lol}{\addvspace {10\p@ }}
\bibstyle{res/udem_template/mbBiblio}
\bibdata{res/library}
\BKM@entry{id=41,dest={73656374696F6E2A2E3230},srcline={1}}{4269626C696F67726170686965}
\bibcite{Barthet2008}{{1}{2008{}}{{Barthet}}{{}}}
\bibcite{Barthet2008a}{{2}{2008{}}{{Barthet}}{{}}}
\bibcite{beauchamp1982synthesis}{{3}{1982}{{Beauchamp}}{{}}}
\bibcite{Bellemare2005}{{4}{2005}{{Bellemare and Traube}}{{}}}
\bibcite{Bellemare2005a}{{5}{2006}{{Bellemare and Traube}}{{}}}
\bibcite{Berger1964}{{6}{1964}{{Berger}}{{}}}
\bibcite{Bernays2013c}{{7}{2013}{{Bernays}}{{}}}
\bibcite{Bernays2008}{{8}{2008}{{Bernays and Traube}}{{}}}
\bibcite{Bernays2011a}{{9}{2011}{{Bernays and Traube}}{{}}}
\bibcite{Cadoz1999}{{10}{1999}{{Cadoz}}{{}}}
\@writefile{toc}{\vspace  \bigskipamount }
\@writefile{toc}{\contentsline {chapter}{\MakeUppercase  {Bibliographie}}{71}{section*.20}}
\bibcite{Cadoz2000}{{11}{2000}{{Cadoz and Wanderley}}{{}}}
\bibcite{campbell1978contribution}{{12}{1978}{{Campbell and Heller}}{{}}}
\bibcite{clark1963preliminary}{{13}{1963}{{{Clark Jr.} et~al.}}{{{Clark Jr.}, Luce, Abrams, Schlossberg, and Rome}}}
\bibcite{Closson1944}{{14}{1944}{{Closson}}{{}}}
\bibcite{Clynes1995}{{15}{1995}{{Clynes}}{{}}}
\bibcite{Conklin1996}{{16}{1996}{{Conklin}}{{}}}
\bibcite{Jr1996}{{17}{1996{}}{{Conklin Jr}}{{}}}
\bibcite{Jr1996a}{{18}{1996{}}{{Conklin Jr}}{{}}}
\bibcite{Cook2013}{{19}{2013}{{Cook and Pettengill}}{{}}}
\bibcite{Desain1993}{{20}{1993}{{Desain and Honing}}{{}}}
\bibcite{Desain1991a}{{21}{1991}{{Desain and Honing}}{{}}}
\bibcite{Dixon2012}{{22}{2012}{{Dixon et~al.}}{{Dixon, Mauch, and Tidhar}}}
\bibcite{Dolge1911}{{23}{1911}{{Dolge}}{{}}}
\bibcite{Elliott1975}{{24}{1975}{{Elliott}}{{}}}
\bibcite{Fletcher1934}{{25}{1934}{{Fletcher}}{{}}}
\bibcite{Gabrielsson1985}{{26}{1985}{{Gabrielsson}}{{}}}
\bibcite{Gabrielsson2003}{{27}{2003}{{Gabrielsson}}{{}}}
\bibcite{Goebl2004}{{28}{2004}{{Goebl et~al.}}{{Goebl, Bresin, and Galembo}}}
\bibcite{Goebl2005}{{29}{2005}{{Goebl et~al.}}{{Goebl, Bresin, and Galembo}}}
\bibcite{Gouyon2005}{{30}{2005}{{Gouyon and Dixon}}{{}}}
\bibcite{Grey1977a}{{31}{1977}{{Grey}}{{}}}
\bibcite{Grey1978}{{32}{1978}{{Grey and Gordon}}{{}}}
\bibcite{Guigue1994}{{33}{1994}{{Guigue}}{{}}}
\bibcite{Guillemain2010}{{34}{2010}{{Guillemain}}{{}}}
\bibcite{Hajda1997}{{35}{1997}{{Hajda et~al.}}{{Hajda, Kendall, Carterette, and Harshberger}}}
\bibcite{Hall1987}{{36}{1987}{{Hall and Clark}}{{}}}
\bibcite{Hall2001a}{{37}{2001}{{Hall}}{{}}}
\bibcite{Hart1934}{{38}{1934}{{Hart et~al.}}{{Hart, Fuller, and Lusby}}}
\bibcite{Helmholtz}{{39}{1954}{{Helmholtz}}{{}}}
\bibcite{Honing2001}{{40}{2001}{{Honing}}{{}}}
\bibcite{Kendall1986}{{41}{1986}{{Kendall}}{{}}}
\bibcite{Kendall1991}{{42}{1991}{{Kendall and Carterette}}{{}}}
\bibcite{Kerlinger1973}{{43}{1973}{{Kerlinger}}{{}}}
\bibcite{Kinderman2011}{{44}{2010}{{Kinderman}}{{}}}
\bibcite{Kreidy}{{45}{2012}{{Kreidy}}{{}}}
\bibcite{Krumhansl1989}{{46}{1989}{{Krumhansl}}{{}}}
\bibcite{Goebl2003}{{47}{2003}{{Langner and Goebl}}{{}}}
\bibcite{Lartillot2012}{{48}{2012}{{Lartillot}}{{}}}
\bibcite{Lartillot2013}{{49}{2013}{{Lartillot}}{{}}}
\bibcite{Marozeau2004}{{50}{2004}{{Marozeau}}{{}}}
\bibcite{Mcpherson2013}{{51}{2013}{{Mcpherson and Kim}}{{}}}
\bibcite{Parncutt2002}{{52}{2002}{{Parncutt and Troup}}{{}}}
\bibcite{Peeters2011}{{53}{2011}{{Peeters et~al.}}{{Peeters, Giordano, Susini, Misdariis, and McAdams}}}
\bibcite{plomp1970timbre}{{54}{1970}{{Plomp}}{{}}}
\bibcite{plomp1976aspects}{{55}{1976}{{Plomp}}{{}}}
\bibcite{Repp1998a}{{56}{1998}{{Repp}}{{}}}
\bibcite{Repp1989}{{57}{1989}{{Repp}}{{}}}
\bibcite{Repp1997}{{58}{1997}{{Repp}}{{}}}
\bibcite{Repp1999a}{{59}{1999}{{Repp}}{{}}}
\bibcite{Robertson2012a}{{60}{2012}{{Robertson}}{{}}}
\bibcite{PianoforteGrove}{{61}{2014}{{Robinson}}{{}}}
\bibcite{Saldanha1964}{{62}{1964}{{Saldanha and Corso}}{{}}}
\bibcite{sandor1981piano}{{63}{1981}{{S\'{a}ndor}}{{}}}
\bibcite{Schmitt2008}{{64}{2008}{{Schmitt}}{{}}}
\bibcite{Seashore1925}{{65}{1925}{{Seashore and Metfessel}}{{}}}
\bibcite{Skowroneck2002}{{66}{2002}{{Skowroneck}}{{}}}
\bibcite{Skowroneck1803}{{67}{2010}{{Skowroneck}}{{}}}
\bibcite{Strong1967}{{68}{1967}{{Strong and Clark}}{{}}}
\bibcite{Traube2001}{{69}{2001}{{Traube and Smith}}{{}}}
\bibcite{Wedin1972}{{70}{1972}{{Wedin and Goude}}{{}}}
\bibcite{Weinreich1980}{{71}{1980}{{Weinreich}}{{}}}
\bibcite{wessel1973psychoacoustics}{{72}{1973}{{Wessel}}{{}}}
\bibcite{Wessel1979}{{73}{1979}{{Wessel}}{{}}}
\bibcite{winsberg1989quasi}{{74}{1989}{{Winsberg and Carroll}}{{}}}
\bibcite{Winter1988a}{{75}{1988}{{Winter}}{{}}}
\@input{appendices/figures.aux}
