59.608025
67.299133
59.348644
64.007355
63.624123
70.777046
73.741707
90.350342
55.665417
73.587898
75.842697
81.548370
63.529411
68.643471
70.520508
68.043304
70.417290
75.847046
71.878738
64.795769
74.764771
62.553192
73.037430
72.088272
74.917183
78.362854
57.287605
83.912094
70.141022
62.407131
65.628258
87.088173
72.487190
79.739624
82.094879
100.136238
61.946487
85.689301
61.347988
75.369583
76.613487
73.396019
71.130943
61.084564
72.405869
73.328896
73.749931
74.371803
67.702072
64.323219
62.644302
27.503618
27.503618
27.503618
27.503618
27.503618
49.239815
65.672234
62.671719
69.286964
62.830956
76.008270
75.483543
99.567261
54.236870
78.060005
80.966949
78.827423
84.366928
71.262169
71.262169
72.224045
71.984329
77.449944
83.726227
60.922821
73.751984
69.835571
76.323990
76.100090
73.850792
71.790977
75.942825
81.205498
64.522423
71.418930
65.469124
91.106293
69.874298
98.885437
68.869011
78.205353
69.241638
78.304871
71.892403
76.835960
77.837265
73.824005
80.880333
59.080963
74.121803
75.414696
77.583931
81.505722
59.698097
63.839027
68.469398
27.264578
27.264578
27.264578
27.264578
27.264578
65.550217
71.561867
73.227432
82.089783
68.785179
62.530041
70.752449
72.974983
65.456161
72.758270
72.123642
71.684975
71.684975
66.189713
70.854759
84.625961
62.429218
77.320946
64.988335
72.654381
61.698456
78.463127
61.236671
66.997520
67.381393
69.474350
69.655411
69.809776
70.839577
68.444603
70.748665
78.665718
61.040878
59.702168
69.589462
72.752266
67.377960
69.922310
70.280754
67.995293
50.374535
28.797178
36.307999
36.307999
62.702908
66.663307
65.219002
62.133095
72.263489
71.391953
68.173035
80.393768
56.260765
72.870483
75.940651
79.314171
60.468945
68.239845
75.580566
79.835861
65.608727
73.297417
73.297417
73.993286
68.666634
71.098450
73.391953
75.623764
73.865219
70.944046
76.447472
68.551003
78.110703
68.129150
72.820343
84.270203
63.679245
63.671585
72.768272
75.198227
77.901428
68.829178
73.061630
66.959900
53.414822
20.000000
20.000000
20.000000
20.000000
20.000000
20.000000
20.000000
20.000000
20.000000
20.000000
20.000000