54.311832
54.311832
61.818096
61.864346
60.845772
56.483757
61.483387
59.577152
61.481979
59.154930
61.269855
61.269855
61.896183
56.503448
60.854168
58.335907
57.781757
49.466267
52.831242
59.632202
60.556129
57.345963
60.500744
57.608150
64.403069
58.664421
58.664421
60.631058
56.897106
49.714413
52.189350
57.634502
57.863892
60.404064
60.643566
57.731327
55.914795
58.229351
55.295494
57.380783
58.005962
59.634888
55.341755
52.264603
56.828678
56.315845
60.215740
54.138107
52.097897
51.741333
52.485420
46.944027
41.463604
41.463604
41.463604
41.463604
41.463604
55.242390
53.268375
57.516540
61.764706
54.687500
61.721485
61.668259
57.311184
57.311184
61.091614
60.628281
55.665417
61.333767
60.661640
63.313553
42.887707
55.587067
58.556664
58.084911
62.473438
61.419186
60.386143
60.752171
61.553493
54.618641
59.169479
57.188553
54.722561
51.596046
60.317314
59.492760
57.659622
58.437687
61.484837
57.541752
52.895668
54.431004
59.063820
57.170021
59.668507
55.522915
51.998585
59.310066
54.299198
60.069469
54.536461
51.724136
51.973049
51.484608
48.463314
40.863602
40.863602
40.863602
40.863602
40.863602
52.766975
57.594357
54.055157
64.195251
57.103394
57.645802
60.667202
64.756126
57.855034
57.613171
63.179008
58.638420
53.877949
62.774311
62.407131
55.346386
53.006931
62.122883
58.293495
55.090569
60.898987
58.207577
49.377647
56.161652
55.663078
61.721485
68.967316
48.347313
53.496693
54.736145
47.971283
53.026051
48.275864
38.419098
45.572762
57.242992
53.096279
54.522976
48.023521
53.316677
40.806885
35.022701
43.727226
43.727226
52.754353
57.590599
61.948353
55.799240
57.501740
58.105320
60.095390
64.307587
57.953873
57.903145
62.258823
59.074368
52.318340
65.012283
61.494839
56.022526
51.609127
62.612400
58.222946
57.023403
61.231575
57.895542
49.795811
56.539669
54.303658
62.585743
58.659218
55.259697
52.946472
55.212421
48.084610
52.652527
42.534721
43.215523
45.561775
57.598118
52.665100
54.801899
48.372059
52.160542
36.011761
20.054113
20.000000
20.000000
20.000000
20.000000
20.000000
20.000000
