60.267857
62.863796
71.740372
76.058525
49.700409
66.858704
78.460442
60.382008
64.500404
74.022270
88.194122
61.282627
58.738651
94.264336
86.065575
59.506138
45.957447
61.542038
77.010391
67.907097
58.595566
75.522324
77.748070
75.159775
63.640957
70.820358
72.932632
70.934898
49.477364
47.868877
64.568085
53.255508
62.874252
61.070465
69.082756
59.687199
60.271976
42.503975
54.740673
73.412315
64.084862
68.350899
69.254326
56.072392
54.863258
60.805222
67.188057
53.040932
68.793388
49.254482
50.120026
40.014679
52.678471
52.678471
52.678471
52.678471
59.427288
64.417175
55.410130
59.991837
63.066071
76.757950
79.583733
58.970360
61.583576
83.048241
69.265205
68.850670
88.826225
88.826225
70.654205
59.929771
48.595928
54.370609
71.033554
80.828445
67.985611
79.098412
60.967743
73.412315
72.457420
69.701279
75.606483
77.244202
49.885937
55.329025
61.234409
56.566261
72.007835
75.328819
60.636616
77.320946
60.050381
43.163357
48.518410
55.781597
59.837177
78.897934
69.203606
53.228725
51.978798
56.138649
63.236385
55.094009
72.830368
42.006668
50.403744
39.219814
48.342453
48.342453
48.342453
48.342453
57.332294
63.566040
54.932735
74.332108
49.221497
60.656075
71.393883
51.068264
57.667160
65.956161
71.792061
50.556969
64.039886
61.632347
64.534660
62.828304
80.867973
61.740208
61.740208
75.260254
57.004978
63.845188
50.072384
50.072384
79.752769
53.050007
70.144745
44.378845
68.691589
72.558754
63.186550
67.239273
48.852539
49.334377
43.692207
69.706787
69.802414
42.940605
58.672226
53.464268
45.414757
42.543613
49.069061
49.069061
52.041538
65.362381
62.569462
56.742153
48.279385
60.847168
71.898270
52.240868
66.153305
79.359367
58.592972
55.729900
68.252167
49.227905
76.478409
57.404434
66.873909
53.062206
52.145638
52.145638
64.302116
64.302116
46.185257
46.185272
59.807671
48.564552
77.343544
51.047516
71.095879
72.326698
61.920807
62.411549
62.411549
46.813629
42.194901
62.302803
65.722801
34.765472
39.503151
44.165512
48.325237
22.722393
59.032505
59.032505
67.510002
67.510002
67.510002
67.510002
67.510002
67.510002
33.755001
0.000000
