59.735863
59.735863
66.178123
58.995338
49.259983
58.101629
66.943275
78.460442
74.543610
57.126820
76.882843
61.002880
61.002880
73.126244
87.116844
55.624462
43.521885
43.521885
67.846153
82.931107
66.337402
63.839027
70.206161
77.165352
61.809433
81.168137
81.168137
61.841801
61.841801
45.699482
65.770180
65.770180
68.542122
51.566883
62.634632
59.128490
53.915607
38.304188
56.944862
62.269081
64.217064
73.557213
75.247414
56.230873
48.886837
70.614609
64.892700
57.848709
62.880230
43.947647
54.899681
37.973049
52.747253
52.747253
52.747253
52.747253
59.544975
64.291962
55.429863
69.306931
55.232014
77.638565
78.656364
70.187538
58.473846
72.255600
76.425392
70.018524
86.558281
79.318924
79.720406
69.339622
40.966095
48.650436
74.367622
65.815987
68.732628
79.440376
66.082268
75.838348
64.295090
92.015251
92.015251
64.783073
45.975815
51.845757
61.050735
61.050735
103.407845
55.267776
60.664421
63.774403
61.352253
37.010098
49.443157
63.103672
55.612770
72.291130
68.439293
53.685555
53.685555
78.661041
55.672447
55.672447
69.868767
47.045856
42.135853
42.135853
48.224392
48.224392
48.224392
48.224392
48.224392
63.480640
63.480640
74.111420
74.111420
65.017075
65.017075
45.334614
57.677216
81.280334
81.280334
50.567707
64.889519
69.314194
69.314194
62.816040
62.816040
75.453407
61.272694
61.272694
55.725208
55.725208
79.150467
79.150467
39.827206
50.669464
47.456999
44.244534
56.528799
68.813065
62.693993
67.589661
56.074768
51.844742
40.404350
62.868275
68.483582
42.929459
58.806534
60.969147
51.617184
37.428391
46.964855
46.964855
51.402596
65.843826
63.302948
56.742153
48.313766
60.784267
71.900223
52.244995
66.960220
69.264709
87.396736
45.539032
69.540077
59.534256
59.239689
63.943935
60.180130
66.148346
53.200901
47.595066
50.406719
64.497261
77.540733
36.421700
55.756596
49.001152
77.479431
50.887550
73.536766
69.470703
60.420616
73.581757
55.622124
47.933044
41.443474
62.216370
65.239906
35.025944
39.335197
44.174358
40.041767
25.100792
46.571174
68.041557
68.041557
68.041557
34.020778
17.010389
8.505195
4.252597
2.126299
0.000000
