47.280926
47.280926
47.280926
53.260010
53.260010
53.260010
53.329159
53.329159
53.329159
50.999996
50.999996
50.999996
54.288471
54.288471
54.288471
54.288471
54.288471
54.288471
56.884735
56.884735
56.884735
51.088531
51.088531
51.088531
56.110245
56.110245
56.110245
53.072456
53.072456
53.072456
52.141441
52.141441
52.141441
31.347437
31.347437
31.347437
50.367725
50.367725
50.367725
54.393768
54.393768
54.393768
58.051907
58.051907
58.051907
55.805683
55.805683
55.805683
56.191299
56.191299
56.191299
62.863766
62.863766
62.863766
52.897221
52.897221
52.897221
54.149208
54.149208
54.149208
61.240177
61.240177
61.240177
54.725262
54.725262
54.725262
53.585152
53.585152
53.585152
37.786911
37.786911
37.786911
48.345322
48.345322
48.345322
58.123028
58.123028
58.123028
63.863571
63.863571
63.863571
58.783516
58.783516
58.783516
57.477211
57.477211
57.477211
60.150574
60.150574
60.150574
64.661865
64.661865
64.661865
56.845596
56.845596
56.845596
63.863571
63.863571
63.863571
64.661865
64.661865
64.661865
60.931095
60.931095
60.931095
36.925152
36.925152
36.925152
61.254021
61.254021
61.254021
55.451008
55.451008
55.451008
65.848068
65.848068
65.848068
56.643505
56.643505
56.643505
59.189278
59.189278
59.189278
71.187103
71.187103
71.187103
56.643501
56.643501
56.643501
64.242020
64.242020
64.242020
64.242020
64.242020
64.242020
60.549953
60.549953
60.549953
66.681595
66.681595
66.681595
56.040913
56.040913
56.040913
61.595757
61.595757
61.595757
63.161163
63.161163
63.161163
57.048794
57.048794
57.048794
66.319221
66.319221
66.319221
63.161163
63.161163
63.161163
69.809708
69.809708
69.809708
65.356339
65.356339
65.356339
68.025932
68.025932
68.025932
69.042091
69.042091
69.042091
76.477997
76.477997
76.477997
70.817047
70.817047
70.817047
63.573162
63.573162
63.573162
59.780136
59.780136
59.780136
48.389843
48.389843
48.389843
69.541008
69.541008
69.541008
63.338142
63.338142
63.338142
67.346893
67.346893
67.346893
68.210312
68.210312
68.210312
72.882256
72.882256
72.882256
64.882980
64.882980
64.882980
67.346886
67.346886
67.346886
70.938721
70.938721
70.938721
70.005325
70.005325
70.005325
67.346893
67.346893
67.346893
74.935265
74.935265
74.935265
59.115604
59.115604
59.115604
77.120979
77.120979
77.120979
66.910881
66.910881
66.910881
78.894928
78.894928
78.894928
68.648827
68.648827
68.648827
81.322456
81.322456
81.322456
72.410408
72.410408
72.410408
76.608109
76.608109
76.608109
75.883911
75.883911
75.883911
72.363113
72.363113
72.363113
77.652031
77.652031
77.652031
81.291977
81.291977
81.291977
63.057796
63.057796
63.057796
71.796997
71.796997
71.796997
67.895424
67.895424
67.895424
68.800697
68.800697
68.800697
65.317123
65.317123
65.317123
68.800705
68.800705
68.800705
66.154518
66.154518
66.154518
69.730438
69.730438
69.730438
72.676796
72.676796
72.676796
72.676804
72.676804
72.676804
70.685654
70.685654
70.685654
74.278976
74.278976
74.278976
71.422462
71.422462
71.422462
63.387436
63.387436
63.387436
68.526955
68.526955
68.526955
70.430481
70.430481
70.430481
70.430481
70.430481
70.430481
66.723618
66.723618
66.723618
70.430481
70.430481
70.430481
64.189804
64.189804
64.189804
74.573456
74.573456
74.573456
64.189812
64.189812
64.189812
78.015305
78.015305
78.015305
64.189804
64.189804
64.189804
69.465683
69.465683
69.465683
72.442787
72.442787
72.442787
71.422462
71.422462
71.422462
62.526878
62.526878
62.526878
76.613159
76.613159
76.613159
63.742908
63.742908
63.742908
71.658577
71.658577
71.658577
72.744308
72.744308
72.744308
65.768822
65.768822
65.768822
70.604767
70.604767
70.604767
69.721970
69.721970
69.721970
69.896278
69.896278
69.896278
78.050850
78.050850
78.050850
67.870300
67.870300
67.870300
65.010101
65.010101
65.010101
76.960289
76.960289
76.960289
62.200783
62.200783
62.200783
54.175114
54.175114
54.175114
60.256798
60.256798
60.256798
61.571918
61.571918
61.571918
69.268402
69.268402
69.268402
66.166832
66.166832
66.166832
68.760674
68.760674
68.760674
73.741325
73.741325
73.741325
71.283287
71.283287
71.283287
76.374947
76.374947
76.374947
63.425686
63.425686
63.425686
67.696716
67.696716
67.696716
76.364746
76.364746
76.364746
73.140785
73.140785
73.140785
71.513290
71.513290
71.513290
65.109192
65.109192
65.109192
72.424225
72.424225
72.424225
55.219284
55.219284
55.219284
50.630150
50.630150
50.630150
44.354824
44.354824
44.354824
24.144690
24.144690
24.144690
38.063580
38.063580
38.063580
25.056829
25.056829
25.056829
27.823963
27.823963
27.823960
13.911980
6.955990
0.000000
