53.851460
53.851460
53.851452
51.779095
50.191002
45.627018
48.998989
45.541187
38.410194
20.561876
37.861216
55.160557
55.160557
50.640682
53.511250
51.738010
52.076248
52.076252
53.014133
49.311546
52.751919
54.952950
56.242897
53.134056
53.134056
49.286827
54.405182
54.405182
55.613457
47.639275
51.156666
57.525936
57.525936
52.326958
53.322388
48.749348
61.545902
54.361126
56.083488
56.083488
48.890720
53.102482
53.102482
54.627739
54.627739
54.039165
54.039165
52.563622
53.016773
53.472878
53.472889
53.435699
54.112610
54.112610
55.767654
48.611526
35.871273
28.618481
20.000000
33.254906
46.509811
51.543690
51.543690
47.862160
57.454727
51.482735
51.482735
48.895939
52.728180
49.589748
48.691025
52.951843
52.951843
46.999172
48.215496
43.094788
50.805176
50.805176
46.578308
52.200401
44.668743
54.251865
37.209457
40.417656
33.877071
20.010948
31.249100
42.487251
60.506817
60.506817
52.637424
53.614780
59.084721
53.030487
49.733768
46.438702
26.526114
37.639322
48.752529
57.892891
56.096294
59.415352
56.872921
55.077995
55.077995
57.156578
55.396301
54.236134
57.107323
58.715363
54.239365
54.239365
57.377117
55.319420
55.319420
56.838455
56.838455
54.676548
56.544964
56.544964
61.386261
61.386261
52.604591
62.665218
62.665218
53.699432
54.086674
54.086674
60.918606
50.590755
53.261002
56.828342
56.685879
59.359066
50.672302
56.295986
56.227829
53.813404
58.147404
52.634914
52.634914
42.199112
45.534706
45.534706
39.426250
32.038757
20.000000
36.306877
36.306877
31.680618
20.993149
35.177353
40.371117
51.675838
58.686676
49.130539
47.577339
47.577339
38.064934
45.740120
45.348007
33.680874
33.680874
39.163567
52.157314
41.887791
42.442745
32.613388
46.503075
45.935947
52.058479
30.363644
41.830517
43.531090
46.000660
46.000660
34.370174
30.941582
47.420082
40.441326
38.671207
34.681839
48.853275
49.918434
49.918434
39.480160
55.028812
25.990784
25.990784
59.057999
28.798603
23.700430
39.462585
58.990078
58.930279
58.930279
33.103455
37.463753
37.463753
50.372017
32.197887
20.000000
24.515696
29.031391
48.736172
39.937572
20.000000
20.000000
29.034985
43.802330
23.693453
20.000000
36.649052
36.616653
35.948067
35.948067
32.525040
30.194693
39.255775
39.255775
32.722454
30.209343
33.614185
24.466274
55.836586
55.836586
55.038681
20.000000
35.455097
35.455097
35.455097
20.000000
33.390822
46.781643
50.620636
54.715492
54.715492
50.787762
52.963604
57.080242
50.661114
55.089905
56.105827
54.815422
54.021156
55.975471
55.181225
55.885731
56.908726
56.908737
55.018917
55.018921
55.434578
60.070831
60.975754
48.654186
57.135788
57.135788
66.082344
60.146965
50.738796
50.738789
56.696384
52.049728
52.049728
59.147209
59.781532
52.897343
51.716362
64.320969
47.074772
54.778878
62.482983
45.925594
52.755112
45.028263
45.028263
39.403175
39.403175
36.597004
25.734858
20.000000
37.793728
28.427946
20.000000
20.000000
20.000000
20.000000
20.000000
10.000000
0.000000
