11, 60.267857;
12, 62.863796;
13, 71.740372;
14, 76.058525;
21, 49.700409;
22, 66.858704;
23, 78.460442;
24, 60.382008;
31, 64.500404;
32, 74.02227;
33, 88.194122;
34, 61.282627;
41, 58.738651;
42, 94.264336;
43, 86.065575;
44, 59.506138;
51, 45.957447;
52, 61.542038;
53, 77.010391;
54, 67.907097;
61, 58.595566;
62, 75.522324;
63, 77.74807;
64, 75.159775;
71, 63.640957;
72, 70.820358;
73, 72.932632;
74, 70.934898;
81, 49.477364;
82, 47.868877;
83, 64.568085;
84, 53.255508;
91, 62.874252;
92, 61.070465;
93, 69.082756;
94, 59.687199;
101, 60.271976;
102, 42.503975;
103, 54.740673;
104, 73.412315;
111, 64.084862;
112, 68.350899;
113, 69.254326;
114, 56.072392;
121, 54.863258;
122, 60.805222;
123, 67.188057;
124, 53.040932;
131, 68.793388;
132, 49.254482;
133, 50.120026;
134, 40.014679;
141, 52.678471;
142, 52.678471;
143, 52.678471;
144, 52.678471;
151, 59.427288;
152, 64.417175;
153, 55.41013;
154, 59.991837;
161, 63.066071;
162, 76.75795;
163, 79.583733;
164, 58.97036;
171, 61.583576;
172, 83.048241;
173, 69.265205;
174, 68.85067;
181, 88.826225;
182, 88.826225;
183, 70.654205;
184, 59.929771;
191, 48.595928;
192, 54.370609;
193, 71.033554;
194, 80.828445;
201, 67.985611;
202, 79.098412;
203, 60.967743;
204, 73.412315;
211, 72.45742;
212, 69.701279;
213, 75.606483;
214, 77.244202;
221, 49.885937;
222, 55.329025;
223, 61.234409;
224, 56.566261;
231, 72.007835;
232, 75.328819;
233, 60.636616;
234, 77.320946;
241, 60.050381;
242, 43.163357;
243, 48.51841;
244, 55.781597;
251, 59.837177;
252, 78.897934;
253, 69.203606;
254, 53.228725;
261, 51.978798;
262, 56.138649;
263, 63.236385;
264, 55.094009;
271, 72.830368;
272, 42.006668;
273, 50.403744;
274, 39.219814;
281, 48.342453;
282, 48.342453;
283, 48.342453;
284, 48.342453;
291, 57.332294;
292, 63.56604;
293, 54.932735;
294, 74.332108;
301, 49.221497;
302, 60.656075;
303, 71.393883;
304, 51.068264;
311, 57.66716;
312, 65.956161;
313, 71.792061;
314, 50.556969;
321, 64.039886;
322, 61.632347;
323, 64.53466;
324, 62.828304;
331, 80.867973;
332, 61.740208;
333, 61.740208;
334, 75.260254;
341, 57.004978;
342, 63.845188;
343, 50.072384;
344, 50.072384;
351, 79.752769;
352, 53.050007;
353, 70.144745;
354, 44.378845;
361, 68.691589;
362, 72.558754;
363, 63.18655;
364, 67.239273;
371, 48.852539;
372, 49.334377;
373, 43.692207;
374, 69.706787;
381, 69.802414;
382, 42.940605;
383, 58.672226;
384, 53.464268;
391, 45.414757;
392, 42.543613;
393, 49.069061;
394, 49.069061;
401, 52.041538;
402, 65.362381;
403, 62.569462;
404, 56.742153;
411, 48.279385;
412, 60.847168;
413, 71.89827;
414, 52.240868;
421, 66.153305;
422, 79.359367;
423, 58.592972;
424, 55.7299;
431, 68.252167;
432, 49.227905;
433, 76.478409;
434, 57.404434;
441, 66.873909;
442, 53.062206;
443, 52.145638;
444, 52.145638;
451, 64.302116;
452, 64.302116;
453, 46.185257;
454, 46.185272;
461, 59.807671;
462, 48.564552;
463, 77.343544;
464, 51.047516;
471, 71.095879;
472, 72.326698;
473, 61.920807;
474, 62.411549;
481, 62.411549;
482, 46.813629;
483, 42.194901;
484, 62.302803;
491, 65.722801;
492, 34.765472;
493, 39.503151;
494, 44.165512;
501, 48.325237;
502, 22.722393;
503, 59.032505;
504, 59.032505;
511, 67.510002;
512, 67.510002;
513, 67.510002;
514, 67.510002;
521, 67.510002;
522, 67.510002;
