11, 47.08604;
12, 52.806992;
13, 52.806992;
14, 56.619518;
21, 52.299725;
22, 59.599964;
23, 59.995918;
24, 57.129284;
31, 54.880325;
32, 60.287083;
33, 61.836876;
34, 63.274189;
41, 60.099483;
42, 60.348957;
43, 53.404915;
44, 49.792999;
51, 48.350845;
52, 50.01796;
53, 56.071201;
54, 55.640839;
61, 59.476711;
62, 62.201744;
63, 54.94186;
64, 64.237335;
71, 58.545006;
72, 54.555172;
73, 52.282532;
74, 53.238365;
81, 50.2994;
82, 46.687252;
83, 58.083633;
84, 53.734615;
91, 56.768932;
92, 54.400791;
93, 58.248581;
94, 51.545788;
101, 55.135338;
102, 49.806122;
103, 53.594215;
104, 54.989819;
111, 53.428642;
112, 55.721973;
113, 51.742096;
114, 48.704166;
121, 49.213257;
122, 50.941433;
123, 53.286613;
124, 46.40477;
131, 46.075085;
132, 39.353333;
133, 39.131012;
134, 21.909233;
141, 62.609436;
142, 62.609436;
143, 62.609436;
144, 62.609436;
151, 54.970394;
152, 62.631664;
153, 57.385761;
154, 55.956181;
161, 51.229427;
162, 55.500786;
163, 54.106003;
164, 56.071201;
171, 58.814377;
172, 60.563057;
173, 59.571785;
174, 55.441479;
181, 58.693047;
182, 54.037495;
183, 57.986897;
184, 51.729195;
191, 56.479328;
192, 50.543446;
193, 56.53846;
194, 51.710999;
201, 53.750992;
202, 53.81768;
203, 53.139999;
204, 44.650692;
211, 52.369076;
212, 50.622742;
213, 56.075954;
214, 53.039871;
221, 53.039871;
222, 48.980045;
223, 47.810062;
224, 39.278557;
231, 43.844242;
232, 45.019905;
233, 48.50507;
234, 50.612087;
241, 48.740051;
242, 47.823021;
243, 45.128941;
244, 38.286236;
251, 35.808533;
252, 20.837927;
253, 20.;
254, 20.;
261, 65.896301;
262, 69.383263;
263, 71.209427;
264, 92.744476;
271, 96.428574;
272, 91.043594;
273, 93.65377;
274, 92.754234;
281, 100.238663;
282, 92.494843;
283, 103.310951;
284, 88.132431;
291, 101.531021;
292, 89.899094;
293, 101.468727;
294, 86.436691;
301, 86.67453;
302, 91.143951;
303, 80.759369;
304, 87.387299;
311, 92.624359;
312, 84.407295;
313, 94.439285;
314, 84.447708;
321, 86.86232;
322, 88.429916;
323, 90.638168;
324, 95.173012;
331, 103.793198;
332, 90.285599;
333, 96.225182;
334, 93.843102;
341, 90.341087;
342, 97.960091;
343, 94.614891;
344, 91.741211;
351, 93.36956;
352, 93.926376;
353, 92.140541;
354, 90.501762;
361, 88.106018;
362, 89.030952;
363, 89.355667;
364, 75.591362;
371, 82.038879;
372, 87.174248;
373, 81.505669;
374, 94.63858;
381, 79.843086;
382, 93.996445;
383, 81.985497;
384, 95.190132;
391, 81.581055;
392, 94.944206;
393, 77.958809;
394, 92.979126;
401, 92.105263;
402, 86.335159;
403, 78.115311;
404, 26.430397;
411, 89.301384;
412, 89.628075;
413, 88.285339;
414, 82.322197;
421, 89.834999;
422, 96.48835;
423, 87.965424;
424, 87.965431;
431, 90.581146;
432, 85.456833;
433, 91.588783;
434, 83.103012;
441, 90.254799;
442, 93.637199;
443, 91.560265;
444, 87.450836;
451, 88.023949;
452, 90.024498;
453, 92.848618;
454, 96.382912;
461, 89.966339;
462, 86.640472;
463, 89.694916;
464, 84.423454;
471, 96.781273;
472, 92.134125;
473, 98.335068;
474, 88.106018;
481, 94.76738;
482, 86.617783;
483, 73.138374;
484, 37.619961;
491, 89.828896;
492, 84.65033;
493, 92.063606;
494, 84.867538;
501, 91.862244;
502, 86.575272;
503, 84.407295;
504, 87.421944;
511, 87.497108;
512, 89.786224;
513, 85.558235;
514, 87.900536;
521, 89.334549;
522, 90.647484;
523, 85.755959;
524, 90.15332;
531, 86.397179;
532, 88.881424;
533, 94.716492;
534, 92.359245;
541, 86.631958;
542, 91.294899;
543, 86.107582;
544, 91.395805;
551, 95.299835;
552, 87.572395;
553, 88.884407;
554, 91.626846;
561, 90.750076;
562, 84.021339;
563, 95.142212;
564, 83.882828;
571, 92.362465;
572, 80.206123;
573, 94.419067;
574, 80.749512;
581, 90.868507;
582, 79.590919;
583, 98.584206;
584, 81.170624;
591, 84.256783;
592, 73.643196;
593, 34.26041;
594, 53.18486;
601, 90.681656;
602, 84.992935;
603, 90.418259;
604, 86.930809;
611, 85.683754;
612, 87.679764;
613, 90.681656;
614, 82.489014;
621, 83.866875;
622, 89.208054;
623, 87.007988;
624, 84.498947;
631, 88.800888;
632, 89.920479;
633, 96.467239;
634, 87.665245;
641, 88.288292;
642, 92.372139;
643, 89.416061;
644, 89.914368;
651, 91.843109;
652, 83.747429;
653, 90.024498;
654, 89.858131;
661, 89.858131;
662, 89.858139;
663, 92.890671;
664, 92.404404;
671, 91.490616;
672, 80.552849;
673, 74.338371;
674, 57.242992;
681, 41.215595;
682, 85.456833;
683, 85.456833;
684, 85.456833;
691, 67.510002;
692, 67.510002;
693, 67.510002;
694, 67.510002;
701, 67.510002;
702, 67.510002;
703, 67.510002;
704, 67.510002;
711, 67.510002;
712, 67.510002;
713, 67.510002;
714, 67.510002;
721, 67.510002;
722, 67.510002;
723, 67.510002;
724, 67.510002;
731, 67.510002;
732, 67.510002;
733, 67.510002;
734, 67.510002;
741, 67.510002;
742, 67.510002;
743, 67.510002;
744, 67.510002;
751, 67.510002;
752, 67.510002;
753, 67.510002;
754, 67.510002;
761, 67.510002;
762, 67.510002;
763, 67.510002;
764, 67.510002;
771, 67.510002;
772, 67.510002;
773, 67.510002;
774, 67.510002;
781, 67.510002;
782, 67.510002;
783, 67.510002;
784, 67.510002;
791, 67.510002;
792, 67.510002;
793, 67.510002;
794, 67.510002;
801, 67.510002;
802, 67.510002;
803, 67.510002;
804, 67.510002;
811, 67.510002;
812, 67.510002;
813, 67.510002;
814, 67.510002;
821, 67.510002;
822, 67.510002;
823, 67.510002;
824, 67.510002;
831, 67.510002;
832, 67.510002;
833, 67.510002;
834, 67.510002;
841, 67.510002;
842, 67.510002;
843, 67.510002;
844, 67.510002;
851, 67.510002;
852, 67.510002;
853, 67.510002;
854, 67.510002;
861, 67.510002;
862, 67.510002;
863, 67.510002;
864, 67.510002;
871, 67.510002;
872, 67.510002;
873, 67.510002;
