11, 59.735863;
12, 59.735863;
13, 66.178123;
14, 58.995338;
21, 49.259983;
23, 66.943275;
24, 78.460442;
31, 74.54361;
32, 57.12682;
33, 76.882843;
34, 61.00288;
41, 61.00288;
42, 73.126244;
43, 87.116844;
44, 55.624462;
51, 43.521885;
52, 43.521885;
53, 67.846153;
54, 82.931107;
61, 66.337402;
62, 63.839027;
63, 70.206161;
64, 77.165352;
71, 61.809433;
72, 81.168137;
73, 81.168137;
74, 61.841801;
81, 61.841801;
82, 45.699482;
83, 65.77018;
84, 65.77018;
91, 68.542122;
92, 51.566883;
93, 62.634632;
94, 59.12849;
101, 53.915607;
102, 38.304188;
103, 56.944862;
104, 62.269081;
111, 64.217064;
112, 73.557213;
113, 75.247414;
114, 56.230873;
121, 48.886837;
122, 70.614609;
123, 64.8927;
124, 57.848709;
131, 62.88023;
132, 43.947647;
133, 54.899681;
134, 37.973049;
141, 52.747253;
142, 52.747253;
143, 52.747253;
144, 52.747253;
151, 59.544975;
152, 64.291962;
153, 55.429863;
154, 69.306931;
161, 55.232014;
162, 77.638565;
163, 78.656364;
164, 70.187538;
171, 58.473846;
172, 72.2556;
173, 76.425392;
174, 70.018524;
181, 86.558281;
182, 79.318924;
183, 79.720406;
184, 69.339622;
191, 40.966095;
192, 48.650436;
193, 74.367622;
194, 65.815987;
201, 68.732628;
202, 79.440376;
203, 66.082268;
204, 75.838348;
211, 64.29509;
212, 92.015251;
213, 92.015251;
214, 64.783073;
221, 45.975815;
222, 51.845757;
223, 61.050735;
224, 61.050735;
231, 103.407845;
232, 55.267776;
233, 60.664421;
234, 63.774403;
241, 61.352253;
242, 37.010098;
243, 49.443157;
244, 63.103672;
251, 55.61277;
252, 72.29113;
253, 68.439293;
254, 53.685555;
261, 53.685555;
262, 78.661041;
263, 55.672447;
264, 55.672447;
271, 69.868767;
272, 47.045856;
273, 42.135853;
274, 42.135853;
281, 48.224392;
282, 48.224392;
283, 48.224392;
284, 48.224392;
291, 48.224392;
292, 63.48064;
293, 63.48064;
294, 74.11142;
301, 74.11142;
302, 65.017075;
303, 65.017075;
304, 45.334614;
311, 57.677216;
312, 81.280334;
313, 81.280334;
314, 50.567707;
321, 64.889519;
322, 69.314194;
323, 69.314194;
324, 62.81604;
331, 62.81604;
332, 75.453407;
333, 61.272694;
334, 61.272694;
341, 55.725208;
342, 55.725208;
343, 79.150467;
344, 79.150467;
351, 39.827206;
352, 50.669464;
354, 44.244534;
362, 68.813065;
363, 62.693993;
364, 67.589661;
371, 56.074768;
372, 51.844742;
373, 40.40435;
374, 62.868275;
381, 68.483582;
382, 42.929459;
383, 58.806534;
384, 60.969147;
391, 51.617184;
392, 37.428391;
393, 46.964855;
394, 46.964855;
401, 51.402596;
402, 65.843826;
403, 63.302948;
404, 56.742153;
411, 48.313766;
412, 60.784267;
413, 71.900223;
414, 52.244995;
421, 66.96022;
422, 69.264709;
423, 87.396736;
424, 45.539032;
431, 69.540077;
432, 59.534256;
433, 59.239689;
434, 63.943935;
441, 60.18013;
442, 66.148346;
443, 53.200901;
444, 47.595066;
451, 50.406719;
452, 64.497261;
453, 77.540733;
454, 36.4217;
461, 55.756596;
462, 49.001152;
463, 77.479431;
464, 50.88755;
471, 73.536766;
472, 69.470703;
473, 60.420616;
474, 73.581757;
481, 55.622124;
482, 47.933044;
483, 41.443474;
484, 62.21637;
491, 65.239906;
492, 35.025944;
493, 39.335197;
494, 44.174358;
501, 40.041767;
502, 25.100792;
504, 68.041557;
511, 68.041557;
512, 68.041557;
