11, 46.904915;
12, 46.904915;
13, 49.322422;
14, 56.853096;
21, 56.354225;
22, 51.337769;
23, 61.349407;
24, 60.288456;
31, 53.72916;
32, 53.72916;
33, 59.307407;
34, 59.307407;
41, 62.976009;
42, 61.829655;
43, 59.735863;
44, 54.977249;
51, 49.657501;
52, 47.219643;
53, 50.008503;
54, 56.084274;
61, 55.61277;
62, 59.938839;
63, 61.585011;
64, 56.515518;
71, 62.025318;
72, 57.669674;
73, 55.686726;
74, 52.659664;
81, 52.700764;
82, 50.370258;
83, 49.66589;
84, 57.12682;
91, 59.054592;
92, 55.851063;
93, 57.575562;
94, 53.822441;
101, 53.57341;
102, 51.040684;
103, 53.450226;
104, 54.391842;
111, 53.313454;
112, 55.403172;
113, 52.427185;
114, 48.51841;
121, 49.871834;
122, 50.155434;
123, 52.687122;
124, 47.772079;
131, 45.946274;
132, 38.772072;
133, 40.006046;
134, 21.66136;
141, 62.603142;
142, 62.603142;
143, 62.603142;
144, 62.603142;
151, 55.227402;
152, 62.609436;
153, 57.182373;
154, 56.130676;
161, 51.183846;
162, 55.400848;
163, 54.164703;
164, 55.006966;
171, 61.269855;
172, 59.201252;
173, 59.888641;
174, 55.868752;
181, 58.016136;
182, 53.995594;
183, 57.224422;
184, 52.312134;
191, 56.267944;
192, 50.862118;
193, 56.628002;
194, 52.679779;
201, 52.567795;
202, 53.692093;
203, 53.325272;
204, 44.69519;
211, 51.985306;
212, 50.221119;
213, 56.317043;
214, 50.246868;
221, 56.818913;
222, 48.868778;
223, 47.356552;
224, 39.62027;
231, 43.881325;
232, 45.014545;
233, 48.426949;
234, 50.613056;
241, 48.733768;
242, 48.119591;
243, 44.745075;
244, 38.851204;
251, 35.164192;
252, 20.920965;
253, 68.366791;
254, 68.366791;
261, 68.366791;
262, 68.366791;