11, 49.871834;
12, 49.871834;
13, 61.818096;
14, 61.864346;
21, 60.845772;
22, 56.580116;
23, 61.378349;
24, 59.577152;
31, 69.681091;
32, 53.138931;
33, 59.616077;
34, 61.269855;
41, 61.896183;
42, 56.503448;
43, 60.854168;
44, 58.335907;
51, 57.781757;
52, 49.466267;
53, 60.768913;
54, 61.111366;
61, 57.345963;
63, 53.028179;
64, 64.403069;
71, 59.799313;
72, 58.664421;
73, 60.631058;
74, 56.897106;
81, 49.714413;
82, 52.18935;
83, 57.634502;
84, 57.863892;
91, 60.404064;
92, 60.643566;
93, 57.731327;
94, 60.660248;
101, 53.842865;
102, 55.295494;
103, 57.380783;
104, 58.005962;
111, 59.634888;
112, 55.341755;
113, 52.264603;
114, 56.828678;
121, 56.315845;
122, 60.21574;
123, 54.138107;
124, 52.097897;
131, 51.741333;
132, 52.48542;
133, 46.944027;
134, 41.463604;
141, 54.049637;
142, 54.049637;
143, 54.049637;
144, 54.049637;
151, 55.24239;
152, 59.569103;
153, 53.268375;
154, 61.764706;
161, 54.6875;
162, 61.721485;
163, 61.668259;
164, 67.823547;
171, 51.902706;
172, 61.293507;
173, 60.427917;
174, 62.181278;
181, 55.665417;
182, 61.333767;
183, 60.66164;
184, 63.313553;
191, 42.887707;
192, 63.156387;
193, 59.875092;
194, 58.084911;
201, 62.473438;
202, 61.419186;
203, 60.386143;
204, 60.752171;
211, 61.553493;
212, 54.618641;
213, 59.169479;
214, 57.188553;
221, 54.722561;
222, 54.778072;
223, 60.317314;
224, 58.77388;
231, 57.659622;
232, 59.834473;
233, 61.484837;
234, 60.084473;
241, 52.895668;
242, 54.172466;
243, 59.06382;
244, 57.170021;
251, 59.668507;
252, 55.522915;
253, 55.752747;
254, 55.079723;
261, 54.299198;
262, 60.069469;
263, 54.536461;
264, 51.724136;
271, 51.973049;
272, 51.484608;
273, 56.745804;
274, 36.385639;
281, 54.22131;
282, 54.22131;
283, 54.22131;
284, 54.22131;
291, 52.766975;
292, 63.019505;
293, 56.618309;
294, 55.835743;
301, 70.904121;
302, 57.645802;
303, 60.667202;
304, 64.756126;
311, 57.855034;
312, 57.613171;
313, 63.179008;
314, 58.63842;
321, 53.877949;
322, 62.774311;
323, 62.407131;
324, 55.346386;
331, 53.006931;
332, 62.122883;
333, 58.293495;
334, 55.090569;
341, 60.898987;
342, 58.207577;
343, 49.377647;
344, 56.161652;
351, 55.663078;
352, 61.721485;
353, 59.467358;
354, 54.444443;
361, 53.496693;
362, 54.736145;
363, 47.971283;
364, 53.026051;
371, 42.328548;
372, 43.255791;
373, 45.572762;
374, 57.242992;
381, 53.096279;
382, 54.522976;
383, 48.023521;
384, 53.316677;
391, 40.806885;
392, 35.022701;
393, 43.727226;
394, 43.727226;
401, 52.754353;
402, 64.204597;
403, 55.768661;
404, 55.79924;
411, 72.212219;
412, 58.10532;
413, 60.09539;
414, 64.307587;
421, 57.953873;
422, 57.903145;
423, 62.258823;
424, 59.074368;
431, 52.31834;
432, 65.012283;
433, 61.494839;
434, 56.022526;
441, 51.609127;
442, 62.6124;
443, 58.222946;
444, 57.023403;
451, 61.231575;
452, 65.129105;
453, 45.453766;
454, 56.539669;
461, 54.303658;
462, 62.585743;
463, 58.659218;
464, 55.259697;
471, 52.946472;
472, 55.212421;
473, 48.08461;
474, 52.652527;
481, 42.534721;
482, 43.215523;
483, 45.561775;
484, 57.598118;
491, 52.6651;
492, 54.801899;
493, 48.372059;
494, 52.160542;
501, 36.011761;
502, 20.054113;
503, 42.982529;
504, 42.982529;
511, 42.982529;
512, 42.982529;