11, 52.371151;
12, 52.749092;
13, 52.465649;
14, 53.341396;
21, 47.791061;
23, 56.466068;
24, 57.389492;
31, 51.039696;
33, 58.495823;
34, 57.205864;
41, 57.537998;
42, 59.793907;
43, 62.121426;
44, 58.222946;
51, 44.653706;
53, 53.892216;
54, 55.756912;
61, 55.756912;
62, 54.686371;
63, 57.339748;
64, 55.589401;
71, 50.1973;
72, 59.857483;
73, 52.501041;
74, 52.501041;
81, 58.921772;
82, 51.281059;
83, 41.614243;
84, 54.900822;
91, 53.166695;
92, 56.768932;
93, 56.854321;
94, 55.713474;
101, 56.374638;
102, 45.428013;
103, 41.489613;
104, 57.460529;
111, 52.805939;
112, 53.888924;
113, 52.808048;
114, 36.584354;
121, 36.769917;
122, 53.864788;
124, 53.027115;
131, 51.591015;
132, 51.458576;
133, 49.765842;
134, 32.793388;
141, 38.422863;
142, 38.422863;
143, 38.422863;
144, 38.422863;
152, 50.366421;
153, 51.902706;
154, 50.418247;
161, 44.779907;
162, 57.600628;
163, 59.165512;
164, 56.754322;
171, 46.255508;
173, 58.033951;
174, 54.961262;
181, 57.316147;
182, 59.694084;
183, 59.239689;
184, 56.783554;
191, 42.706348;
192, 51.771702;
194, 58.359066;
201, 53.756451;
202, 50.321404;
203, 56.511894;
204, 48.587902;
211, 58.269104;
212, 56.385448;
213, 50.416325;
221, 50.048233;
222, 35.773193;
223, 42.458279;
224, 51.825447;
231, 55.40781;
232, 63.608826;
233, 52.275959;
234, 63.670052;
241, 55.203205;
242, 49.894402;
243, 39.993351;
244, 57.260334;
251, 53.567089;
252, 57.313667;
253, 50.765511;
254, 34.953304;
261, 36.173237;
262, 56.567471;
263, 56.850655;
264, 47.555714;
271, 49.421917;
272, 52.129715;
273, 43.692207;
274, 30.772451;
281, 39.740471;
282, 39.740471;
283, 39.740471;
284, 39.740471;
291, 50.142128;
292, 56.033203;
293, 46.937363;
294, 51.384628;
301, 43.115528;
302, 51.789944;
303, 59.017712;
304, 50.013229;
311, 47.149807;
312, 58.428654;
313, 61.646709;
314, 55.429863;
321, 54.957836;
322, 58.78302;
323, 56.374638;
324, 58.305054;
331, 53.904293;
332, 58.604652;
333, 56.202209;
334, 52.317307;
341, 51.195728;
342, 56.611038;
343, 61.576412;
344, 41.065277;
351, 54.858707;
352, 55.465885;
353, 59.186687;
354, 56.560215;
361, 60.199299;
362, 51.480602;
363, 53.431877;
364, 49.849285;
371, 44.860382;
372, 31.895658;
373, 38.08345;
374, 55.575394;
381, 55.944351;
382, 53.655075;
383, 46.739208;
384, 52.515629;
391, 48.517521;
392, 30.990501;
393, 30.523607;
394, 30.523607;
402, 50.528004;
403, 51.230419;
404, 57.114487;
411, 49.953747;
412, 49.919819;
414, 54.112644;
421, 51.155148;
422, 59.351307;
423, 58.455761;
424, 55.583565;
431, 54.56345;
432, 57.266529;
433, 57.45554;
434, 57.173725;
441, 53.421089;
442, 56.14735;
443, 55.819252;
444, 48.670124;
451, 48.611111;
452, 54.778072;
453, 50.213493;
454, 38.500713;
461, 50.407681;
462, 54.474709;
464, 58.207577;
471, 54.354973;
472, 49.147442;
473, 49.624905;
474, 47.40831;
481, 45.861065;
482, 28.796238;
483, 32.451923;
491, 55.644348;
492, 56.325436;
493, 39.617897;
501, 48.033981;
502, 20.;
503, 20.;
504, 115.621582;
511, 115.621582;
512, 115.621582;
513, 115.621582;
